# Run on (4 X 2100 MHz CPU s)
# 2016-04-21 11:42:44
name,iterations,real_time,cpu_time,bytes_per_second,items_per_second,label
"WidthR<1000>/1/10/real_time",7587,90556.1,70564.7,,,
"WidthR<1000>/1/20/real_time",9689,72457.9,56462.6,,,
"WidthR<1000>/1/30/real_time",10000,67414.5,52536.6,,,
"WidthR<1000>/1/40/real_time",10945,64030.9,49895.5,,,
"WidthR<1000>/1/50/real_time",37229,49192.2,49179.4,,,
"WidthR<1000>/1/60/real_time",11183,62796.4,48935.5,,,
"WidthR<1000>/1/70/real_time",21931,63082.1,49158.1,,,
"WidthR<1000>/1/80/real_time",35639,48443.4,48430.7,,,
"WidthR<1000>/1/90/real_time",11266,61801,48161.4,,,
"WidthR<1000>/1/100/real_time",11348,61741.6,48114.5,,,
"WidthR<1000>/1/110/real_time",41847,48299.5,48285.9,,,
"WidthR<1000>/1/120/real_time",11403,61416.4,47859.5,,,
"WidthR<1000>/1/130/real_time",22157,61578.6,47986.6,,,
"WidthR<1000>/1/140/real_time",10000,61461,47891.6,,,
"WidthR<1000>/1/150/real_time",11282,61168.1,47663.4,,,
"WidthR<1000>/1/160/real_time",35555,47658.8,47633.4,,,
"WidthR<1000>/1/170/real_time",11480,61027.4,47556,,,
"WidthR<1000>/1/180/real_time",11478,61098.8,47603,,,
"WidthR<1000>/1/190/real_time",42584,47698.1,47673.2,,,
"WidthR<1000>/1/200/real_time",11485,61022.6,47514.8,,,
"WidthR<1000>/1/210/real_time",22360,61105,47592.4,,,
"WidthR<1000>/1/220/real_time",35705,47626.4,47598.3,,,
"WidthR<1000>/1/230/real_time",11458,61100.6,47611.7,,,
"WidthR<1000>/1/240/real_time",22332,60967.9,47489.8,,,
"WidthR<1000>/1/250/real_time",34976,47901.5,47874.8,,,
"WidthR<1000>/1/260/real_time",11530,60909.2,47461.1,,,
"WidthR<1000>/1/270/real_time",22331,60830.5,47401.8,,,
"WidthR<1000>/1/280/real_time",34936,47420.9,47395.5,,,
"WidthR<1000>/1/290/real_time",11486,60800.8,47338.4,,,
"WidthR<1000>/1/300/real_time",11527,60849,47415.5,,,
"WidthR<1000>/1/310/real_time",42385,47486.7,47462.1,,,
"WidthR<1000>/1/320/real_time",11539,60764.1,47352.5,,,
"WidthR<1000>/1/330/real_time",22385,61180,47674.4,,,
"WidthR<1000>/1/340/real_time",35323,47323,47310.4,,,
"WidthR<1000>/1/350/real_time",11504,60901.8,47419.3,,,
"WidthR<1000>/1/360/real_time",22463,60747.1,47318.4,,,
"WidthR<1000>/1/370/real_time",36020,47399.2,47373.9,,,
"WidthR<1000>/1/380/real_time",11497,60777.1,47360.2,,,
"WidthR<1000>/1/390/real_time",11528,60686.2,47290.2,,,
"WidthR<1000>/1/400/real_time",11529,60712.7,47271.9,,,
"WidthR<1000>/1/410/real_time",11514,60767.6,47352.6,,,
"WidthR<1000>/1/420/real_time",39403,47385.7,47360.5,,,
"WidthR<1000>/1/430/real_time",11514,60773.9,47355.2,,,
"WidthR<1000>/1/440/real_time",22398,60764.2,47350,,,
"WidthR<1000>/1/450/real_time",35051,47320.5,47307,,,
"WidthR<1000>/1/460/real_time",11529,60759.5,47309.2,,,
"WidthR<1000>/1/470/real_time",11523,60726.9,47321.2,,,
"WidthR<1000>/1/480/real_time",42557,47297.6,47272.1,,,
"WidthR<1000>/1/490/real_time",11515,60814.2,47350.4,,,
"WidthR<1000>/1/500/real_time",21232,61836,48173.1,,,
"WidthR<1000>/1/510/real_time",33519,47279.6,47252.7,,,
"WidthR<1000>/1/520/real_time",11500,60455.3,47099.5,,,
"WidthR<1000>/1/530/real_time",22473,61031.5,47537.7,,,
"WidthR<1000>/1/540/real_time",35642,48747.8,48716.9,,,
"WidthR<1000>/1/550/real_time",11591,60475.5,47122.8,,,
"WidthR<1000>/1/560/real_time",11599,60388.2,47056.7,,,
"WidthR<1000>/1/570/real_time",42614,47203.2,47178.6,,,
"WidthR<1000>/1/580/real_time",11603,60383.1,47042.5,,,
"WidthR<1000>/1/590/real_time",22691,47192.4,47163.1,,,
"WidthR<1000>/1/600/real_time",11581,60511.6,47148.3,,,
"WidthR<1000>/1/610/real_time",11573,60493.8,47101.3,,,
"WidthR<1000>/1/620/real_time",42748,47174.5,47149.4,,,
"WidthR<1000>/1/630/real_time",11572,60589.9,47212.8,,,
"WidthR<1000>/1/640/real_time",22608,60401.5,47048,,,
"WidthR<1000>/1/650/real_time",35397,47135.5,47109.4,,,
"WidthR<1000>/1/660/real_time",11586,60440.9,47095,,,
"WidthR<1000>/1/670/real_time",22490,60548.4,47182.3,,,
"WidthR<1000>/1/680/real_time",35250,47144.6,47129.1,,,
"WidthR<1000>/1/690/real_time",11576,60593.6,47181.6,,,
"WidthR<1000>/1/700/real_time",11550,60891.1,47445.5,,,
"WidthR<1000>/1/710/real_time",42986,47174.3,47146.4,,,
"WidthR<1000>/1/720/real_time",11599,60452.2,47069.6,,,
"WidthR<1000>/1/730/real_time",22304,60547.5,47180.5,,,
"WidthR<1000>/1/740/real_time",35286,47194.3,47169.2,,,
"WidthR<1000>/1/750/real_time",11540,60649.7,47259.7,,,
"WidthR<1000>/1/760/real_time",22450,60584.7,47189.8,,,
"WidthR<1000>/1/770/real_time",35274,47058.8,47030.1,,,
"WidthR<1000>/1/780/real_time",11587,60480.8,47128.9,,,
"WidthR<1000>/1/790/real_time",11577,60433.8,47092.5,,,
"WidthR<1000>/1/800/real_time",42839,47789.8,47763.6,,,
"WidthR<1000>/1/810/real_time",11585,60459.3,47112.2,,,
"WidthR<1000>/1/820/real_time",10000,60537.9,47169.4,,,
"WidthR<1000>/1/830/real_time",11552,60689.9,47254.3,,,
"WidthR<1000>/1/840/real_time",35918,47123.3,47098,,,
"WidthR<1000>/1/850/real_time",11550,60442.7,47097.6,,,
"WidthR<1000>/1/860/real_time",11560,60590.8,47213.8,,,
"WidthR<1000>/1/870/real_time",34489,47218.3,47204.2,,,
"WidthR<1000>/1/880/real_time",11455,60531.7,47166.7,,,
"WidthR<1000>/1/890/real_time",21585,60617.5,47215.9,,,
"WidthR<1000>/1/900/real_time",33649,47273.5,47247.7,,,
"WidthR<1000>/1/910/real_time",11558,60517.5,47158.2,,,
"WidthR<1000>/1/920/real_time",11583,60577.4,47197.4,,,
"WidthR<1000>/1/930/real_time",42620,47171.3,47146.8,,,
"WidthR<1000>/1/940/real_time",11564,60546.3,47178.7,,,
"WidthR<1000>/1/950/real_time",22485,60640.9,47234.8,,,
"WidthR<1000>/1/960/real_time",35364,47115.4,47089.5,,,
"WidthR<1000>/1/970/real_time",11566,60761.3,47334.2,,,
"WidthR<1000>/1/980/real_time",22574,60704.9,47283.8,,,
"WidthR<1000>/1/990/real_time",35489,47322.4,47291.9,,,
"WidthR<1000>/1/1000/real_time",11746,59570.5,46417.2,,,
"WidthR<1000>/2/10/real_time",8381,83165.6,129616,,,
"WidthR<1000>/2/20/real_time",46707,44274.2,88509.3,,,
"WidthR<1000>/2/30/real_time",13168,41901.2,85968.9,,,
"WidthR<1000>/2/40/real_time",13706,51444.8,80142.6,,,
"WidthR<1000>/2/50/real_time",39213,49597.6,77285.4,,,
"WidthR<1000>/2/60/real_time",100000,38227.9,76425.8,,,
"WidthR<1000>/2/70/real_time",24063,47810.9,74514.9,,,
"WidthR<1000>/2/80/real_time",55961,37100.3,74184.2,,,
"WidthR<1000>/2/90/real_time",14514,48259.4,75216.6,,,
"WidthR<1000>/2/100/real_time",15264,45984.7,71659.5,,,
"WidthR<1000>/2/110/real_time",59500,37698.8,75379.7,,,
"WidthR<1000>/2/120/real_time",24084,47011,73270.1,,,
"WidthR<1000>/2/130/real_time",73170,35846.6,71673.9,,,
"WidthR<1000>/2/140/real_time",23826,48259.2,75215.4,,,
"WidthR<1000>/2/150/real_time",68220,36921.7,73823.7,,,
"WidthR<1000>/2/160/real_time",24735,45499.1,70914.3,,,
"WidthR<1000>/2/170/real_time",80414,34807.5,69596.6,,,
"WidthR<1000>/2/180/real_time",19803,47043.8,73321.6,,,
"WidthR<1000>/2/190/real_time",45576,37750,75485.1,,,
"WidthR<1000>/2/200/real_time",14060,49900.6,77774.1,,,
"WidthR<1000>/2/210/real_time",80295,37907.6,75794.4,,,
"WidthR<1000>/2/220/real_time",14788,47496.7,74026.4,,,
"WidthR<1000>/2/230/real_time",67248,36081.2,72144.2,,,
"WidthR<1000>/2/240/real_time",25092,45181,70417.6,,,
"WidthR<1000>/2/250/real_time",81382,34807.3,69595.3,,,
"WidthR<1000>/2/260/real_time",20825,45381.6,70726.7,,,
"WidthR<1000>/2/270/real_time",47176,35784.6,71554.6,,,
"WidthR<1000>/2/280/real_time",10000,51328.4,79990.8,,,
"WidthR<1000>/2/290/real_time",34105,48132.3,75016.8,,,
"WidthR<1000>/2/300/real_time",14164,49432.3,77044.6,,,
"WidthR<1000>/2/310/real_time",13816,50752.6,79100.2,,,
"WidthR<1000>/2/320/real_time",98700,40318.4,80612.6,,,
"WidthR<1000>/2/330/real_time",13246,40411.9,82968.7,,,
"WidthR<1000>/2/340/real_time",13035,53715.2,83717.7,,,
"WidthR<1000>/2/350/real_time",13139,53248.4,82987,,,
"WidthR<1000>/2/360/real_time",48119,40583.5,81149.3,,,
"WidthR<1000>/2/370/real_time",13659,51325.4,79990.8,,,
"WidthR<1000>/2/380/real_time",26521,50574.7,78823.8,,,
"WidthR<1000>/2/390/real_time",89695,38987.7,77952.9,,,
"WidthR<1000>/2/400/real_time",23209,50065.2,78027.1,,,
"WidthR<1000>/2/410/real_time",59384,38082.1,76146,,,
"WidthR<1000>/2/420/real_time",23825,48107.3,74978.3,,,
"WidthR<1000>/2/430/real_time",67716,36917,73815.8,,,
"WidthR<1000>/2/440/real_time",24286,47033.2,73304.8,,,
"WidthR<1000>/2/450/real_time",74836,35930.3,71841.8,,,
"WidthR<1000>/2/460/real_time",15374,45528.1,70959.2,,,
"WidthR<1000>/2/470/real_time",15413,45831.8,71388.4,,,
"WidthR<1000>/2/480/real_time",100000,36205.4,72389.3,,,
"WidthR<1000>/2/490/real_time",24382,44647.1,69585,,,
"WidthR<1000>/2/500/real_time",59139,35634.4,71252.2,,,
"WidthR<1000>/2/510/real_time",24736,44345.8,69113.5,,,
"WidthR<1000>/2/520/real_time",54533,35574,71132.1,,,
"WidthR<1000>/2/530/real_time",24680,45367.6,70709.2,,,
"WidthR<1000>/2/540/real_time",57679,36007,71996.5,,,
"WidthR<1000>/2/550/real_time",24316,46446.3,72390.2,,,
"WidthR<1000>/2/560/real_time",58980,36786.9,73557.2,,,
"WidthR<1000>/2/570/real_time",23993,47714.1,74366.2,,,
"WidthR<1000>/2/580/real_time",62949,37537.2,75055.1,,,
"WidthR<1000>/2/590/real_time",10000,50027.9,77968.9,,,
"WidthR<1000>/2/600/real_time",27671,49425.8,77033.6,,,
"WidthR<1000>/2/610/real_time",98526,38660.1,77296.9,,,
"WidthR<1000>/2/620/real_time",13953,50413.4,78572.8,,,
"WidthR<1000>/2/630/real_time",26458,53029.9,82639.9,,,
"WidthR<1000>/2/640/real_time",42615,40122.1,80227.4,,,
"WidthR<1000>/2/650/real_time",13551,52001.7,81048,,,
"WidthR<1000>/2/660/real_time",25642,53520.5,83415.5,,,
"WidthR<1000>/2/670/real_time",39634,41586.3,83156.8,,,
"WidthR<1000>/2/680/real_time",13044,53822.9,83887.8,,,
"WidthR<1000>/2/690/real_time",12942,54545,85009.8,,,
"WidthR<1000>/2/700/real_time",46575,42977.1,85933,,,
"WidthR<1000>/2/710/real_time",12644,55446,86416.1,,,
"WidthR<1000>/2/720/real_time",24182,55931.9,87174.4,,,
"WidthR<1000>/2/730/real_time",37320,44224.2,88429.6,,,
"WidthR<1000>/2/740/real_time",12198,57329.9,89351,,,
"WidthR<1000>/2/750/real_time",23429,58016.2,90422.3,,,
"WidthR<1000>/2/760/real_time",36405,45536.2,91050.4,,,
"WidthR<1000>/2/770/real_time",11865,59916.4,93380.6,,,
"WidthR<1000>/2/780/real_time",11494,60784.7,94734.7,,,
"WidthR<1000>/2/790/real_time",44016,46871.7,93720.5,,,
"WidthR<1000>/2/800/real_time",11533,60811.7,94777.2,,,
"WidthR<1000>/2/810/real_time",10000,61493.1,95839.9,,,
"WidthR<1000>/2/820/real_time",11276,62121.2,96816.4,,,
"WidthR<1000>/2/830/real_time",35064,48992.8,97965.7,,,
"WidthR<1000>/2/840/real_time",11041,63237.4,98555.6,,,
"WidthR<1000>/2/850/real_time",10925,63872.3,99546.1,,,
"WidthR<1000>/2/860/real_time",40239,50334.4,100645,,,
"WidthR<1000>/2/870/real_time",10771,65298.4,101769,,,
"WidthR<1000>/2/880/real_time",20905,51418.5,102826,,,
"WidthR<1000>/2/890/real_time",10502,66630.4,103843,,,
"WidthR<1000>/2/900/real_time",10463,67008.1,104433,,,
"WidthR<1000>/2/910/real_time",39994,52723.3,105422,,,
"WidthR<1000>/2/920/real_time",10214,68163.4,106231,,,
"WidthR<1000>/2/930/real_time",20068,68801.1,107231,,,
"WidthR<1000>/2/940/real_time",31735,54128.5,108234,,,
"WidthR<1000>/2/950/real_time",10025,69990.5,109082,,,
"WidthR<1000>/2/960/real_time",19745,70286.3,109542,,,
"WidthR<1000>/2/970/real_time",31941,55272.6,110521,,,
"WidthR<1000>/2/980/real_time",9830,73453.9,114465,,,
"WidthR<1000>/2/990/real_time",19447,71992,112204,,,
"WidthR<1000>/2/1000/real_time",31645,55369,110714,,,
"WidthR<1000>/3/10/real_time",7938,89365.8,208887,,,
"WidthR<1000>/3/20/real_time",21446,65239.5,152483,,,
"WidthR<1000>/3/30/real_time",35941,47612.1,142809,,,
"WidthR<1000>/3/40/real_time",12575,56184.2,131300,,,
"WidthR<1000>/3/50/real_time",12736,55339.7,129358,,,
"WidthR<1000>/3/60/real_time",48673,41438.9,124264,,,
"WidthR<1000>/3/70/real_time",12192,57064,133258,,,
"WidthR<1000>/3/80/real_time",10000,51581.4,120573,,,
"WidthR<1000>/3/90/real_time",12608,55215.8,129069,,,
"WidthR<1000>/3/100/real_time",33945,57888.6,135308,,,
"WidthR<1000>/3/110/real_time",10000,50331.1,117646,,,
"WidthR<1000>/3/120/real_time",14022,50810,118777,,,
"WidthR<1000>/3/130/real_time",68630,40374.9,121074,,,
"WidthR<1000>/3/140/real_time",12674,55026.2,128626,,,
"WidthR<1000>/3/150/real_time",12512,56737,132609,,,
"WidthR<1000>/3/160/real_time",43691,46194,138539,,,
"WidthR<1000>/3/170/real_time",11916,59046.8,138027,,,
"WidthR<1000>/3/180/real_time",25469,53521.1,125084,,,
"WidthR<1000>/3/190/real_time",92312,39344.3,117981,,,
"WidthR<1000>/3/200/real_time",13593,51341.1,120013,,,
"WidthR<1000>/3/210/real_time",26813,50492,117910,,,
"WidthR<1000>/3/220/real_time",99575,38782.1,116293,,,
"WidthR<1000>/3/230/real_time",23688,48570.6,113539,,,
"WidthR<1000>/3/240/real_time",59153,37954.8,113811,,,
"WidthR<1000>/3/250/real_time",22953,49994.2,116851,,,
"WidthR<1000>/3/260/real_time",34600,39739.1,119173,,,
"WidthR<1000>/3/270/real_time",13329,52609,122970,,,
"WidthR<1000>/3/280/real_time",13027,53832.3,125837,,,
"WidthR<1000>/3/290/real_time",46429,43084.2,129199,,,
"WidthR<1000>/3/300/real_time",12300,56844.6,132845,,,
"WidthR<1000>/3/310/real_time",23334,58295.8,136259,,,
"WidthR<1000>/3/320/real_time",35982,46266.9,138747,,,
"WidthR<1000>/3/330/real_time",11567,60739.6,141929,,,
"WidthR<1000>/3/340/real_time",22215,61559.2,143884,,,
"WidthR<1000>/3/350/real_time",34056,49076.5,147172,,,
"WidthR<1000>/3/360/real_time",10981,64036.3,149690,,,
"WidthR<1000>/3/370/real_time",10741,65394.9,152835,,,
"WidthR<1000>/3/380/real_time",10472,66728.6,155989,,,
"WidthR<1000>/3/390/real_time",10306,67901.4,158731,,,
"WidthR<1000>/3/400/real_time",35236,53895.6,161627,,,
"WidthR<1000>/3/410/real_time",9907,70695,165220,,,
"WidthR<1000>/3/420/real_time",19276,72040.1,168378,,,
"WidthR<1000>/3/430/real_time",30454,57295.8,171824,,,
"WidthR<1000>/3/440/real_time",9464,74496.8,174149,,,
"WidthR<1000>/3/450/real_time",18498,75547,176582,,,
"WidthR<1000>/3/460/real_time",29307,60117.8,180287,,,
"WidthR<1000>/3/470/real_time",8920,78884.7,184158,,,
"WidthR<1000>/3/480/real_time",8792,79866.5,186651,,,
"WidthR<1000>/3/490/real_time",10000,81264.2,189951,,,
"WidthR<1000>/3/500/real_time",8485,82576.5,193036,,,
"WidthR<1000>/3/510/real_time",29995,64706.9,194057,,,
"WidthR<1000>/3/520/real_time",8399,83643.6,195521,,,
"WidthR<1000>/3/530/real_time",16609,85215.1,199176,,,
"WidthR<1000>/3/540/real_time",26875,67534.9,202546,,,
"WidthR<1000>/3/550/real_time",7999,87844.3,205352,,,
"WidthR<1000>/3/560/real_time",15984,89029.9,208118,,,
"WidthR<1000>/3/570/real_time",25837,70645.1,211845,,,
"WidthR<1000>/3/580/real_time",7664,91819.1,214641,,,
"WidthR<1000>/3/590/real_time",15410,93032,217442,,,
"WidthR<1000>/3/600/real_time",10000,94248.7,220316,,,
"WidthR<1000>/3/610/real_time",7356,95711.2,223698,,,
"WidthR<1000>/3/620/real_time",38451,75669.4,226925,,,
"WidthR<1000>/3/630/real_time",7114,98496.2,230190,,,
"WidthR<1000>/3/640/real_time",7056,99252.6,232019,,,
"WidthR<1000>/3/650/real_time",30960,78580.3,235663,,,
"WidthR<1000>/3/660/real_time",6838,75736.1,239024,,,
"WidthR<1000>/3/670/real_time",6746,103773,242575,,,
"WidthR<1000>/3/680/real_time",13910,114927,264982,,,
"WidthR<1000>/3/690/real_time",35155,83513.8,250431,,,
"WidthR<1000>/3/700/real_time",6459,108453,253547,,,
"WidthR<1000>/3/710/real_time",6377,109685,256422,,,
"WidthR<1000>/3/720/real_time",29213,86622.9,259771,,,
"WidthR<1000>/3/730/real_time",6225,82995.9,263227,,,
"WidthR<1000>/3/740/real_time",6146,113964,266352,,,
"WidthR<1000>/3/750/real_time",12813,115751,270366,,,
"WidthR<1000>/3/760/real_time",22435,91258.7,273656,,,
"WidthR<1000>/3/770/real_time",5945,117767,275298,,,
"WidthR<1000>/3/780/real_time",10000,90640.9,211801,,,
"WidthR<1000>/3/790/real_time",7680,117064,272540,,,
"WidthR<1000>/3/800/real_time",10000,121892,284801,,,
"WidthR<1000>/3/810/real_time",16227,96377.6,288889,,,
"WidthR<1000>/3/820/real_time",5612,124829,291771,,,
"WidthR<1000>/3/830/real_time",5542,126692,296026,,,
"WidthR<1000>/3/840/real_time",28107,95266.7,285293,,,
"WidthR<1000>/3/850/real_time",7275,72243.7,226600,,,
"WidthR<1000>/3/860/real_time",7174,96619.7,225751,,,
"WidthR<1000>/3/870/real_time",14652,96919.3,226502,,,
"WidthR<1000>/3/880/real_time",17930,97467.1,292303,,,
"WidthR<1000>/3/890/real_time",6975,97706.5,228383,,,
"WidthR<1000>/3/900/real_time",14229,101474,237138,,,
"WidthR<1000>/3/910/real_time",24128,93530,280416,,,
"WidthR<1000>/3/920/real_time",5061,100728,323357,,,
"WidthR<1000>/3/930/real_time",5006,139709,326610,,,
"WidthR<1000>/3/940/real_time",4952,141156,329961,,,
"WidthR<1000>/3/950/real_time",10000,143412,335003,,,
"WidthR<1000>/3/960/real_time",22800,86123.3,258273,,,
"WidthR<1000>/3/970/real_time",6221,111761,260965,,,
"WidthR<1000>/3/980/real_time",12605,114556,267764,,,
"WidthR<1000>/3/990/real_time",22639,88828.5,266267,,,
"WidthR<1000>/3/1000/real_time",6215,109711,256469,,,
"WidthR<1000>/4/10/real_time",10000,92064.6,286860,,,
"WidthR<1000>/4/20/real_time",10045,69694.6,217172,,,
"WidthR<1000>/4/30/real_time",49306,50771.1,202960,,,
"WidthR<1000>/4/40/real_time",11261,46741.6,192977,,,
"WidthR<1000>/4/50/real_time",10757,57826.4,180229,,,
"WidthR<1000>/4/60/real_time",11793,59343.7,184889,,,
"WidthR<1000>/4/70/real_time",40732,46192.6,184658,,,
"WidthR<1000>/4/80/real_time",12323,57164.4,178165,,,
"WidthR<1000>/4/90/real_time",23882,56918.7,177357,,,
"WidthR<1000>/4/100/real_time",37664,47188.9,188667,,,
"WidthR<1000>/4/110/real_time",11031,63300.6,197247,,,
"WidthR<1000>/4/120/real_time",24789,56025.5,174601,,,
"WidthR<1000>/4/130/real_time",39448,42744.4,170844,,,
"WidthR<1000>/4/140/real_time",12530,56590.2,176320,,,
"WidthR<1000>/4/150/real_time",23341,59018.2,183812,,,
"WidthR<1000>/4/160/real_time",35507,47727.1,190800,,,
"WidthR<1000>/4/170/real_time",11047,63360.9,197282,,,
"WidthR<1000>/4/180/real_time",10673,65900.1,205388,,,
"WidthR<1000>/4/190/real_time",39067,53951.7,215648,,,
"WidthR<1000>/4/200/real_time",9865,53257.7,220875,,,
"WidthR<1000>/4/210/real_time",10507,66911.7,208545,,,
"WidthR<1000>/4/220/real_time",11186,62770.5,195598,,,
"WidthR<1000>/4/230/real_time",45584,45734.5,182800,,,
"WidthR<1000>/4/240/real_time",12939,54405.6,169559,,,
"WidthR<1000>/4/250/real_time",26440,51049.8,158953,,,
"WidthR<1000>/4/260/real_time",40022,40422.7,161536,,,
"WidthR<1000>/4/270/real_time",13267,53454.7,166540,,,
"WidthR<1000>/4/280/real_time",24763,54615.1,170192,,,
"WidthR<1000>/4/290/real_time",36955,43673.8,174632,,,
"WidthR<1000>/4/300/real_time",12235,57668.7,179707,,,
"WidthR<1000>/4/310/real_time",11880,59241.1,184431,,,
"WidthR<1000>/4/320/real_time",43970,47066.7,187990,,,
"WidthR<1000>/4/330/real_time",11306,62196.9,193659,,,
"WidthR<1000>/4/340/real_time",21916,62985,196278,,,
"WidthR<1000>/4/350/real_time",10000,64773.3,201761,,,
"WidthR<1000>/4/360/real_time",10657,66020.3,205757,,,
"WidthR<1000>/4/370/real_time",58788,52520.9,209918,,,
"WidthR<1000>/4/380/real_time",10183,69160.3,215449,,,
"WidthR<1000>/4/390/real_time",9919,95012.3,385440,,,
"WidthR<1000>/4/400/real_time",10062,93910.3,272816,,,
"WidthR<1000>/4/410/real_time",22537,423364,1.26641e+06,,,
"WidthR<1000>/4/420/real_time",2197,250093,615587,,,
"WidthR<1000>/4/430/real_time",6728,966017,2.87926e+06,,,
"WidthR<1000>/4/440/real_time",281,2.60597e+06,5.93795e+06,,,
"WidthR<1000>/4/450/real_time",16449,78337.9,243955,,,
"WidthR<1000>/4/460/real_time",25531,62090.9,248229,,,
"WidthR<1000>/4/470/real_time",8652,81480.2,253767,,,
"WidthR<1000>/4/480/real_time",8554,82116.9,255885,,,
"WidthR<1000>/4/490/real_time",10000,83867.7,261183,,,
"WidthR<1000>/4/500/real_time",8297,84514.7,263415,,,
"WidthR<1000>/4/510/real_time",34883,66913,267487,,,
"WidthR<1000>/4/520/real_time",8140,64796,270253,,,
"WidthR<1000>/4/530/real_time",8014,87903.8,273925,,,
"WidthR<1000>/4/540/real_time",7869,89366.4,278473,,,
"WidthR<1000>/4/550/real_time",32456,70888.2,283272,,,
"WidthR<1000>/4/560/real_time",7630,68457.7,286638,,,
"WidthR<1000>/4/570/real_time",7507,93745.5,291863,,,
"WidthR<1000>/4/580/real_time",7384,95035.9,295886,,,
"WidthR<1000>/4/590/real_time",16278,74735.8,298779,,,
"WidthR<1000>/4/600/real_time",7211,97188.8,302851,,,
"WidthR<1000>/4/610/real_time",7120,98582.5,307033,,,
"WidthR<1000>/4/620/real_time",10000,100108,311940,,,
"WidthR<1000>/4/630/real_time",6907,103317,318657,,,
"WidthR<1000>/4/640/real_time",42446,79827.8,319073,,,
"WidthR<1000>/4/650/real_time",6622,104065,324205,,,
"WidthR<1000>/4/660/real_time",13776,105419,328540,,,
"WidthR<1000>/4/670/real_time",10000,107400,334471,,,
"WidthR<1000>/4/680/real_time",10529,108210,337102,,,
"WidthR<1000>/4/690/real_time",16524,109761,341919,,,
"WidthR<1000>/4/700/real_time",37953,87206.3,348430,,,
"WidthR<1000>/4/710/real_time",6234,112394,350320,,,
"WidthR<1000>/4/720/real_time",13070,95215.3,372105,,,
"WidthR<1000>/4/730/real_time",6086,115383,359445,,,
"WidthR<1000>/4/740/real_time",6020,116543,363101,,,
"WidthR<1000>/4/750/real_time",30274,92113.6,368150,,,
"WidthR<1000>/4/760/real_time",5867,119502,372225,,,
"WidthR<1000>/4/770/real_time",5832,120038,374126,,,
"WidthR<1000>/4/780/real_time",27793,94836.2,379082,,,
"WidthR<1000>/4/790/real_time",5678,90099.4,383088,,,
"WidthR<1000>/4/800/real_time",5658,124199,386765,,,
"WidthR<1000>/4/810/real_time",12005,125712,391754,,,
"WidthR<1000>/4/820/real_time",21490,99224.8,396617,,,
"WidthR<1000>/4/830/real_time",5433,93988.7,400652,,,
"WidthR<1000>/4/840/real_time",5430,140257,425890,,,
"WidthR<1000>/4/850/real_time",5337,131163,408657,,,
"WidthR<1000>/4/860/real_time",30610,103636,414212,,,
"WidthR<1000>/4/870/real_time",5218,134166,418138,,,
"WidthR<1000>/4/880/real_time",11439,135475,422136,,,
"WidthR<1000>/4/890/real_time",21314,107028,427810,,,
"WidthR<1000>/4/900/real_time",5073,100715,430789,,,
"WidthR<1000>/4/910/real_time",5014,139344,434295,,,
"WidthR<1000>/4/920/real_time",10929,141066,439522,,,
"WidthR<1000>/4/930/real_time",20381,110912,443371,,,
"WidthR<1000>/4/940/real_time",4845,104563,448987,,,
"WidthR<1000>/4/950/real_time",4812,145436,453197,,,
"WidthR<1000>/4/960/real_time",4780,147091,457885,,,
"WidthR<1000>/4/970/real_time",27484,115406,461314,,,
"WidthR<1000>/4/980/real_time",4672,149272,465046,,,
"WidthR<1000>/4/990/real_time",10312,151027,470457,,,
"WidthR<1000>/4/1000/real_time",10000,150038,466954,,,
"WidthR<2000>/1/10/real_time",16606,153509,153499,,,
"WidthR<2000>/1/20/real_time",4731,106984,115499,,,
"WidthR<2000>/1/30/real_time",5073,138133,107643,,,
"WidthR<2000>/1/40/real_time",11753,133710,104198,,,
"WidthR<2000>/1/50/real_time",23743,98727,98727.2,,,
"WidthR<2000>/1/60/real_time",5576,91488.5,97735.8,,,
"WidthR<2000>/1/70/real_time",5621,124675,97161.2,,,
"WidthR<2000>/1/80/real_time",12286,123704,96398.1,,,
"WidthR<2000>/1/90/real_time",22593,97158.6,97158.9,,,
"WidthR<2000>/1/100/real_time",5676,122516,95471.1,,,
"WidthR<2000>/1/110/real_time",5698,122654,95576.9,,,
"WidthR<2000>/1/120/real_time",5726,122463,95433.5,,,
"WidthR<2000>/1/130/real_time",28787,95688,95680.2,,,
"WidthR<2000>/1/140/real_time",7917,121885,94982.1,,,
"WidthR<2000>/1/150/real_time",5755,121826,94936.8,,,
"WidthR<2000>/1/160/real_time",10000,121438,94636.9,,,
"WidthR<2000>/1/170/real_time",16595,94667.6,94682.3,,,
"WidthR<2000>/1/180/real_time",5766,121770,94892.1,,,
"WidthR<2000>/1/190/real_time",5774,121250,94483.7,,,
"WidthR<2000>/1/200/real_time",29734,94189.3,94184.2,,,
"WidthR<2000>/1/210/real_time",5766,120694,94057.1,,,
"WidthR<2000>/1/220/real_time",5792,121011,94299,,,
"WidthR<2000>/1/230/real_time",29548,94166.7,94161,,,
"WidthR<2000>/1/240/real_time",5769,120497,93901.4,,,
"WidthR<2000>/1/250/real_time",5803,120734,94079.1,,,
"WidthR<2000>/1/260/real_time",29822,93879,93871.4,,,
"WidthR<2000>/1/270/real_time",5805,120432,93855.5,,,
"WidthR<2000>/1/280/real_time",5818,120442,93861.3,,,
"WidthR<2000>/1/290/real_time",30052,93663.1,93654.2,,,
"WidthR<2000>/1/300/real_time",5829,120535,93925.2,,,
"WidthR<2000>/1/310/real_time",5830,120131,93619.6,,,
"WidthR<2000>/1/320/real_time",32834,93739.3,93729.6,,,
"WidthR<2000>/1/330/real_time",5821,120423,93842.1,,,
"WidthR<2000>/1/340/real_time",12616,120223,93686.4,,,
"WidthR<2000>/1/350/real_time",23088,95377.1,95373.7,,,
"WidthR<2000>/1/360/real_time",5821,87774.7,93535.1,,,
"WidthR<2000>/1/370/real_time",5829,120308,93749,,,
"WidthR<2000>/1/380/real_time",5830,120191,93665.7,,,
"WidthR<2000>/1/390/real_time",30125,93645.5,93638.7,,,
"WidthR<2000>/1/400/real_time",5848,120009,93521.2,,,
"WidthR<2000>/1/410/real_time",5830,119938,93463.1,,,
"WidthR<2000>/1/420/real_time",30316,93765.4,93757.7,,,
"WidthR<2000>/1/430/real_time",5833,120090,93584.4,,,
"WidthR<2000>/1/440/real_time",5827,120026,93530.3,,,
"WidthR<2000>/1/450/real_time",29878,93457.3,93448.6,,,
"WidthR<2000>/1/460/real_time",5812,119977,93497.2,,,
"WidthR<2000>/1/470/real_time",5833,120100,93592.5,,,
"WidthR<2000>/1/480/real_time",29667,93446.3,93440.4,,,
"WidthR<2000>/1/490/real_time",5766,120112,93599,,,
"WidthR<2000>/1/500/real_time",5849,119838,93384.2,,,
"WidthR<2000>/1/510/real_time",24947,93377.4,93377.1,,,
"WidthR<2000>/1/520/real_time",5859,87512.8,93197.8,,,
"WidthR<2000>/1/530/real_time",5825,119534,93154,,,
"WidthR<2000>/1/540/real_time",12558,119667,93253.9,,,
"WidthR<2000>/1/550/real_time",22690,93254.6,93256.2,,,
"WidthR<2000>/1/560/real_time",5862,119471,93105.4,,,
"WidthR<2000>/1/570/real_time",10000,119677,93262.5,,,
"WidthR<2000>/1/580/real_time",16649,93206.3,93223.9,,,
"WidthR<2000>/1/590/real_time",5845,119704,93282.8,,,
"WidthR<2000>/1/600/real_time",5848,119738,93307.3,,,
"WidthR<2000>/1/610/real_time",29819,93197.4,93190.5,,,
"WidthR<2000>/1/620/real_time",5822,119626,93221.1,,,
"WidthR<2000>/1/630/real_time",5853,119845,93392.1,,,
"WidthR<2000>/1/640/real_time",29968,93137.7,93130.3,,,
"WidthR<2000>/1/650/real_time",5857,119822,93370.7,,,
"WidthR<2000>/1/660/real_time",5853,119650,93232.7,,,
"WidthR<2000>/1/670/real_time",28882,93336.8,93331.1,,,
"WidthR<2000>/1/680/real_time",8067,119668,93254.4,,,
"WidthR<2000>/1/690/real_time",5858,119880,93422.3,,,
"WidthR<2000>/1/700/real_time",38922,93382.5,93369.7,,,
"WidthR<2000>/1/710/real_time",5859,87433,93125.1,,,
"WidthR<2000>/1/720/real_time",5825,119426,93065.9,,,
"WidthR<2000>/1/730/real_time",5854,119841,93390.3,,,
"WidthR<2000>/1/740/real_time",29857,93224.7,93219.9,,,
"WidthR<2000>/1/750/real_time",5853,119803,93363.7,,,
"WidthR<2000>/1/760/real_time",5855,119713,93291.2,,,
"WidthR<2000>/1/770/real_time",30240,93095,93087.6,,,
"WidthR<2000>/1/780/real_time",5862,119590,93193.6,,,
"WidthR<2000>/1/790/real_time",5816,119391,93037.8,,,
"WidthR<2000>/1/800/real_time",29532,93097.1,93091.3,,,
"WidthR<2000>/1/810/real_time",5857,119492,93118,,,
"WidthR<2000>/1/820/real_time",5824,119580,93186.8,,,
"WidthR<2000>/1/830/real_time",29548,93280.2,93274.8,,,
"WidthR<2000>/1/840/real_time",5854,119522,93139.1,,,
"WidthR<2000>/1/850/real_time",5859,119544,93158.2,,,
"WidthR<2000>/1/860/real_time",30136,93215.6,93207.2,,,
"WidthR<2000>/1/870/real_time",5834,123287,96076.3,,,
"WidthR<2000>/1/880/real_time",5861,119794,93351.3,,,
"WidthR<2000>/1/890/real_time",31742,93302.5,93293.9,,,
"WidthR<2000>/1/900/real_time",5864,119928,93459.2,,,
"WidthR<2000>/1/910/real_time",5858,119700,93278.6,,,
"WidthR<2000>/1/920/real_time",10000,120852,94179.2,,,
"WidthR<2000>/1/930/real_time",16856,93173.5,93188.9,,,
"WidthR<2000>/1/940/real_time",5858,119635,93226.9,,,
"WidthR<2000>/1/950/real_time",5848,119693,93272.1,,,
"WidthR<2000>/1/960/real_time",29957,93083.8,93076.5,,,
"WidthR<2000>/1/970/real_time",5850,119523,93142.4,,,
"WidthR<2000>/1/980/real_time",5855,119647,93239.1,,,
"WidthR<2000>/1/990/real_time",29813,93304.3,93297,,,
"WidthR<2000>/1/1000/real_time",5831,119419,93058.1,,,
"WidthR<2000>/2/10/real_time",4368,160009,249365,,,
"WidthR<2000>/2/20/real_time",35605,90406.3,180744,,,
"WidthR<2000>/2/30/real_time",6855,103909,161943,,,
"WidthR<2000>/2/40/real_time",15134,97460.7,151895,,,
"WidthR<2000>/2/50/real_time",26648,72034,144090,,,
"WidthR<2000>/2/60/real_time",7771,90458.5,140980,,,
"WidthR<2000>/2/70/real_time",16228,69746.5,139567,,,
"WidthR<2000>/2/80/real_time",7910,89022.6,138745,,,
"WidthR<2000>/2/90/real_time",8134,86878.4,135403,,,
"WidthR<2000>/2/100/real_time",36298,67401.8,134809,,,
"WidthR<2000>/2/110/real_time",8316,63438.5,133042,,,
"WidthR<2000>/2/120/real_time",8166,87016.2,135609,,,
"WidthR<2000>/2/130/real_time",8256,85917.3,133900,,,
"WidthR<2000>/2/140/real_time",10000,84686.8,131986,,,
"WidthR<2000>/2/150/real_time",8216,86013.3,134058,,,
"WidthR<2000>/2/160/real_time",37275,67218.8,134440,,,
"WidthR<2000>/2/170/real_time",8522,62216.1,130327,,,
"WidthR<2000>/2/180/real_time",8042,87238,135962,,,
"WidthR<2000>/2/190/real_time",16702,87376.7,136180,,,
"WidthR<2000>/2/200/real_time",30537,66023.5,132068,,,
"WidthR<2000>/2/210/real_time",8338,84727.5,132053,,,
"WidthR<2000>/2/220/real_time",16435,88092,137297,,,
"WidthR<2000>/2/230/real_time",28098,67396.4,134818,,,
"WidthR<2000>/2/240/real_time",8460,83839.9,130668,,,
"WidthR<2000>/2/250/real_time",17439,63907.4,127891,,,
"WidthR<2000>/2/260/real_time",8517,83474.5,130097,,,
"WidthR<2000>/2/270/real_time",8227,85796.5,133713,,,
"WidthR<2000>/2/280/real_time",35864,68969.4,137944,,,
"WidthR<2000>/2/290/real_time",7899,65613.8,137974,,,
"WidthR<2000>/2/300/real_time",8125,89183.7,138984,,,
"WidthR<2000>/2/310/real_time",17172,85388.4,133084,,,
"WidthR<2000>/2/320/real_time",29015,65194.6,130411,,,
"WidthR<2000>/2/330/real_time",8708,81911.8,127664,,,
"WidthR<2000>/2/340/real_time",17487,82210.3,128128,,,
"WidthR<2000>/2/350/real_time",28190,65420.3,130863,,,
"WidthR<2000>/2/360/real_time",8312,85008.8,132494,,,
"WidthR<2000>/2/370/real_time",16674,87356.1,136149,,,
"WidthR<2000>/2/380/real_time",28038,69402.3,138828,,,
"WidthR<2000>/2/390/real_time",7725,90637.2,141264,,,
"WidthR<2000>/2/400/real_time",10000,92319.9,143882,,,
"WidthR<2000>/2/410/real_time",7849,91010.3,141841,,,
"WidthR<2000>/2/420/real_time",39560,69984.7,139969,,,
"WidthR<2000>/2/430/real_time",7970,88353.5,137703,,,
"WidthR<2000>/2/440/real_time",8092,87302.4,136057,,,
"WidthR<2000>/2/450/real_time",36099,67596,135198,,,
"WidthR<2000>/2/460/real_time",8274,63333.3,132890,,,
"WidthR<2000>/2/470/real_time",8453,83937.4,130818,,,
"WidthR<2000>/2/480/real_time",8580,82526.5,128621,,,
"WidthR<2000>/2/490/real_time",10000,81804,127492,,,
"WidthR<2000>/2/500/real_time",8918,80401.4,125307,,,
"WidthR<2000>/2/510/real_time",36732,63654.2,127316,,,
"WidthR<2000>/2/520/real_time",8663,60927.3,127576,,,
"WidthR<2000>/2/530/real_time",8542,83096.8,129507,,,
"WidthR<2000>/2/540/real_time",8395,84224.5,131265,,,
"WidthR<2000>/2/550/real_time",36448,67003.9,134015,,,
"WidthR<2000>/2/560/real_time",8128,64292.9,135004,,,
"WidthR<2000>/2/570/real_time",7994,87903.7,136996,,,
"WidthR<2000>/2/580/real_time",16350,89159.1,138960,,,
"WidthR<2000>/2/590/real_time",27403,70574.4,141173,,,
"WidthR<2000>/2/600/real_time",7825,91476.9,142573,,,
"WidthR<2000>/2/610/real_time",15579,92866.9,144741,,,
"WidthR<2000>/2/620/real_time",25041,73474.6,146975,,,
"WidthR<2000>/2/630/real_time",7509,95457.9,148766,,,
"WidthR<2000>/2/640/real_time",15099,76073.3,152220,,,
"WidthR<2000>/2/650/real_time",7066,98576.1,153641,,,
"WidthR<2000>/2/660/real_time",7206,99114.7,154476,,,
"WidthR<2000>/2/670/real_time",31567,78843.6,157634,,,
"WidthR<2000>/2/680/real_time",7229,73759,155359,,,
"WidthR<2000>/2/690/real_time",7267,98238.6,153110,,,
"WidthR<2000>/2/700/real_time",14854,97959.9,152676,,,
"WidthR<2000>/2/710/real_time",24548,75876.4,151777,,,
"WidthR<2000>/2/720/real_time",7427,100036,155912,,,
"WidthR<2000>/2/730/real_time",15428,103880,161896,,,
"WidthR<2000>/2/740/real_time",5428,113997,177640,,,
"WidthR<2000>/2/750/real_time",6243,129096,201196,,,
"WidthR<2000>/2/760/real_time",62976,73819.8,147616,,,
"WidthR<2000>/2/770/real_time",7676,93677.7,145999,,,
"WidthR<2000>/2/780/real_time",7687,95797.6,149295,,,
"WidthR<2000>/2/790/real_time",10000,92104.4,143550,,,
"WidthR<2000>/2/800/real_time",7798,91357.9,142385,,,
"WidthR<2000>/2/810/real_time",38581,70925.7,141850,,,
"WidthR<2000>/2/820/real_time",7921,90119.1,140452,,,
"WidthR<2000>/2/830/real_time",7891,90523.5,141084,,,
"WidthR<2000>/2/840/real_time",34631,69517.3,139041,,,
"WidthR<2000>/2/850/real_time",7909,65450.9,137602,,,
"WidthR<2000>/2/860/real_time",8065,87725.4,136719,,,
"WidthR<2000>/2/870/real_time",8080,87069.1,135698,,,
"WidthR<2000>/2/880/real_time",10000,86773.4,135233,,,
"WidthR<2000>/2/890/real_time",8171,85971.9,133990,,,
"WidthR<2000>/2/900/real_time",36292,67103.8,134212,,,
"WidthR<2000>/2/910/real_time",8314,62969.9,132073,,,
"WidthR<2000>/2/920/real_time",8382,84353.2,131467,,,
"WidthR<2000>/2/930/real_time",8478,83705.5,130455,,,
"WidthR<2000>/2/940/real_time",10000,83364.6,129928,,,
"WidthR<2000>/2/950/real_time",8585,82622,128766,,,
"WidthR<2000>/2/960/real_time",36929,64102.3,128209,,,
"WidthR<2000>/2/970/real_time",8759,60817.9,127213,,,
"WidthR<2000>/2/980/real_time",8829,80975.6,126203,,,
"WidthR<2000>/2/990/real_time",8875,80717.1,125794,,,
"WidthR<2000>/2/1000/real_time",37198,62317.5,124642,,,
"WidthR<2000>/3/10/real_time",5853,167996,392647,,,
"WidthR<2000>/3/20/real_time",13763,97761.1,292993,,,
"WidthR<2000>/3/30/real_time",6431,109391,255667,,,
"WidthR<2000>/3/40/real_time",6941,102168,238718,,,
"WidthR<2000>/3/50/real_time",34422,80695.5,242025,,,
"WidthR<2000>/3/60/real_time",10363,96746.7,225925,,,
"WidthR<2000>/3/70/real_time",7334,96184.4,224822,,,
"WidthR<2000>/3/80/real_time",10000,94071.1,219828,,,
"WidthR<2000>/3/90/real_time",7515,94646,221207,,,
"WidthR<2000>/3/100/real_time",39612,74809.6,224360,,,
"WidthR<2000>/3/110/real_time",7522,94375.1,220611,,,
"WidthR<2000>/3/120/real_time",7753,92192.6,215506,,,
"WidthR<2000>/3/130/real_time",10000,96992.1,226594,,,
"WidthR<2000>/3/140/real_time",6887,101681,237682,,,
"WidthR<2000>/3/150/real_time",40592,73433.8,220196,,,
"WidthR<2000>/3/160/real_time",7868,90494.2,211555,,,
"WidthR<2000>/3/170/real_time",15473,95736.9,223769,,,
"WidthR<2000>/3/180/real_time",26284,77573.5,232713,,,
"WidthR<2000>/3/190/real_time",6851,102957,240673,,,
"WidthR<2000>/3/200/real_time",13836,106361,248541,,,
"WidthR<2000>/3/210/real_time",7398,96784.5,226260,,,
"WidthR<2000>/3/220/real_time",7723,91936.6,214911,,,
"WidthR<2000>/3/230/real_time",27992,70889.8,212684,,,
"WidthR<2000>/3/240/real_time",7911,89931.6,210227,,,
"WidthR<2000>/3/250/real_time",15710,72221.6,216740,,,
"WidthR<2000>/3/260/real_time",7479,94627.7,221196,,,
"WidthR<2000>/3/270/real_time",7245,97509.2,227860,,,
"WidthR<2000>/3/280/real_time",33193,78519.6,235552,,,
"WidthR<2000>/3/290/real_time",6991,75459.7,239279,,,
"WidthR<2000>/3/300/real_time",6804,105138,245761,,,
"WidthR<2000>/3/310/real_time",13755,107850,252080,,,
"WidthR<2000>/3/320/real_time",22929,86097.9,258268,,,
"WidthR<2000>/3/330/real_time",6336,113600,265486,,,
"WidthR<2000>/3/340/real_time",10000,110043,257243,,,
"WidthR<2000>/3/350/real_time",16908,104672,244656,,,
"WidthR<2000>/3/360/real_time",36783,77435.6,232275,,,
"WidthR<2000>/3/370/real_time",7610,93470.6,218506,,,
"WidthR<2000>/3/380/real_time",7598,93203.2,217865,,,
"WidthR<2000>/3/390/real_time",35018,73163,219478,,,
"WidthR<2000>/3/400/real_time",7461,69823,221096,,,
"WidthR<2000>/3/410/real_time",7498,94636,221123,,,
"WidthR<2000>/3/420/real_time",15273,93791.2,219216,,,
"WidthR<2000>/3/430/real_time",27739,78919.5,236610,,,
"WidthR<2000>/3/440/real_time",7905,67469.3,212911,,,
"WidthR<2000>/3/450/real_time",7954,90285.5,210810,,,
"WidthR<2000>/3/460/real_time",8068,88549.2,206981,,,
"WidthR<2000>/3/470/real_time",34926,68126.2,204380,,,
"WidthR<2000>/3/480/real_time",8099,65743.6,206853,,,
"WidthR<2000>/3/490/real_time",7938,89873.5,210098,,,
"WidthR<2000>/3/500/real_time",15930,91153.1,213077,,,
"WidthR<2000>/3/510/real_time",26285,72181.6,216550,,,
"WidthR<2000>/3/520/real_time",7581,93134.7,217659,,,
"WidthR<2000>/3/530/real_time",15378,94886.5,221778,,,
"WidthR<2000>/3/540/real_time",26247,75388.7,226153,,,
"WidthR<2000>/3/550/real_time",7190,97463.1,227819,,,
"WidthR<2000>/3/560/real_time",14787,76963.6,230980,,,
"WidthR<2000>/3/570/real_time",6996,100461,234817,,,
"WidthR<2000>/3/580/real_time",6944,101722,237794,,,
"WidthR<2000>/3/590/real_time",31447,81488,244366,,,
"WidthR<2000>/3/600/real_time",6773,77299,245115,,,
"WidthR<2000>/3/610/real_time",6551,107973,252373,,,
"WidthR<2000>/3/620/real_time",13789,107918,252236,,,
"WidthR<2000>/3/630/real_time",23542,85185,255535,,,
"WidthR<2000>/3/640/real_time",6409,110526,258283,,,
"WidthR<2000>/3/650/real_time",10000,112460,262881,,,
"WidthR<2000>/3/660/real_time",6282,113773,265940,,,
"WidthR<2000>/3/670/real_time",10000,114715,268095,,,
"WidthR<2000>/3/680/real_time",16043,115938,270998,,,
"WidthR<2000>/3/690/real_time",10000,116997,273460,,,
"WidthR<2000>/3/700/real_time",16188,118317,276561,,,
"WidthR<2000>/3/710/real_time",10000,119423,279171,,,
"WidthR<2000>/3/720/real_time",16317,120501,281674,,,
"WidthR<2000>/3/730/real_time",5799,121247,283354,,,
"WidthR<2000>/3/740/real_time",5734,122561,286336,,,
"WidthR<2000>/3/750/real_time",28732,96893.4,290620,,,
"WidthR<2000>/3/760/real_time",5610,124652,291377,,,
"WidthR<2000>/3/770/real_time",5555,125846,294188,,,
"WidthR<2000>/3/780/real_time",29183,99870.7,299548,,,
"WidthR<2000>/3/790/real_time",5421,128996,301527,,,
"WidthR<2000>/3/800/real_time",5394,129667,303050,,,
"WidthR<2000>/3/810/real_time",10000,131523,307456,,,
"WidthR<2000>/3/820/real_time",16710,103705,311127,,,
"WidthR<2000>/3/830/real_time",5215,134591,314623,,,
"WidthR<2000>/3/840/real_time",11429,135678,317111,,,
"WidthR<2000>/3/850/real_time",21488,108914,324820,,,
"WidthR<2000>/3/860/real_time",5122,100622,324482,,,
"WidthR<2000>/3/870/real_time",5068,139743,326608,,,
"WidthR<2000>/3/880/real_time",11000,141346,330369,,,
"WidthR<2000>/3/890/real_time",26540,118288,348847,,,
"WidthR<2000>/3/900/real_time",4889,143998,336591,,,
"WidthR<2000>/3/910/real_time",10776,145437,339973,,,
"WidthR<2000>/3/920/real_time",20546,114410,343145,,,
"WidthR<2000>/3/930/real_time",4760,106990,346425,,,
"WidthR<2000>/3/940/real_time",4708,149591,349626,,,
"WidthR<2000>/3/950/real_time",10557,150850,352622,,,
"WidthR<2000>/3/960/real_time",21089,118538,355410,,,
"WidthR<2000>/3/970/real_time",4650,110212,357747,,,
"WidthR<2000>/3/980/real_time",4598,154631,361351,,,
"WidthR<2000>/3/990/real_time",10302,156201,365089,,,
"WidthR<2000>/3/1000/real_time",10000,156622,366131,,,
"WidthR<2000>/4/10/real_time",17502,136968,547607,,,
"WidthR<2000>/4/20/real_time",5413,94175.1,404338,,,
"WidthR<2000>/4/30/real_time",5952,120062,374009,,,
"WidthR<2000>/4/40/real_time",13135,116473,362847,,,
"WidthR<2000>/4/50/real_time",25450,84844,339230,,,
"WidthR<2000>/4/60/real_time",6476,109273,340452,,,
"WidthR<2000>/4/70/real_time",10000,106225,330760,,,
"WidthR<2000>/4/80/real_time",6557,107955,336411,,,
"WidthR<2000>/4/90/real_time",10000,106781,332608,,,
"WidthR<2000>/4/100/real_time",7143,100258,312299,,,
"WidthR<2000>/4/110/real_time",10000,106947,333013,,,
"WidthR<2000>/4/120/real_time",6726,106452,330925,,,
"WidthR<2000>/4/130/real_time",7079,100768,313986,,,
"WidthR<2000>/4/140/real_time",6730,105690,329226,,,
"WidthR<2000>/4/150/real_time",29558,85935.9,343605,,,
"WidthR<2000>/4/160/real_time",9207,104242,324636,,,
"WidthR<2000>/4/170/real_time",16125,98298.6,306259,,,
"WidthR<2000>/4/180/real_time",28021,80085.7,320277,,,
"WidthR<2000>/4/190/real_time",6617,77820.3,330192,,,
"WidthR<2000>/4/200/real_time",6375,109708,341700,,,
"WidthR<2000>/4/210/real_time",6270,112074,349186,,,
"WidthR<2000>/4/220/real_time",10000,116516,363049,,,
"WidthR<2000>/4/230/real_time",17021,110999,345836,,,
"WidthR<2000>/4/240/real_time",10000,102787,320302,,,
"WidthR<2000>/4/250/real_time",7579,95316.3,296653,,,
"WidthR<2000>/4/260/real_time",10000,97425.3,303456,,,
"WidthR<2000>/4/270/real_time",7090,101063,314852,,,
"WidthR<2000>/4/280/real_time",38426,80950.9,323616,,,
"WidthR<2000>/4/290/real_time",6732,105804,329456,,,
"WidthR<2000>/4/300/real_time",13857,108394,337750,,,
"WidthR<2000>/4/310/real_time",23698,86734.6,346855,,,
"WidthR<2000>/4/320/real_time",6237,113025,352169,,,
"WidthR<2000>/4/330/real_time",6055,116125,361508,,,
"WidthR<2000>/4/340/real_time",5942,117907,367364,,,
"WidthR<2000>/4/350/real_time",29472,94474.8,377685,,,
"WidthR<2000>/4/360/real_time",5758,124506,387036,,,
"WidthR<2000>/4/370/real_time",5621,126876,395177,,,
"WidthR<2000>/4/380/real_time",31314,100936,403543,,,
"WidthR<2000>/4/390/real_time",5395,130514,406699,,,
"WidthR<2000>/4/400/real_time",11510,134453,418697,,,
"WidthR<2000>/4/410/real_time",18432,100857,403358,,,
"WidthR<2000>/4/420/real_time",5597,125306,390500,,,
"WidthR<2000>/4/430/real_time",10000,121215,377659,,,
"WidthR<2000>/4/440/real_time",16996,90995.9,363878,,,
"WidthR<2000>/4/450/real_time",6301,112229,349742,,,
"WidthR<2000>/4/460/real_time",6563,108065,336682,,,
"WidthR<2000>/4/470/real_time",30170,81915.7,327416,,,
"WidthR<2000>/4/480/real_time",7112,74344.7,313949,,,
"WidthR<2000>/4/490/real_time",7423,96706.2,301299,,,
"WidthR<2000>/4/500/real_time",15595,93439.5,291144,,,
"WidthR<2000>/4/510/real_time",25117,74040.4,296102,,,
"WidthR<2000>/4/520/real_time",7510,95568.1,297777,,,
"WidthR<2000>/4/530/real_time",14954,97286.4,303150,,,
"WidthR<2000>/4/540/real_time",24220,77303.8,309037,,,
"WidthR<2000>/4/550/real_time",7134,100466,312938,,,
"WidthR<2000>/4/560/real_time",10000,103316,321761,,,
"WidthR<2000>/4/570/real_time",6691,104521,325395,,,
"WidthR<2000>/4/580/real_time",6829,104826,326509,,,
"WidthR<2000>/4/590/real_time",6686,106326,331308,,,
"WidthR<2000>/4/600/real_time",26246,84111.4,336282,,,
"WidthR<2000>/4/610/real_time",6519,108848,339101,,,
"WidthR<2000>/4/620/real_time",6407,111563,346094,,,
"WidthR<2000>/4/630/real_time",6289,112447,350066,,,
"WidthR<2000>/4/640/real_time",31682,89763.8,358030,,,
"WidthR<2000>/4/650/real_time",6153,114342,356121,,,
"WidthR<2000>/4/660/real_time",6069,115960,361338,,,
"WidthR<2000>/4/670/real_time",30232,91841.8,367125,,,
"WidthR<2000>/4/680/real_time",5926,121025,374308,,,
"WidthR<2000>/4/690/real_time",19035,93769.5,374845,,,
"WidthR<2000>/4/700/real_time",5778,121585,378769,,,
"WidthR<2000>/4/710/real_time",11788,122690,382275,,,
"WidthR<2000>/4/720/real_time",20271,96757.9,386906,,,
"WidthR<2000>/4/730/real_time",5654,125911,391998,,,
"WidthR<2000>/4/740/real_time",12071,98829.2,395436,,,
"WidthR<2000>/4/750/real_time",5523,130080,403535,,,
"WidthR<2000>/4/760/real_time",5487,130002,404672,,,
"WidthR<2000>/4/770/real_time",10000,130779,407279,,,
"WidthR<2000>/4/780/real_time",15055,103173,412522,,,
"WidthR<2000>/4/790/real_time",5316,133470,415914,,,
"WidthR<2000>/4/800/real_time",11488,135194,420979,,,
"WidthR<2000>/4/810/real_time",22416,106604,426106,,,
"WidthR<2000>/4/820/real_time",5166,100070,430036,,,
"WidthR<2000>/4/830/real_time",5112,139653,434992,,,
"WidthR<2000>/4/840/real_time",11148,140694,438255,,,
"WidthR<2000>/4/850/real_time",20890,110789,443002,,,
"WidthR<2000>/4/860/real_time",4954,103704,447243,,,
"WidthR<2000>/4/870/real_time",4918,144948,451621,,,
"WidthR<2000>/4/880/real_time",10760,146222,455643,,,
"WidthR<2000>/4/890/real_time",20204,115358,461249,,,
"WidthR<2000>/4/900/real_time",4794,107180,463122,,,
"WidthR<2000>/4/910/real_time",4740,150218,468042,,,
"WidthR<2000>/4/920/real_time",10409,151679,472609,,,
"WidthR<2000>/4/930/real_time",19877,119384,477370,,,
"WidthR<2000>/4/940/real_time",4581,111030,481596,,,
"WidthR<2000>/4/950/real_time",4584,156486,486924,,,
"WidthR<2000>/4/960/real_time",10248,156931,489003,,,
"WidthR<2000>/4/970/real_time",19085,123756,494817,,,
"WidthR<2000>/4/980/real_time",4457,114709,498175,,,
"WidthR<2000>/4/990/real_time",4410,161342,502796,,,
"WidthR<2000>/4/1000/real_time",9969,162166,505191,,,
"WidthR<3000>/1/10/real_time",10000,231439,231516,,,
"WidthR<3000>/1/20/real_time",4571,224024,174522,,,
"WidthR<3000>/1/30/real_time",9268,160524,160692,,,
"WidthR<3000>/1/40/real_time",3562,196778,153205,,,
"WidthR<3000>/1/50/real_time",3615,193013,150402,,,
"WidthR<3000>/1/60/real_time",10000,146811,146920,,,
"WidthR<3000>/1/70/real_time",3739,187151,145832,,,
"WidthR<3000>/1/80/real_time",3778,187818,146212,,,
"WidthR<3000>/1/90/real_time",10000,184846,144030,,,
"WidthR<3000>/1/100/real_time",3821,183686,143134,,,
"WidthR<3000>/1/110/real_time",3819,183394,142897,,,
"WidthR<3000>/1/120/real_time",10000,182940,142511,,,
"WidthR<3000>/1/130/real_time",10000,183141,142668,,,
"WidthR<3000>/1/140/real_time",10000,182252,141976,,,
"WidthR<3000>/1/150/real_time",10000,181539,141464,,,
"WidthR<3000>/1/160/real_time",3860,181490,141413,,,
"WidthR<3000>/1/170/real_time",3864,181351,141314,,,
"WidthR<3000>/1/180/real_time",10000,181103,141075,,,
"WidthR<3000>/1/190/real_time",10000,181129,141086,,,
"WidthR<3000>/1/200/real_time",10000,180589,140679,,,
"WidthR<3000>/1/210/real_time",10000,180776,140857,,,
"WidthR<3000>/1/220/real_time",10000,180555,140688,,,
"WidthR<3000>/1/230/real_time",10000,182070,141820,,,
"WidthR<3000>/1/240/real_time",10000,180392,140523,,,
"WidthR<3000>/1/250/real_time",10000,180287,140445,,,
"WidthR<3000>/1/260/real_time",3869,179997,140253,,,
"WidthR<3000>/1/270/real_time",3883,180174,140399,,,
"WidthR<3000>/1/280/real_time",10000,179911,140150,,,
"WidthR<3000>/1/290/real_time",10000,180055,140253,,,
"WidthR<3000>/1/300/real_time",10000,179738,140011,,,
"WidthR<3000>/1/310/real_time",10000,179736,140011,,,
"WidthR<3000>/1/320/real_time",10000,179553,139915,,,
"WidthR<3000>/1/330/real_time",10000,179591,139901,,,
"WidthR<3000>/1/340/real_time",10000,179653,139948,,,
"WidthR<3000>/1/350/real_time",10000,179456,139796,,,
"WidthR<3000>/1/360/real_time",10000,179223,139614,,,
"WidthR<3000>/1/370/real_time",10000,179657,139979,,,
"WidthR<3000>/1/380/real_time",10000,180733,140794,,,
"WidthR<3000>/1/390/real_time",10000,178974,139412,,,
"WidthR<3000>/1/400/real_time",10000,178957,139405,,,
"WidthR<3000>/1/410/real_time",10000,178993,139425,,,
"WidthR<3000>/1/420/real_time",10000,178953,139444,,,
"WidthR<3000>/1/430/real_time",10000,178975,139421,,,
"WidthR<3000>/1/440/real_time",10000,178821,139301,,,
"WidthR<3000>/1/450/real_time",10000,178760,139254,,,
"WidthR<3000>/1/460/real_time",10000,178799,139282,,,
"WidthR<3000>/1/470/real_time",10000,179032,139494,,,
"WidthR<3000>/1/480/real_time",10000,184660,143815,,,
"WidthR<3000>/1/490/real_time",10000,178876,139393,,,
"WidthR<3000>/1/500/real_time",10000,178723,139276,,,
"WidthR<3000>/1/510/real_time",10000,178632,139207,,,
"WidthR<3000>/1/520/real_time",10000,178608,139186,,,
"WidthR<3000>/1/530/real_time",10000,178527,139123,,,
"WidthR<3000>/1/540/real_time",10000,178610,139184,,,
"WidthR<3000>/1/550/real_time",10000,178640,139213,,,
"WidthR<3000>/1/560/real_time",10000,178590,139173,,,
"WidthR<3000>/1/570/real_time",10000,178678,139238,,,
"WidthR<3000>/1/580/real_time",10000,178736,139285,,,
"WidthR<3000>/1/590/real_time",10000,178828,139356,,,
"WidthR<3000>/1/600/real_time",10000,178136,138819,,,
"WidthR<3000>/1/610/real_time",3930,178042,138744,,,
"WidthR<3000>/1/620/real_time",3892,178392,139011,,,
"WidthR<3000>/1/630/real_time",21619,138966,139018,,,
"WidthR<3000>/1/640/real_time",3933,178472,139082,,,
"WidthR<3000>/1/650/real_time",9817,178168,138844,,,
"WidthR<3000>/1/660/real_time",10000,178153,138831,,,
"WidthR<3000>/1/670/real_time",10000,178469,139077,,,
"WidthR<3000>/1/680/real_time",10000,178170,138840,,,
"WidthR<3000>/1/690/real_time",10000,178146,138825,,,
"WidthR<3000>/1/700/real_time",10000,178178,138853,,,
"WidthR<3000>/1/710/real_time",10000,178150,138830,,,
"WidthR<3000>/1/720/real_time",10000,178285,138933,,,
"WidthR<3000>/1/730/real_time",10000,178152,138834,,,
"WidthR<3000>/1/740/real_time",10000,178222,138884,,,
"WidthR<3000>/1/750/real_time",10000,177956,138678,,,
"WidthR<3000>/1/760/real_time",10000,179176,139629,,,
"WidthR<3000>/1/770/real_time",10000,177642,138430,,,
"WidthR<3000>/1/780/real_time",28261,138571,138599,,,
"WidthR<3000>/1/790/real_time",5613,179463,139850,,,
"WidthR<3000>/1/800/real_time",10326,138383,138553,,,
"WidthR<3000>/1/810/real_time",3931,177688,138471,,,
"WidthR<3000>/1/820/real_time",9767,178029,138733,,,
"WidthR<3000>/1/830/real_time",10000,177815,138567,,,
"WidthR<3000>/1/840/real_time",10000,187121,145813,,,
"WidthR<3000>/1/850/real_time",10000,181362,141318,,,
"WidthR<3000>/1/860/real_time",3939,177881,138619,,,
"WidthR<3000>/1/870/real_time",3924,177812,138566,,,
"WidthR<3000>/1/880/real_time",10000,177881,138620,,,
"WidthR<3000>/1/890/real_time",10000,177813,138569,,,
"WidthR<3000>/1/900/real_time",10000,178175,138844,,,
"WidthR<3000>/1/910/real_time",10000,178179,138851,,,
"WidthR<3000>/1/920/real_time",3940,177471,138303,,,
"WidthR<3000>/1/930/real_time",3942,177786,138543,,,
"WidthR<3000>/1/940/real_time",21599,138553,138606,,,
"WidthR<3000>/1/950/real_time",3935,177872,138610,,,
"WidthR<3000>/1/960/real_time",9827,177502,138321,,,
"WidthR<3000>/1/970/real_time",10000,177814,138569,,,
"WidthR<3000>/1/980/real_time",10000,178240,138897,,,
"WidthR<3000>/1/990/real_time",10000,182664,142347,,,
"WidthR<3000>/1/1000/real_time",10000,177540,138353,,,
"WidthR<3000>/2/10/real_time",10000,192897,386032,,,
"WidthR<3000>/2/20/real_time",4134,172916,269500,,,
"WidthR<3000>/2/30/real_time",10913,117412,235143,,,
"WidthR<3000>/2/40/real_time",5075,141223,220096,,,
"WidthR<3000>/2/50/real_time",5285,135855,211740,,,
"WidthR<3000>/2/60/real_time",10000,134627,209822,,,
"WidthR<3000>/2/70/real_time",17893,101594,203418,,,
"WidthR<3000>/2/80/real_time",5676,128429,200162,,,
"WidthR<3000>/2/90/real_time",12428,131524,204927,,,
"WidthR<3000>/2/100/real_time",5791,125456,195530,,,
"WidthR<3000>/2/110/real_time",5660,126846,197695,,,
"WidthR<3000>/2/120/real_time",32202,99710.3,199514,,,
"WidthR<3000>/2/130/real_time",5736,126269,196800,,,
"WidthR<3000>/2/140/real_time",12728,97457,195265,,,
"WidthR<3000>/2/150/real_time",5951,122442,190831,,,
"WidthR<3000>/2/160/real_time",5832,124664,194293,,,
"WidthR<3000>/2/170/real_time",10000,123431,192370,,,
"WidthR<3000>/2/180/real_time",16445,97378.7,195022,,,
"WidthR<3000>/2/190/real_time",6004,121448,189292,,,
"WidthR<3000>/2/200/real_time",12568,127005,197946,,,
"WidthR<3000>/2/210/real_time",24080,95615.1,191385,,,
"WidthR<3000>/2/220/real_time",5965,88634,191245,,,
"WidthR<3000>/2/230/real_time",5715,126818,197641,,,
"WidthR<3000>/2/240/real_time",12817,123710,192808,,,
"WidthR<3000>/2/250/real_time",22352,93962.4,188102,,,
"WidthR<3000>/2/260/real_time",5957,88571.3,191168,,,
"WidthR<3000>/2/270/real_time",5743,126500,197157,,,
"WidthR<3000>/2/280/real_time",5815,125944,196288,,,
"WidthR<3000>/2/290/real_time",10000,122330,190657,,,
"WidthR<3000>/2/300/real_time",16702,93062.7,186383,,,
"WidthR<3000>/2/310/real_time",6003,121740,189737,,,
"WidthR<3000>/2/320/real_time",5851,124143,193486,,,
"WidthR<3000>/2/330/real_time",5682,127510,198729,,,
"WidthR<3000>/2/340/real_time",5742,126290,196831,,,
"WidthR<3000>/2/350/real_time",32324,97275.5,194647,,,
"WidthR<3000>/2/360/real_time",5993,121652,189605,,,
"WidthR<3000>/2/370/real_time",13131,119937,186927,,,
"WidthR<3000>/2/380/real_time",6141,119078,185585,,,
"WidthR<3000>/2/390/real_time",6015,121385,189192,,,
"WidthR<3000>/2/400/real_time",31587,99162.4,198403,,,
"WidthR<3000>/2/410/real_time",5552,148120,230751,,,
"WidthR<3000>/2/420/real_time",13241,100865,202066,,,
"WidthR<3000>/2/430/real_time",5564,129701,202135,,,
"WidthR<3000>/2/440/real_time",11095,171148,341129,,,
"WidthR<3000>/2/450/real_time",2493,272246,424128,,,
"WidthR<3000>/2/460/real_time",8030,208615,417673,,,
"WidthR<3000>/2/470/real_time",2851,262761,409252,,,
"WidthR<3000>/2/480/real_time",10000,205539,411351,,,
"WidthR<3000>/2/490/real_time",2702,262289,408540,,,
"WidthR<3000>/2/500/real_time",2770,244762,380426,,,
"WidthR<3000>/2/510/real_time",2860,260452,405651,,,
"WidthR<3000>/2/520/real_time",10000,153458,307084,,,
"WidthR<3000>/2/530/real_time",5940,122414,190782,,,
"WidthR<3000>/2/540/real_time",5859,123951,193182,,,
"WidthR<3000>/2/550/real_time",34110,99049,198187,,,
"WidthR<3000>/2/560/real_time",5677,127707,199041,,,
"WidthR<3000>/2/570/real_time",10000,129117,201239,,,
"WidthR<3000>/2/580/real_time",16695,102014,204278,,,
"WidthR<3000>/2/590/real_time",5447,132837,207032,,,
"WidthR<3000>/2/600/real_time",11940,134680,209908,,,
"WidthR<3000>/2/610/real_time",23010,103909,207968,,,
"WidthR<3000>/2/620/real_time",5527,94846.6,205500,,,
"WidthR<3000>/2/630/real_time",5564,130842,203921,,,
"WidthR<3000>/2/640/real_time",12367,129312,201541,,,
"WidthR<3000>/2/650/real_time",5630,128365,200064,,,
"WidthR<3000>/2/660/real_time",5680,127716,199058,,,
"WidthR<3000>/2/670/real_time",33012,99619.3,199326,,,
"WidthR<3000>/2/680/real_time",5814,125395,195436,,,
"WidthR<3000>/2/690/real_time",12814,96711.6,193781,,,
"WidthR<3000>/2/700/real_time",5933,122669,191186,,,
"WidthR<3000>/2/710/real_time",6001,121641,189578,,,
"WidthR<3000>/2/720/real_time",6070,120294,187486,,,
"WidthR<3000>/2/730/real_time",6134,119169,185726,,,
"WidthR<3000>/2/740/real_time",33102,94218.6,188522,,,
"WidthR<3000>/2/750/real_time",6174,117073,182464,,,
"WidthR<3000>/2/760/real_time",13237,117983,183884,,,
"WidthR<3000>/2/770/real_time",10000,118837,185210,,,
"WidthR<3000>/2/780/real_time",16204,93712.2,187696,,,
"WidthR<3000>/2/790/real_time",6031,121341,189105,,,
"WidthR<3000>/2/800/real_time",5966,121936,190045,,,
"WidthR<3000>/2/810/real_time",10000,123539,192541,,,
"WidthR<3000>/2/820/real_time",23702,97449.9,195057,,,
"WidthR<3000>/2/830/real_time",5756,125767,196014,,,
"WidthR<3000>/2/840/real_time",10000,128206,199814,,,
"WidthR<3000>/2/850/real_time",16896,100594,201438,,,
"WidthR<3000>/2/860/real_time",5517,131889,205559,,,
"WidthR<3000>/2/870/real_time",12595,130368,203183,,,
"WidthR<3000>/2/880/real_time",5402,131475,204905,,,
"WidthR<3000>/2/890/real_time",5471,132800,206973,,,
"WidthR<3000>/2/900/real_time",23418,104432,209016,,,
"WidthR<3000>/2/910/real_time",5389,97013,210568,,,
"WidthR<3000>/2/920/real_time",4664,138119,215257,,,
"WidthR<3000>/2/930/real_time",11223,138337,215609,,,
"WidthR<3000>/2/940/real_time",5237,139039,216700,,,
"WidthR<3000>/2/950/real_time",5188,140318,218689,,,
"WidthR<3000>/2/960/real_time",23439,110393,220932,,,
"WidthR<3000>/2/970/real_time",7491,142860,222655,,,
"WidthR<3000>/2/980/real_time",5047,145296,226450,,,
"WidthR<3000>/2/990/real_time",4858,147258,229509,,,
"WidthR<3000>/2/1000/real_time",4961,145962,227484,,,
"WidthR<3000>/3/10/real_time",10000,194270,583113,,,
"WidthR<3000>/3/20/real_time",3946,180894,422741,,,
"WidthR<3000>/3/30/real_time",10468,125630,377356,,,
"WidthR<3000>/3/40/real_time",4749,151702,354593,,,
"WidthR<3000>/3/50/real_time",4687,152719,356996,,,
"WidthR<3000>/3/60/real_time",4933,146529,342429,,,
"WidthR<3000>/3/70/real_time",5038,143738,335995,,,
"WidthR<3000>/3/80/real_time",30313,111635,334993,,,
"WidthR<3000>/3/90/real_time",5167,140462,328255,,,
"WidthR<3000>/3/100/real_time",10000,138330,323349,,,
"WidthR<3000>/3/110/real_time",14685,111631,335223,,,
"WidthR<3000>/3/120/real_time",5344,136724,319524,,,
"WidthR<3000>/3/130/real_time",11454,143529,335474,,,
"WidthR<3000>/3/140/real_time",5438,134379,314086,,,
"WidthR<3000>/3/150/real_time",5227,139304,325618,,,
"WidthR<3000>/3/160/real_time",31179,109380,328181,,,
"WidthR<3000>/3/170/real_time",5140,140158,327602,,,
"WidthR<3000>/3/180/real_time",10000,134372,314063,,,
"WidthR<3000>/3/190/real_time",17005,108085,324421,,,
"WidthR<3000>/3/200/real_time",5063,142447,332800,,,
"WidthR<3000>/3/210/real_time",11260,115049,345634,,,
"WidthR<3000>/3/220/real_time",5054,141970,331785,,,
"WidthR<3000>/3/230/real_time",5587,130788,305714,,,
"WidthR<3000>/3/240/real_time",5535,132308,309282,,,
"WidthR<3000>/3/250/real_time",5341,136109,318092,,,
"WidthR<3000>/3/260/real_time",30819,109654,329038,,,
"WidthR<3000>/3/270/real_time",5016,143342,335073,,,
"WidthR<3000>/3/280/real_time",10000,146217,341756,,,
"WidthR<3000>/3/290/real_time",18123,116984,351221,,,
"WidthR<3000>/3/300/real_time",4697,108964,358775,,,
"WidthR<3000>/3/310/real_time",5044,143961,336493,,,
"WidthR<3000>/3/320/real_time",5403,135293,316232,,,
"WidthR<3000>/3/330/real_time",10000,132252,309115,,,
"WidthR<3000>/3/340/real_time",17017,102933,309132,,,
"WidthR<3000>/3/350/real_time",5542,129057,301669,,,
"WidthR<3000>/3/360/real_time",12205,130667,305436,,,
"WidthR<3000>/3/370/real_time",10000,133983,313192,,,
"WidthR<3000>/3/380/real_time",16841,106338,319111,,,
"WidthR<3000>/3/390/real_time",5266,137795,322086,,,
"WidthR<3000>/3/400/real_time",11688,109581,329311,,,
"WidthR<3000>/3/410/real_time",4992,143076,334443,,,
"WidthR<3000>/3/420/real_time",4931,146187,341734,,,
"WidthR<3000>/3/430/real_time",10000,147889,345709,,,
"WidthR<3000>/3/440/real_time",17828,117082,351524,,,
"WidthR<3000>/3/450/real_time",4774,109820,360477,,,
"WidthR<3000>/3/460/real_time",4556,158258,369953,,,
"WidthR<3000>/3/470/real_time",4585,158317,369992,,,
"WidthR<3000>/3/480/real_time",10000,161764,377904,,,
"WidthR<3000>/3/490/real_time",20866,126071,378425,,,
"WidthR<3000>/3/500/real_time",4382,162347,379518,,,
"WidthR<3000>/3/510/real_time",4507,161334,377085,,,
"WidthR<3000>/3/520/real_time",10000,154284,360620,,,
"WidthR<3000>/3/530/real_time",19763,115926,348031,,,
"WidthR<3000>/3/540/real_time",5024,102164,335044,,,
"WidthR<3000>/3/550/real_time",5248,138442,323538,,,
"WidthR<3000>/3/560/real_time",12109,133752,312620,,,
"WidthR<3000>/3/570/real_time",23377,104446,313551,,,
"WidthR<3000>/3/580/real_time",5398,96936.8,316115,,,
"WidthR<3000>/3/590/real_time",5293,136680,319491,,,
"WidthR<3000>/3/600/real_time",11757,107935,324374,,,
"WidthR<3000>/3/610/real_time",5299,136707,319572,,,
"WidthR<3000>/3/620/real_time",5276,137052,320363,,,
"WidthR<3000>/3/630/real_time",10000,136263,318536,,,
"WidthR<3000>/3/640/real_time",17462,105016,315385,,,
"WidthR<3000>/3/650/real_time",5462,133093,311129,,,
"WidthR<3000>/3/660/real_time",12104,105807,317954,,,
"WidthR<3000>/3/670/real_time",5572,130942,306095,,,
"WidthR<3000>/3/680/real_time",5629,129549,302832,,,
"WidthR<3000>/3/690/real_time",5698,128341,300006,,,
"WidthR<3000>/3/700/real_time",5687,127415,297782,,,
"WidthR<3000>/3/710/real_time",30261,100025,300214,,,
"WidthR<3000>/3/720/real_time",5649,128913,301344,,,
"WidthR<3000>/3/730/real_time",12274,131703,307841,,,
"WidthR<3000>/3/740/real_time",10000,132399,309503,,,
"WidthR<3000>/3/750/real_time",16705,104120,312697,,,
"WidthR<3000>/3/760/real_time",5413,134529,314470,,,
"WidthR<3000>/3/770/real_time",11925,136056,318007,,,
"WidthR<3000>/3/780/real_time",5322,136695,319498,,,
"WidthR<3000>/3/790/real_time",5250,138158,322888,,,
"WidthR<3000>/3/800/real_time",31376,109281,327944,,,
"WidthR<3000>/3/810/real_time",5126,140467,328360,,,
"WidthR<3000>/3/820/real_time",10000,142774,333145,,,
"WidthR<3000>/3/830/real_time",18073,111874,335943,,,
"WidthR<3000>/3/840/real_time",4953,144189,337003,,,
"WidthR<3000>/3/850/real_time",10000,146195,341751,,,
"WidthR<3000>/3/860/real_time",17912,115246,346030,,,
"WidthR<3000>/3/870/real_time",4867,106067,348221,,,
"WidthR<3000>/3/880/real_time",4833,150438,351682,,,
"WidthR<3000>/3/890/real_time",4781,152441,356214,,,
"WidthR<3000>/3/900/real_time",10000,153468,358753,,,
"WidthR<3000>/3/910/real_time",18896,121437,364569,,,
"WidthR<3000>/3/920/real_time",4652,111063,365630,,,
"WidthR<3000>/3/930/real_time",4610,157636,368421,,,
"WidthR<3000>/3/940/real_time",10493,160335,374786,,,
"WidthR<3000>/3/950/real_time",10000,161504,377559,,,
"WidthR<3000>/3/960/real_time",17740,127182,381835,,,
"WidthR<3000>/3/970/real_time",4443,114307,378032,,,
"WidthR<3000>/3/980/real_time",4399,161892,378364,,,
"WidthR<3000>/3/990/real_time",10250,165826,387547,,,
"WidthR<3000>/3/1000/real_time",4334,166122,388316,,,
"WidthR<3000>/4/10/real_time",2755,257012,800674,,,
"WidthR<3000>/4/20/real_time",3826,188432,587112,,,
"WidthR<3000>/4/30/real_time",4250,172192,534195,,,
"WidthR<3000>/4/40/real_time",10000,163131,507093,,,
"WidthR<3000>/4/50/real_time",20788,124204,496747,,,
"WidthR<3000>/4/60/real_time",6549,160322,499557,,,
"WidthR<3000>/4/70/real_time",11478,155978,485600,,,
"WidthR<3000>/4/80/real_time",10000,155169,482407,,,
"WidthR<3000>/4/90/real_time",19166,120625,482713,,,
"WidthR<3000>/4/100/real_time",4751,109021,477586,,,
"WidthR<3000>/4/110/real_time",4904,149245,463989,,,
"WidthR<3000>/4/120/real_time",10781,155246,483547,,,
"WidthR<3000>/4/130/real_time",10000,148158,461576,,,
"WidthR<3000>/4/140/real_time",17485,120967,484053,,,
"WidthR<3000>/4/150/real_time",5128,102015,444506,,,
"WidthR<3000>/4/160/real_time",4910,150337,466342,,,
"WidthR<3000>/4/170/real_time",4725,154143,479869,,,
"WidthR<3000>/4/180/real_time",4791,151692,472643,,,
"WidthR<3000>/4/190/real_time",5157,142097,442615,,,
"WidthR<3000>/4/200/real_time",10000,148163,460918,,,
"WidthR<3000>/4/210/real_time",17861,119176,476862,,,
"WidthR<3000>/4/220/real_time",4644,110855,486704,,,
"WidthR<3000>/4/230/real_time",4403,164305,511993,,,
"WidthR<3000>/4/240/real_time",4766,150753,469642,,,
"WidthR<3000>/4/250/real_time",10000,139653,434945,,,
"WidthR<3000>/4/260/real_time",16890,111742,447074,,,
"WidthR<3000>/4/270/real_time",4948,147778,460205,,,
"WidthR<3000>/4/280/real_time",10967,117776,471551,,,
"WidthR<3000>/4/290/real_time",4702,154554,481619,,,
"WidthR<3000>/4/300/real_time",10549,159454,496799,,,
"WidthR<3000>/4/310/real_time",10000,161448,503002,,,
"WidthR<3000>/4/320/real_time",21265,128621,514550,,,
"WidthR<3000>/4/330/real_time",4229,168424,524808,,,
"WidthR<3000>/4/340/real_time",4385,164276,511364,,,
"WidthR<3000>/4/350/real_time",10000,157164,489754,,,
"WidthR<3000>/4/360/real_time",20210,116233,464923,,,
"WidthR<3000>/4/370/real_time",5223,100276,436689,,,
"WidthR<3000>/4/380/real_time",5302,138515,431180,,,
"WidthR<3000>/4/390/real_time",11579,141091,439604,,,
"WidthR<3000>/4/400/real_time",10000,144229,449197,,,
"WidthR<3000>/4/410/real_time",17443,115133,460462,,,
"WidthR<3000>/4/420/real_time",4835,149785,466691,,,
"WidthR<3000>/4/430/real_time",4766,152196,474168,,,
"WidthR<3000>/4/440/real_time",4667,154870,482492,,,
"WidthR<3000>/4/450/real_time",10000,158437,493075,,,
"WidthR<3000>/4/460/real_time",19623,125970,503926,,,
"WidthR<3000>/4/470/real_time",4433,114059,503317,,,
"WidthR<3000>/4/480/real_time",4354,164556,512661,,,
"WidthR<3000>/4/490/real_time",10075,134937,531676,,,
"WidthR<3000>/4/500/real_time",4196,170598,531583,,,
"WidthR<3000>/4/510/real_time",9930,173677,541065,,,
"WidthR<3000>/4/520/real_time",10000,175646,547128,,,
"WidthR<3000>/4/530/real_time",24057,140081,560271,,,
"WidthR<3000>/4/540/real_time",3988,183509,569061,,,
"WidthR<3000>/4/550/real_time",10000,183328,571060,,,
"WidthR<3000>/4/560/real_time",3888,185477,577894,,,
"WidthR<3000>/4/570/real_time",3823,188568,587519,,,
"WidthR<3000>/4/580/real_time",10000,149065,596722,,,
"WidthR<3000>/4/590/real_time",3732,195688,608167,,,
"WidthR<3000>/4/600/real_time",3683,195757,609847,,,
"WidthR<3000>/4/610/real_time",3772,192472,598995,,,
"WidthR<3000>/4/620/real_time",3835,187712,584825,,,
"WidthR<3000>/4/630/real_time",10000,184363,574461,,,
"WidthR<3000>/4/640/real_time",3979,179068,557829,,,
"WidthR<3000>/4/650/real_time",4123,175105,545610,,,
"WidthR<3000>/4/660/real_time",10000,171189,533422,,,
"WidthR<3000>/4/670/real_time",10000,166984,520278,,,
"WidthR<3000>/4/680/real_time",21149,128039,511244,,,
"WidthR<3000>/4/690/real_time",4493,159611,497290,,,
"WidthR<3000>/4/700/real_time",4640,157550,488459,,,
"WidthR<3000>/4/710/real_time",10000,151633,472337,,,
"WidthR<3000>/4/720/real_time",19006,115379,461501,,,
"WidthR<3000>/4/730/real_time",5084,102418,446808,,,
"WidthR<3000>/4/740/real_time",5228,140133,435561,,,
"WidthR<3000>/4/750/real_time",7737,135555,422236,,,
"WidthR<3000>/4/760/real_time",13030,136970,426622,,,
"WidthR<3000>/4/770/real_time",5322,140264,433546,,,
"WidthR<3000>/4/780/real_time",5251,139436,434360,,,
"WidthR<3000>/4/790/real_time",10000,141560,440929,,,
"WidthR<3000>/4/800/real_time",17285,111222,445064,,,
"WidthR<3000>/4/810/real_time",5066,144000,448657,,,
"WidthR<3000>/4/820/real_time",11243,113754,455491,,,
"WidthR<3000>/4/830/real_time",4944,195270,564449,,,
"WidthR<3000>/4/840/real_time",13320,117210,467729,,,
"WidthR<3000>/4/850/real_time",4852,150024,467426,,,
"WidthR<3000>/4/860/real_time",10919,152400,474648,,,
"WidthR<3000>/4/870/real_time",10000,155352,482019,,,
"WidthR<3000>/4/880/real_time",19568,120851,483473,,,
"WidthR<3000>/4/890/real_time",4645,110961,487140,,,
"WidthR<3000>/4/900/real_time",4603,157776,491170,,,
"WidthR<3000>/4/910/real_time",10546,159884,498093,,,
"WidthR<3000>/4/920/real_time",4496,160807,500633,,,
"WidthR<3000>/4/930/real_time",4458,161375,502753,,,
"WidthR<3000>/4/940/real_time",10000,163585,509666,,,
"WidthR<3000>/4/950/real_time",21073,129744,519090,,,
"WidthR<3000>/4/960/real_time",4284,166408,518063,,,
"WidthR<3000>/4/970/real_time",4286,167304,521284,,,
"WidthR<3000>/4/980/real_time",4242,168970,526388,,,
"WidthR<3000>/4/990/real_time",4200,174662,539535,,,
"WidthR<3000>/4/1000/real_time",10000,171911,535699,,,
"WidthR<4000>/1/10/real_time",10000,327874,328128,,,
"WidthR<4000>/1/20/real_time",2354,297270,231659,,,
"WidthR<4000>/1/30/real_time",8518,213251,213651,,,
"WidthR<4000>/1/40/real_time",2670,262778,204777,,,
"WidthR<4000>/1/50/real_time",2725,260934,203333,,,
"WidthR<4000>/1/60/real_time",8325,197834,198242,,,
"WidthR<4000>/1/70/real_time",2791,249216,194211,,,
"WidthR<4000>/1/80/real_time",8584,192654,193053,,,
"WidthR<4000>/1/90/real_time",2838,247071,192536,,,
"WidthR<4000>/1/100/real_time",8733,190118,190509,,,
"WidthR<4000>/1/110/real_time",2867,244124,190239,,,
"WidthR<4000>/1/120/real_time",8706,189381,189782,,,
"WidthR<4000>/1/130/real_time",2879,242172,188719,,,
"WidthR<4000>/1/140/real_time",10000,188287,188625,,,
"WidthR<4000>/1/150/real_time",2883,241987,188573,,,
"WidthR<4000>/1/160/real_time",8675,187693,188090,,,
"WidthR<4000>/1/170/real_time",2902,241239,187995,,,
"WidthR<4000>/1/180/real_time",2901,240967,187770,,,
"WidthR<4000>/1/190/real_time",2894,240949,187766,,,
"WidthR<4000>/1/200/real_time",10000,187118,187454,,,
"WidthR<4000>/1/210/real_time",2903,240337,187282,,,
"WidthR<4000>/1/220/real_time",8729,187026,187422,,,
"WidthR<4000>/1/230/real_time",2916,240186,187178,,,
"WidthR<4000>/1/240/real_time",8837,187367,187747,,,
"WidthR<4000>/1/250/real_time",2919,239919,186968,,,
"WidthR<4000>/1/260/real_time",10000,186398,186729,,,
"WidthR<4000>/1/270/real_time",2927,239423,186582,,,
"WidthR<4000>/1/280/real_time",8720,186133,186536,,,
"WidthR<4000>/1/290/real_time",2929,239361,186526,,,
"WidthR<4000>/1/300/real_time",8747,187387,187778,,,
"WidthR<4000>/1/310/real_time",2929,238864,186140,,,
"WidthR<4000>/1/320/real_time",10000,185874,186214,,,
"WidthR<4000>/1/330/real_time",2928,238846,186131,,,
"WidthR<4000>/1/340/real_time",8841,185761,186153,,,
"WidthR<4000>/1/350/real_time",2934,238958,186213,,,
"WidthR<4000>/1/360/real_time",2935,238675,186003,,,
"WidthR<4000>/1/370/real_time",2930,238312,185705,,,
"WidthR<4000>/1/380/real_time",10000,186343,186681,,,
"WidthR<4000>/1/390/real_time",2933,238106,185554,,,
"WidthR<4000>/1/400/real_time",8794,184927,185318,,,
"WidthR<4000>/1/410/real_time",2944,240145,187140,,,
"WidthR<4000>/1/420/real_time",8877,185180,185570,,,
"WidthR<4000>/1/430/real_time",2939,238063,185521,,,
"WidthR<4000>/1/440/real_time",10000,184918,185257,,,
"WidthR<4000>/1/450/real_time",2941,237603,185169,,,
"WidthR<4000>/1/460/real_time",8791,184895,185288,,,
"WidthR<4000>/1/470/real_time",2945,237743,185271,,,
"WidthR<4000>/1/480/real_time",8773,184681,185080,,,
"WidthR<4000>/1/490/real_time",2945,237487,185072,,,
"WidthR<4000>/1/500/real_time",10000,184698,185038,,,
"WidthR<4000>/1/510/real_time",2945,237330,184945,,,
"WidthR<4000>/1/520/real_time",8870,184590,184974,,,
"WidthR<4000>/1/530/real_time",2948,237667,185208,,,
"WidthR<4000>/1/540/real_time",7969,184608,185054,,,
"WidthR<4000>/1/550/real_time",2946,237628,185171,,,
"WidthR<4000>/1/560/real_time",8819,184707,185097,,,
"WidthR<4000>/1/570/real_time",2953,237479,185063,,,
"WidthR<4000>/1/580/real_time",8832,184471,184859,,,
"WidthR<4000>/1/590/real_time",2950,237175,184827,,,
"WidthR<4000>/1/600/real_time",10000,184427,184760,,,
"WidthR<4000>/1/610/real_time",2951,236862,184583,,,
"WidthR<4000>/1/620/real_time",8826,184670,185064,,,
"WidthR<4000>/1/630/real_time",2951,237381,184990,,,
"WidthR<4000>/1/640/real_time",8843,184415,184809,,,
"WidthR<4000>/1/650/real_time",2948,237798,185314,,,
"WidthR<4000>/1/660/real_time",10000,184485,184827,,,
"WidthR<4000>/1/670/real_time",2952,238061,185506,,,
"WidthR<4000>/1/680/real_time",8809,184289,184680,,,
"WidthR<4000>/1/690/real_time",2948,236773,184512,,,
"WidthR<4000>/1/700/real_time",8815,184284,184675,,,
"WidthR<4000>/1/710/real_time",2958,236881,184596,,,
"WidthR<4000>/1/720/real_time",10000,184231,184569,,,
"WidthR<4000>/1/730/real_time",2956,236819,184548,,,
"WidthR<4000>/1/740/real_time",8869,184205,184597,,,
"WidthR<4000>/1/750/real_time",2953,237011,184697,,,
"WidthR<4000>/1/760/real_time",8805,184206,184600,,,
"WidthR<4000>/1/770/real_time",2959,236505,184308,,,
"WidthR<4000>/1/780/real_time",2952,237192,184835,,,
"WidthR<4000>/1/790/real_time",2958,236846,184563,,,
"WidthR<4000>/1/800/real_time",10000,183977,184310,,,
"WidthR<4000>/1/810/real_time",2963,236718,184468,,,
"WidthR<4000>/1/820/real_time",8824,184006,184397,,,
"WidthR<4000>/1/830/real_time",2957,236802,184533,,,
"WidthR<4000>/1/840/real_time",8819,184047,184440,,,
"WidthR<4000>/1/850/real_time",2951,236603,184379,,,
"WidthR<4000>/1/860/real_time",2959,236616,184400,,,
"WidthR<4000>/1/870/real_time",2957,237152,184797,,,
"WidthR<4000>/1/880/real_time",10000,184096,184434,,,
"WidthR<4000>/1/890/real_time",2959,236922,184630,,,
"WidthR<4000>/1/900/real_time",8819,183899,184293,,,
"WidthR<4000>/1/910/real_time",2963,236908,184610,,,
"WidthR<4000>/1/920/real_time",8820,184323,184712,,,
"WidthR<4000>/1/930/real_time",2887,239471,186602,,,
"WidthR<4000>/1/940/real_time",10000,184095,184429,,,
"WidthR<4000>/1/950/real_time",2939,236697,184452,,,
"WidthR<4000>/1/960/real_time",8801,184113,184510,,,
"WidthR<4000>/1/970/real_time",2961,236610,184387,,,
"WidthR<4000>/1/980/real_time",7349,195324,195793,,,
"WidthR<4000>/1/990/real_time",2955,237007,184699,,,
"WidthR<4000>/1/1000/real_time",8828,183598,183993,,,
"WidthR<4000>/2/10/real_time",1581,442872,690228,,,
"WidthR<4000>/2/20/real_time",10000,264862,530204,,,
"WidthR<4000>/2/30/real_time",3471,312625,487249,,,
"WidthR<4000>/2/40/real_time",10000,233986,468490,,,
"WidthR<4000>/2/50/real_time",3670,292872,456453,,,
"WidthR<4000>/2/60/real_time",7769,227989,456696,,,
"WidthR<4000>/2/70/real_time",2400,293874,458025,,,
"WidthR<4000>/2/80/real_time",10000,170974,266417,,,
"WidthR<4000>/2/90/real_time",23879,134357,268964,,,
"WidthR<4000>/2/100/real_time",4415,165420,257807,,,
"WidthR<4000>/2/110/real_time",4367,168599,262748,,,
"WidthR<4000>/2/120/real_time",4479,164263,255970,,,
"WidthR<4000>/2/130/real_time",24668,130277,260793,,,
"WidthR<4000>/2/140/real_time",4511,163634,255005,,,
"WidthR<4000>/2/150/real_time",10000,163789,255220,,,
"WidthR<4000>/2/160/real_time",21143,128859,258018,,,
"WidthR<4000>/2/170/real_time",4561,161633,251898,,,
"WidthR<4000>/2/180/real_time",11016,161397,251533,,,
"WidthR<4000>/2/190/real_time",10000,165047,257177,,,
"WidthR<4000>/2/200/real_time",21761,125363,251023,,,
"WidthR<4000>/2/210/real_time",4494,163847,255350,,,
"WidthR<4000>/2/220/real_time",10985,160739,250510,,,
"WidthR<4000>/2/230/real_time",10000,162377,253019,,,
"WidthR<4000>/2/240/real_time",20828,126933,254145,,,
"WidthR<4000>/2/250/real_time",4643,164616,256385,,,
"WidthR<4000>/2/260/real_time",11208,167408,260913,,,
"WidthR<4000>/2/270/real_time",4506,162552,253344,,,
"WidthR<4000>/2/280/real_time",4639,160617,250324,,,
"WidthR<4000>/2/290/real_time",10000,159260,248217,,,
"WidthR<4000>/2/300/real_time",20419,126656,253687,,,
"WidthR<4000>/2/310/real_time",4477,164349,256150,,,
"WidthR<4000>/2/320/real_time",4598,160683,250434,,,
"WidthR<4000>/2/330/real_time",4716,157297,245149,,,
"WidthR<4000>/2/340/real_time",4647,158411,246893,,,
"WidthR<4000>/2/350/real_time",4559,161539,251769,,,
"WidthR<4000>/2/360/real_time",4436,165073,257280,,,
"WidthR<4000>/2/370/real_time",10000,165093,257307,,,
"WidthR<4000>/2/380/real_time",10000,161735,252075,,,
"WidthR<4000>/2/390/real_time",20764,124438,249249,,,
"WidthR<4000>/2/400/real_time",6262,156608,244078,,,
"WidthR<4000>/2/410/real_time",11010,159038,247870,,,
"WidthR<4000>/2/420/real_time",10000,161303,251403,,,
"WidthR<4000>/2/430/real_time",21053,128142,256643,,,
"WidthR<4000>/2/440/real_time",4398,167301,260748,,,
"WidthR<4000>/2/450/real_time",10847,167430,260948,,,
"WidthR<4000>/2/460/real_time",10000,183100,365733,,,
"WidthR<4000>/2/470/real_time",2430,287331,447786,,,
"WidthR<4000>/2/480/real_time",8342,193754,388354,,,
"WidthR<4000>/2/490/real_time",4795,159184,248036,,,
"WidthR<4000>/2/500/real_time",11249,122222,245206,,,
"WidthR<4000>/2/510/real_time",4728,157231,245047,,,
"WidthR<4000>/2/520/real_time",11028,124593,249964,,,
"WidthR<4000>/2/530/real_time",4574,160871,250726,,,
"WidthR<4000>/2/540/real_time",11057,164311,256089,,,
"WidthR<4000>/2/550/real_time",4429,166308,259197,,,
"WidthR<4000>/2/560/real_time",4298,168093,261983,,,
"WidthR<4000>/2/570/real_time",10000,171408,267148,,,
"WidthR<4000>/2/580/real_time",10000,170128,265157,,,
"WidthR<4000>/2/590/real_time",10000,169081,263524,,,
"WidthR<4000>/2/600/real_time",23268,130900,262114,,,
"WidthR<4000>/2/610/real_time",4483,164074,255711,,,
"WidthR<4000>/2/620/real_time",11068,126038,252855,,,
"WidthR<4000>/2/630/real_time",4591,160781,250582,,,
"WidthR<4000>/2/640/real_time",11055,124158,249095,,,
"WidthR<4000>/2/650/real_time",4718,157487,245443,,,
"WidthR<4000>/2/660/real_time",11294,156186,243429,,,
"WidthR<4000>/2/670/real_time",10000,155472,242312,,,
"WidthR<4000>/2/680/real_time",19271,122360,245122,,,
"WidthR<4000>/2/690/real_time",4689,110585,246416,,,
"WidthR<4000>/2/700/real_time",4626,160367,249943,,,
"WidthR<4000>/2/710/real_time",11005,130428,261607,,,
"WidthR<4000>/2/720/real_time",4494,163062,254122,,,
"WidthR<4000>/2/730/real_time",10789,128452,257701,,,
"WidthR<4000>/2/740/real_time",4408,166974,260243,,,
"WidthR<4000>/2/750/real_time",10804,169618,264360,,,
"WidthR<4000>/2/760/real_time",10000,171019,266541,,,
"WidthR<4000>/2/770/real_time",10000,172201,268384,,,
"WidthR<4000>/2/780/real_time",10000,174365,271759,,,
"WidthR<4000>/2/790/real_time",10000,176031,274358,,,
"WidthR<4000>/2/800/real_time",10000,177745,277025,,,
"WidthR<4000>/2/810/real_time",10000,176377,274897,,,
"WidthR<4000>/2/820/real_time",10000,175384,273347,,,
"WidthR<4000>/2/830/real_time",10000,223897,448385,,,
"WidthR<4000>/2/840/real_time",3490,259480,404405,,,
"WidthR<4000>/2/850/real_time",4545,170344,265340,,,
"WidthR<4000>/2/860/real_time",4278,171631,267475,,,
"WidthR<4000>/2/870/real_time",4328,168819,263101,,,
"WidthR<4000>/2/880/real_time",4374,169133,263475,,,
"WidthR<4000>/2/890/real_time",4406,166696,259798,,,
"WidthR<4000>/2/900/real_time",4425,165061,257138,,,
"WidthR<4000>/2/910/real_time",4481,166605,259662,,,
"WidthR<4000>/2/920/real_time",4363,164266,255971,,,
"WidthR<4000>/2/930/real_time",4560,161012,250838,,,
"WidthR<4000>/2/940/real_time",10000,161319,251400,,,
"WidthR<4000>/2/950/real_time",20482,125545,251421,,,
"WidthR<4000>/2/960/real_time",4677,158674,247179,,,
"WidthR<4000>/2/970/real_time",4713,157553,245531,,,
"WidthR<4000>/2/980/real_time",4753,156218,243462,,,
"WidthR<4000>/2/990/real_time",4748,156938,244489,,,
"WidthR<4000>/2/1000/real_time",4641,159304,248273,,,
"WidthR<4000>/3/10/real_time",5798,333642,779948,,,
"WidthR<4000>/3/20/real_time",3031,237999,556222,,,
"WidthR<4000>/3/30/real_time",8905,214752,501984,,,
"WidthR<4000>/3/40/real_time",3659,199039,465294,,,
"WidthR<4000>/3/50/real_time",3758,193786,452874,,,
"WidthR<4000>/3/60/real_time",3746,193818,453082,,,
"WidthR<4000>/3/70/real_time",3763,192562,450023,,,
"WidthR<4000>/3/80/real_time",3917,187015,437154,,,
"WidthR<4000>/3/90/real_time",3450,188588,440874,,,
"WidthR<4000>/3/100/real_time",3912,187655,438528,,,
"WidthR<4000>/3/110/real_time",3949,185798,434349,,,
"WidthR<4000>/3/120/real_time",4082,180954,422898,,,
"WidthR<4000>/3/130/real_time",3967,185218,433002,,,
"WidthR<4000>/3/140/real_time",4069,183174,427855,,,
"WidthR<4000>/3/150/real_time",9785,183154,428078,,,
"WidthR<4000>/3/160/real_time",10000,177570,415029,,,
"WidthR<4000>/3/170/real_time",10000,184535,431353,,,
"WidthR<4000>/3/180/real_time",4194,176339,412235,,,
"WidthR<4000>/3/190/real_time",4226,175017,409146,,,
"WidthR<4000>/3/200/real_time",4076,180662,422293,,,
"WidthR<4000>/3/210/real_time",3936,186207,435186,,,
"WidthR<4000>/3/220/real_time",3822,190457,445216,,,
"WidthR<4000>/3/230/real_time",4072,180808,422553,,,
"WidthR<4000>/3/240/real_time",4247,174049,406878,,,
"WidthR<4000>/3/250/real_time",4111,179316,419187,,,
"WidthR<4000>/3/260/real_time",3979,184105,430281,,,
"WidthR<4000>/3/270/real_time",9829,188855,441437,,,
"WidthR<4000>/3/280/real_time",10000,150594,453014,,,
"WidthR<4000>/3/290/real_time",3836,189616,443257,,,
"WidthR<4000>/3/300/real_time",10320,177883,415845,,,
"WidthR<4000>/3/310/real_time",10000,170714,399041,,,
"WidthR<4000>/3/320/real_time",10000,172891,404117,,,
"WidthR<4000>/3/330/real_time",10000,177496,414891,,,
"WidthR<4000>/3/340/real_time",10000,181354,423946,,,
"WidthR<4000>/3/350/real_time",3954,184660,431411,,,
"WidthR<4000>/3/360/real_time",3869,188456,440034,,,
"WidthR<4000>/3/370/real_time",3814,190385,444873,,,
"WidthR<4000>/3/380/real_time",3740,194093,453739,,,
"WidthR<4000>/3/390/real_time",3668,197493,461691,,,
"WidthR<4000>/3/400/real_time",9147,202065,472337,,,
"WidthR<4000>/3/410/real_time",10000,150118,451589,,,
"WidthR<4000>/3/420/real_time",4005,183482,428610,,,
"WidthR<4000>/3/430/real_time",10470,175119,409345,,,
"WidthR<4000>/3/440/real_time",10000,172701,403679,,,
"WidthR<4000>/3/450/real_time",10000,172067,402205,,,
"WidthR<4000>/3/460/real_time",10000,169463,396155,,,
"WidthR<4000>/3/470/real_time",4415,167877,392342,,,
"WidthR<4000>/3/480/real_time",4339,170696,399044,,,
"WidthR<4000>/3/490/real_time",10000,174527,407967,,,
"WidthR<4000>/3/500/real_time",10000,177139,414049,,,
"WidthR<4000>/3/510/real_time",10000,180120,421037,,,
"WidthR<4000>/3/520/real_time",10000,182360,426300,,,
"WidthR<4000>/3/530/real_time",10000,184702,431791,,,
"WidthR<4000>/3/540/real_time",3903,186603,436231,,,
"WidthR<4000>/3/550/real_time",9349,191042,446145,,,
"WidthR<4000>/3/560/real_time",10000,191807,448302,,,
"WidthR<4000>/3/570/real_time",3726,193923,453267,,,
"WidthR<4000>/3/580/real_time",9431,196206,458605,,,
"WidthR<4000>/3/590/real_time",10000,154950,465954,,,
"WidthR<4000>/3/600/real_time",3611,200958,469752,,,
"WidthR<4000>/3/610/real_time",9841,159168,478538,,,
"WidthR<4000>/3/620/real_time",3516,206170,481905,,,
"WidthR<4000>/3/630/real_time",9202,163028,490304,,,
"WidthR<4000>/3/640/real_time",3439,211522,494311,,,
"WidthR<4000>/3/650/real_time",9091,167549,503715,,,
"WidthR<4000>/3/660/real_time",3351,215048,502604,,,
"WidthR<4000>/3/670/real_time",9147,167631,504007,,,
"WidthR<4000>/3/680/real_time",3446,210811,492713,,,
"WidthR<4000>/3/690/real_time",9412,160085,481475,,,
"WidthR<4000>/3/700/real_time",3643,199919,467318,,,
"WidthR<4000>/3/710/real_time",9822,151867,456738,,,
"WidthR<4000>/3/720/real_time",3867,188577,440798,,,
"WidthR<4000>/3/730/real_time",9335,185083,432537,,,
"WidthR<4000>/3/740/real_time",10000,179797,420173,,,
"WidthR<4000>/3/750/real_time",10000,174593,407979,,,
"WidthR<4000>/3/760/real_time",10000,176144,411648,,,
"WidthR<4000>/3/770/real_time",10000,177484,414891,,,
"WidthR<4000>/3/780/real_time",10000,179648,419833,,,
"WidthR<4000>/3/790/real_time",4067,180696,422292,,,
"WidthR<4000>/3/800/real_time",4047,180860,422768,,,
"WidthR<4000>/3/810/real_time",4075,182441,425864,,,
"WidthR<4000>/3/820/real_time",4090,179200,418885,,,
"WidthR<4000>/3/830/real_time",4118,183004,426040,,,
"WidthR<4000>/3/840/real_time",4167,177070,413719,,,
"WidthR<4000>/3/850/real_time",4204,176010,411382,,,
"WidthR<4000>/3/860/real_time",10314,175728,410356,,,
"WidthR<4000>/3/870/real_time",10000,174155,406872,,,
"WidthR<4000>/3/880/real_time",10000,172604,403440,,,
"WidthR<4000>/3/890/real_time",10000,172007,402034,,,
"WidthR<4000>/3/900/real_time",4280,171045,399832,,,
"WidthR<4000>/3/910/real_time",4354,170179,397753,,,
"WidthR<4000>/3/920/real_time",4333,170865,399313,,,
"WidthR<4000>/3/930/real_time",4404,167952,392606,,,
"WidthR<4000>/3/940/real_time",4437,167084,390589,,,
"WidthR<4000>/3/950/real_time",4411,167793,391865,,,
"WidthR<4000>/3/960/real_time",4386,168552,393868,,,
"WidthR<4000>/3/970/real_time",4324,170464,398234,,,
"WidthR<4000>/3/980/real_time",4286,171666,401124,,,
"WidthR<4000>/3/990/real_time",4257,173747,405952,,,
"WidthR<4000>/3/1000/real_time",4220,174816,408448,,,
"WidthR<4000>/4/10/real_time",2107,340865,1.06133e+06,,,
"WidthR<4000>/4/20/real_time",2894,249342,776736,,,
"WidthR<4000>/4/30/real_time",7227,224015,697736,,,
"WidthR<4000>/4/40/real_time",17393,166940,666686,,,
"WidthR<4000>/4/50/real_time",3500,205651,640822,,,
"WidthR<4000>/4/60/real_time",9126,241518,878353,,,
"WidthR<4000>/4/70/real_time",5007,205696,640836,,,
"WidthR<4000>/4/80/real_time",9410,158170,634103,,,
"WidthR<4000>/4/90/real_time",3712,197488,615322,,,
"WidthR<4000>/4/100/real_time",9699,274145,961447,,,
"WidthR<4000>/4/110/real_time",3787,152252,653591,,,
"WidthR<4000>/4/120/real_time",3679,199393,621192,,,
"WidthR<4000>/4/130/real_time",3794,194117,604882,,,
"WidthR<4000>/4/140/real_time",3796,194712,605881,,,
"WidthR<4000>/4/150/real_time",10000,194655,606419,,,
"WidthR<4000>/4/160/real_time",3662,217390,656537,,,
"WidthR<4000>/4/170/real_time",10173,189418,590044,,,
"WidthR<4000>/4/180/real_time",3744,196990,613238,,,
"WidthR<4000>/4/190/real_time",9259,204390,636835,,,
"WidthR<4000>/4/200/real_time",3980,184610,574776,,,
"WidthR<4000>/4/210/real_time",3850,191496,596662,,,
"WidthR<4000>/4/220/real_time",3708,197696,615881,,,
"WidthR<4000>/4/230/real_time",9097,204542,637121,,,
"WidthR<4000>/4/240/real_time",10000,155366,622971,,,
"WidthR<4000>/4/250/real_time",4011,182694,569336,,,
"WidthR<4000>/4/260/real_time",9884,188723,587850,,,
"WidthR<4000>/4/270/real_time",3805,193200,601927,,,
"WidthR<4000>/4/280/real_time",9390,199649,621750,,,
"WidthR<4000>/4/290/real_time",3605,202958,632366,,,
"WidthR<4000>/4/300/real_time",3486,209111,651276,,,
"WidthR<4000>/4/310/real_time",3476,210451,655748,,,
"WidthR<4000>/4/320/real_time",9334,197811,616355,,,
"WidthR<4000>/4/330/real_time",10000,185146,576726,,,
"WidthR<4000>/4/340/real_time",4002,183821,572568,,,
"WidthR<4000>/4/350/real_time",9570,189331,589639,,,
"WidthR<4000>/4/360/real_time",10000,150523,603445,,,
"WidthR<4000>/4/370/real_time",3733,219098,656092,,,
"WidthR<4000>/4/380/real_time",10201,157996,632938,,,
"WidthR<4000>/4/390/real_time",3557,204715,637086,,,
"WidthR<4000>/4/400/real_time",9230,161786,648661,,,
"WidthR<4000>/4/410/real_time",3439,210938,657245,,,
"WidthR<4000>/4/420/real_time",9163,167750,671915,,,
"WidthR<4000>/4/430/real_time",3322,217480,677589,,,
"WidthR<4000>/4/440/real_time",9021,175042,700372,,,
"WidthR<4000>/4/450/real_time",3312,217223,676766,,,
"WidthR<4000>/4/460/real_time",9127,167066,669669,,,
"WidthR<4000>/4/470/real_time",3583,203292,633484,,,
"WidthR<4000>/4/480/real_time",9667,152678,612015,,,
"WidthR<4000>/4/490/real_time",3931,187428,583834,,,
"WidthR<4000>/4/500/real_time",10387,139802,560527,,,
"WidthR<4000>/4/510/real_time",4046,181787,566435,,,
"WidthR<4000>/4/520/real_time",10050,184940,576072,,,
"WidthR<4000>/4/530/real_time",3903,187543,584259,,,
"WidthR<4000>/4/540/real_time",9596,191775,597253,,,
"WidthR<4000>/4/550/real_time",10000,220503,801804,,,
"WidthR<4000>/4/560/real_time",7222,876792,2.58776e+06,,,
"WidthR<4000>/4/570/real_time",68,9.66095e+06,2.17006e+07,,,
"WidthR<4000>/4/580/real_time",2575,2.40811e+06,7.18172e+06,,,
"WidthR<4000>/4/590/real_time",1000,2.71405e+06,8.19045e+06,,,
"WidthR<4000>/4/600/real_time",6722,208011,647926,,,
"WidthR<4000>/4/610/real_time",13245,164246,657746,,,
"WidthR<4000>/4/620/real_time",4837,214425,667799,,,
"WidthR<4000>/4/630/real_time",9244,167562,671578,,,
"WidthR<4000>/4/640/real_time",3359,215115,670086,,,
"WidthR<4000>/4/650/real_time",9129,170717,684243,,,
"WidthR<4000>/4/660/real_time",3264,221330,689589,,,
"WidthR<4000>/4/670/real_time",8968,175334,702540,,,
"WidthR<4000>/4/680/real_time",3204,227285,706653,,,
"WidthR<4000>/4/690/real_time",10000,185746,736361,,,
"WidthR<4000>/4/700/real_time",3135,231191,720238,,,
"WidthR<4000>/4/710/real_time",8965,182833,732810,,,
"WidthR<4000>/4/720/real_time",3010,242322,748126,,,
"WidthR<4000>/4/730/real_time",10000,188538,755411,,,
"WidthR<4000>/4/740/real_time",2959,244689,761843,,,
"WidthR<4000>/4/750/real_time",8526,192704,772232,,,
"WidthR<4000>/4/760/real_time",2897,249490,777328,,,
"WidthR<4000>/4/770/real_time",10000,210051,825978,,,
"WidthR<4000>/4/780/real_time",2843,257901,798309,,,
"WidthR<4000>/4/790/real_time",10000,201401,806758,,,
"WidthR<4000>/4/800/real_time",2778,259225,807607,,,
"WidthR<4000>/4/810/real_time",10000,200283,802234,,,
"WidthR<4000>/4/820/real_time",2806,256323,798773,,,
"WidthR<4000>/4/830/real_time",10000,193334,774598,,,
"WidthR<4000>/4/840/real_time",2976,243353,758226,,,
"WidthR<4000>/4/850/real_time",8729,186568,747881,,,
"WidthR<4000>/4/860/real_time",3079,235544,733331,,,
"WidthR<4000>/4/870/real_time",10000,180301,722274,,,
"WidthR<4000>/4/880/real_time",3189,227326,707820,,,
"WidthR<4000>/4/890/real_time",9117,174521,699567,,,
"WidthR<4000>/4/900/real_time",3335,217718,677875,,,
"WidthR<4000>/4/910/real_time",9314,167268,670713,,,
"WidthR<4000>/4/920/real_time",3358,214472,668356,,,
"WidthR<4000>/4/930/real_time",9551,160799,644541,,,
"WidthR<4000>/4/940/real_time",3610,202069,629571,,,
"WidthR<4000>/4/950/real_time",9503,154976,621279,,,
"WidthR<4000>/4/960/real_time",3791,193688,603537,,,
"WidthR<4000>/4/970/real_time",9859,148113,593834,,,
"WidthR<4000>/4/980/real_time",3958,185497,577988,,,
"WidthR<4000>/4/990/real_time",10191,141526,567437,,,
"WidthR<4000>/4/1000/real_time",4147,177333,552392,,,
