name,iterations,real_time,cpu_time,bytes_per_second,items_per_second,label
"WidthR<1000>/1/2/real_time",2332,256594,293328,,,
"WidthR<1000>/1/6/real_time",8813,102428,90780.7,,,
"WidthR<1000>/1/10/real_time",11761,69083,68025.7,,,
"WidthR<1000>/1/14/real_time",12938,54051.6,61528.1,,,
"WidthR<1000>/1/18/real_time",13692,67359.4,58139.8,,,
"WidthR<1000>/1/22/real_time",14186,62294.7,56397.2,,,
"WidthR<1000>/1/26/real_time",10000,54881,54003.4,,,
"WidthR<1000>/1/30/real_time",14973,58747.3,53432.8,,,
"WidthR<1000>/1/34/real_time",15452,56752.1,51776.5,,,
"WidthR<1000>/1/38/real_time",15508,56572.5,51589.5,,,
"WidthR<1000>/1/42/real_time",15624,56052.6,51206.5,,,
"WidthR<1000>/1/46/real_time",15671,55802.8,51052.8,,,
"WidthR<1000>/1/50/real_time",15758,55529.3,50771,,,
"WidthR<1000>/1/54/real_time",10000,51567.4,50403.1,,,
"WidthR<1000>/1/58/real_time",15785,55422.2,50684.2,,,
"WidthR<1000>/1/62/real_time",15793,55319,50658.5,,,
"WidthR<1000>/1/66/real_time",15837,55216,50517.8,,,
"WidthR<1000>/1/70/real_time",15889,55079.6,50352.4,,,
"WidthR<1000>/1/74/real_time",15928,54965.7,50480.3,,,
"WidthR<1000>/1/78/real_time",15904,54909.9,50305,,,
"WidthR<1000>/1/82/real_time",15948,54815.8,50166.2,,,
"WidthR<1000>/1/86/real_time",10000,51182.5,50403.1,,,
"WidthR<1000>/1/90/real_time",15966,54752.9,50109.6,,,
"WidthR<1000>/1/94/real_time",15996,54674.8,50015.6,,,
"WidthR<1000>/1/98/real_time",16024,54525.1,49928.3,,,
"WidthR<1000>/1/102/real_time",16012,54573.6,49965.7,,,
"WidthR<1000>/1/106/real_time",16017,54559,49950.1,,,
"WidthR<1000>/1/110/real_time",15998,54624.5,50009.4,,,
"WidthR<1000>/1/114/real_time",10000,50754.5,50003.2,,,
"WidthR<1000>/1/118/real_time",16047,54445.9,49856.7,,,
"WidthR<1000>/1/122/real_time",16042,54472.1,49872.2,,,
"WidthR<1000>/1/126/real_time",16065,54345.8,49800.8,,,
"WidthR<1000>/1/130/real_time",16116,54189.8,49643.2,,,
"WidthR<1000>/1/134/real_time",16116,54202,49643.2,,,
"WidthR<1000>/1/138/real_time",16112,54187.8,49655.5,,,
"WidthR<1000>/1/142/real_time",16086,54249.9,49487.1,,,
"WidthR<1000>/1/146/real_time",16130,54144.1,49600.1,,,
"WidthR<1000>/1/150/real_time",10000,50519.2,49603,,,
"WidthR<1000>/1/154/real_time",16119,54191.6,49634,,,
"WidthR<1000>/1/158/real_time",16109,54223.8,49664.8,,,
"WidthR<1000>/1/162/real_time",16126,54153.6,49612.4,,,
"WidthR<1000>/1/166/real_time",16115,54198,49646.3,,,
"WidthR<1000>/1/170/real_time",16135,54123.2,49584.8,,,
"WidthR<1000>/1/174/real_time",16120,54179.2,49630.9,,,
"WidthR<1000>/1/178/real_time",16123,54135.4,49621.7,,,
"WidthR<1000>/1/182/real_time",10000,50502.7,49603.1,,,
"WidthR<1000>/1/186/real_time",16127,54171.2,49609.4,,,
"WidthR<1000>/1/190/real_time",16098,54222.5,49698.7,,,
"WidthR<1000>/1/194/real_time",16136,54118.1,49581.6,,,
"WidthR<1000>/1/198/real_time",16138,54121.5,49575.5,,,
"WidthR<1000>/1/202/real_time",16155,54043.7,49523.4,,,
"WidthR<1000>/1/206/real_time",16141,54102.5,49566.3,,,
"WidthR<1000>/1/210/real_time",16153,54062.5,49529.5,,,
"WidthR<1000>/1/214/real_time",10000,50438.9,49603.1,,,
"WidthR<1000>/1/218/real_time",16139,54129.7,49572.5,,,
"WidthR<1000>/1/222/real_time",16119,54095.4,49634,,,
"WidthR<1000>/1/226/real_time",16146,54080,49551,,,
"WidthR<1000>/1/230/real_time",16151,54069.5,49535.6,,,
"WidthR<1000>/1/234/real_time",16143,54121.5,49560.2,,,
"WidthR<1000>/1/238/real_time",16142,54104.3,49563.3,,,
"WidthR<1000>/1/242/real_time",16146,54089.1,49551,,,
"WidthR<1000>/1/246/real_time",10000,50468.9,49603.1,,,
"WidthR<1000>/1/250/real_time",16178,53984.6,49453,,,
"WidthR<1000>/1/254/real_time",16179,53948.6,49202.7,,,
"WidthR<1000>/1/258/real_time",16211,53837.1,49105.6,,,
"WidthR<1000>/1/262/real_time",16204,53873.7,49373.6,,,
"WidthR<1000>/1/266/real_time",16195,53950.8,49401.1,,,
"WidthR<1000>/1/270/real_time",16198,53922.6,49391.9,,,
"WidthR<1000>/1/274/real_time",16207,53852.5,49364.5,,,
"WidthR<1000>/1/278/real_time",16206,53894.8,49367.5,,,
"WidthR<1000>/1/282/real_time",10000,50273.4,49603.1,,,
"WidthR<1000>/1/286/real_time",16170,53939.7,49477.4,,,
"WidthR<1000>/1/290/real_time",16211,53878.1,49352.3,,,
"WidthR<1000>/1/294/real_time",16203,53867,49376.7,,,
"WidthR<1000>/1/298/real_time",16200,53882.2,49385.8,,,
"WidthR<1000>/1/302/real_time",16199,53882.2,49388.8,,,
"WidthR<1000>/1/306/real_time",16192,53936.7,49410.2,,,
"WidthR<1000>/1/310/real_time",16180,53961.9,49446.8,,,
"WidthR<1000>/1/314/real_time",10000,50296.3,49603.1,,,
"WidthR<1000>/1/318/real_time",16164,53975.1,49495.8,,,
"WidthR<1000>/1/322/real_time",16211,53868.5,49352.2,,,
"WidthR<1000>/1/326/real_time",16201,53878.1,49382.7,,,
"WidthR<1000>/1/330/real_time",16197,53943.8,49394.9,,,
"WidthR<1000>/1/334/real_time",16212,53847.8,49349.2,,,
"WidthR<1000>/1/338/real_time",16228,53783.7,49300.7,,,
"WidthR<1000>/1/342/real_time",16210,53842.9,49355.3,,,
"WidthR<1000>/1/346/real_time",16215,53830.1,49340.1,,,
"WidthR<1000>/1/350/real_time",10000,50249.9,49603.1,,,
"WidthR<1000>/1/354/real_time",16233,53780.8,49285.4,,,
"WidthR<1000>/1/358/real_time",16218,53844.3,49331,,,
"WidthR<1000>/1/362/real_time",16219,53872.1,49327.9,,,
"WidthR<1000>/1/366/real_time",16199,53917.8,49388.9,,,
"WidthR<1000>/1/370/real_time",16207,53872.2,49364.4,,,
"WidthR<1000>/1/374/real_time",16206,53879,49367.5,,,
"WidthR<1000>/1/378/real_time",16208,53917.6,49361.4,,,
"WidthR<1000>/1/382/real_time",10000,50279.5,49603.1,,,
"WidthR<1000>/1/386/real_time",16237,53769.1,49273.3,,,
"WidthR<1000>/1/390/real_time",16220,53817.3,49324.8,,,
"WidthR<1000>/1/394/real_time",16229,53790.6,49297.5,,,
"WidthR<1000>/1/398/real_time",16218,53823.9,49331,,,
"WidthR<1000>/1/402/real_time",16228,53796.8,49300.7,,,
"WidthR<1000>/1/406/real_time",16221,53817.1,49321.9,,,
"WidthR<1000>/1/410/real_time",16203,53900.1,49376.7,,,
"WidthR<1000>/1/414/real_time",16215,53839.1,49340.1,,,
"WidthR<1000>/1/418/real_time",10000,50195.8,49203.1,,,
"WidthR<1000>/1/422/real_time",16213,53823.3,49346.2,,,
"WidthR<1000>/1/426/real_time",16214,53892.8,49343.2,,,
"WidthR<1000>/1/430/real_time",16204,53867.8,49373.6,,,
"WidthR<1000>/1/434/real_time",16218,53818.1,49331,,,
"WidthR<1000>/1/438/real_time",16212,53867.2,49349.2,,,
"WidthR<1000>/1/442/real_time",16207,53850.9,49364.5,,,
"WidthR<1000>/1/446/real_time",16193,53898.2,49160.1,,,
"WidthR<1000>/1/450/real_time",10000,50176.7,49203.1,,,
"WidthR<1000>/1/454/real_time",16216,53842.5,49337.1,,,
"WidthR<1000>/1/458/real_time",16216,53876.5,49337.1,,,
"WidthR<1000>/1/462/real_time",16212,53874.4,49349.2,,,
"WidthR<1000>/1/466/real_time",16222,53840.1,49318.8,,,
"WidthR<1000>/1/470/real_time",16216,53861,49337.1,,,
"WidthR<1000>/1/474/real_time",16188,53873.2,49422.4,,,
"WidthR<1000>/1/478/real_time",16202,53873.8,49379.6,,,
"WidthR<1000>/1/482/real_time",16212,53846.3,49349.2,,,
"WidthR<1000>/1/486/real_time",10000,50252.2,49203.1,,,
"WidthR<1000>/1/490/real_time",16205,53870.4,49370.6,,,
"WidthR<1000>/1/494/real_time",16198,53891.2,49391.9,,,
"WidthR<1000>/1/498/real_time",16201,53887.4,49382.8,,,
"WidthR<1000>/1/502/real_time",16255,53706.1,49218.8,,,
"WidthR<1000>/1/506/real_time",16223,53725.5,49315.8,,,
"WidthR<1000>/1/510/real_time",16249,53718.2,49236.9,,,
"WidthR<1000>/2/2/real_time",3287,253985,484362,,,
"WidthR<1000>/2/6/real_time",10650,76608,150620,,,
"WidthR<1000>/2/10/real_time",15197,57783.8,105291,,,
"WidthR<1000>/2/14/real_time",18134,47560.6,88017,,,
"WidthR<1000>/2/18/real_time",20016,43075.4,80140.9,,,
"WidthR<1000>/2/22/real_time",21218,40811.9,76355.1,,,
"WidthR<1000>/2/26/real_time",23210,36977.6,69457.2,,,
"WidthR<1000>/2/30/real_time",23374,36383.8,68285.3,,,
"WidthR<1000>/2/34/real_time",24145,29010.1,66270.4,,,
"WidthR<1000>/2/38/real_time",24213,28777.9,65919.1,,,
"WidthR<1000>/2/42/real_time",24805,34968.8,64507.2,,,
"WidthR<1000>/2/46/real_time",25332,27688.4,63323.1,,,
"WidthR<1000>/2/50/real_time",25357,27738.4,63418.4,,,
"WidthR<1000>/2/54/real_time",25335,33992.8,62684,,,
"WidthR<1000>/2/58/real_time",25179,27731.9,63390.1,,,
"WidthR<1000>/2/62/real_time",25840,26926.2,61613.8,,,
"WidthR<1000>/2/66/real_time",25191,34309.7,63359.9,,,
"WidthR<1000>/2/70/real_time",26188,26890.6,61406,,,
"WidthR<1000>/2/74/real_time",26012,26936.6,61513.9,,,
"WidthR<1000>/2/78/real_time",25654,33690.4,62060.5,,,
"WidthR<1000>/2/82/real_time",26534,26272.3,60153,,,
"WidthR<1000>/2/86/real_time",26439,32795.9,60823,,,
"WidthR<1000>/2/90/real_time",25374,32931.5,62114.7,,,
"WidthR<1000>/2/94/real_time",26083,32446.6,61346.5,,,
"WidthR<1000>/2/98/real_time",27302,25882.1,59193.5,,,
"WidthR<1000>/2/102/real_time",26888,31850.5,59063.5,,,
"WidthR<1000>/2/106/real_time",26258,32083,60632.9,,,
"WidthR<1000>/2/110/real_time",25343,33166.8,62664.2,,,
"WidthR<1000>/2/114/real_time",25935,27010.3,61696.5,,,
"WidthR<1000>/2/118/real_time",26524,32506.8,60326.5,,,
"WidthR<1000>/2/122/real_time",27205,30922.6,58522.3,,,
"WidthR<1000>/2/126/real_time",28072,30130.3,57142.3,,,
"WidthR<1000>/2/130/real_time",27457,25594.4,58568,,,
"WidthR<1000>/2/134/real_time",26656,32319.4,60027.8,,,
"WidthR<1000>/2/138/real_time",25929,32638.4,61556.5,,,
"WidthR<1000>/2/142/real_time",25394,33330.5,62853.4,,,
"WidthR<1000>/2/146/real_time",25722,27242.3,62363,,,
"WidthR<1000>/2/150/real_time",26180,32843.9,60966.4,,,
"WidthR<1000>/2/154/real_time",26596,31656.4,59862.4,,,
"WidthR<1000>/2/158/real_time",27187,31127.7,59002.5,,,
"WidthR<1000>/2/162/real_time",27926,25157.5,57441.1,,,
"WidthR<1000>/2/166/real_time",27953,30518.9,56670.1,,,
"WidthR<1000>/2/170/real_time",27924,30044.5,57015.5,,,
"WidthR<1000>/2/174/real_time",27304,25685.1,58749.7,,,
"WidthR<1000>/2/178/real_time",26983,32226.3,59893.3,,,
"WidthR<1000>/2/182/real_time",26372,32121.6,60825.9,,,
"WidthR<1000>/2/186/real_time",25841,32266.6,60837.4,,,
"WidthR<1000>/2/190/real_time",25429,27506.1,62924.2,,,
"WidthR<1000>/2/194/real_time",25061,34512.6,64007.8,,,
"WidthR<1000>/2/198/real_time",24386,34886.7,65615.5,,,
"WidthR<1000>/2/202/real_time",24571,34412.8,64795.9,,,
"WidthR<1000>/2/206/real_time",24805,34320.6,64668.4,,,
"WidthR<1000>/2/210/real_time",25190,27797.9,63521.2,,,
"WidthR<1000>/2/214/real_time",25419,33789,62634.2,,,
"WidthR<1000>/2/218/real_time",25691,32965.7,62282.5,,,
"WidthR<1000>/2/222/real_time",26133,32342.7,61229.1,,,
"WidthR<1000>/2/226/real_time",26522,26368.4,60180.2,,,
"WidthR<1000>/2/230/real_time",26731,26031.3,59560.1,,,
"WidthR<1000>/2/234/real_time",27218,35427.9,58935.3,,,
"WidthR<1000>/2/238/real_time",27438,30757.1,58317,,,
"WidthR<1000>/2/242/real_time",27818,30205.5,57232.7,,,
"WidthR<1000>/2/246/real_time",28174,29980.4,56935.5,,,
"WidthR<1000>/2/250/real_time",28746,29265.9,55524.2,,,
"WidthR<1000>/2/254/real_time",28903,30277.2,57575.4,,,
"WidthR<1000>/2/258/real_time",27756,24888.8,56784,,,
"WidthR<1000>/2/262/real_time",27670,25056.1,57394.3,,,
"WidthR<1000>/2/266/real_time",27634,34900.2,58192.8,,,
"WidthR<1000>/2/270/real_time",27076,31089.5,58801.2,,,
"WidthR<1000>/2/274/real_time",26803,31303.3,59250.8,,,
"WidthR<1000>/2/278/real_time",26489,32054.5,60708.3,,,
"WidthR<1000>/2/282/real_time",26235,32410.7,61296,,,
"WidthR<1000>/2/286/real_time",25740,32849.9,62008.5,,,
"WidthR<1000>/2/290/real_time",25595,33159,62672.4,,,
"WidthR<1000>/2/294/real_time",25210,33567,63312.2,,,
"WidthR<1000>/2/298/real_time",24732,28100.4,64212.3,,,
"WidthR<1000>/2/302/real_time",24452,35153.1,65111.2,,,
"WidthR<1000>/2/306/real_time",24367,34897.6,65830.8,,,
"WidthR<1000>/2/310/real_time",23971,35411.7,66584.6,,,
"WidthR<1000>/2/314/real_time",23667,35802,67270.8,,,
"WidthR<1000>/2/318/real_time",23483,29810.9,68138.7,,,
"WidthR<1000>/2/322/real_time",10000,50091.3,68804.3,,,
"WidthR<1000>/2/326/real_time",22799,37075.9,69481.1,,,
"WidthR<1000>/2/330/real_time",22829,37393.3,70090.7,,,
"WidthR<1000>/2/334/real_time",22666,37543.4,70418.3,,,
"WidthR<1000>/2/338/real_time",22938,37453.8,70280.8,,,
"WidthR<1000>/2/342/real_time",22969,37151.9,69663.5,,,
"WidthR<1000>/2/346/real_time",23130,30414,69524.5,,,
"WidthR<1000>/2/350/real_time",10000,50458.1,69204.3,,,
"WidthR<1000>/2/354/real_time",23305,36466.2,68487.4,,,
"WidthR<1000>/2/358/real_time",23414,36478.6,68510.3,,,
"WidthR<1000>/2/362/real_time",23618,36069.9,67749.2,,,
"WidthR<1000>/2/366/real_time",23662,36127.9,67961.3,,,
"WidthR<1000>/2/370/real_time",23819,29367.7,67177.5,,,
"WidthR<1000>/2/374/real_time",23991,29278.1,66862.6,,,
"WidthR<1000>/2/378/real_time",24122,35985.5,66333.6,,,
"WidthR<1000>/2/382/real_time",24295,35000.7,66025.9,,,
"WidthR<1000>/2/386/real_time",24335,28804.2,65753,,,
"WidthR<1000>/2/390/real_time",24469,35288.9,65392.9,,,
"WidthR<1000>/2/394/real_time",24638,34436.5,64944.4,,,
"WidthR<1000>/2/398/real_time",24771,34054.2,64272.7,,,
"WidthR<1000>/2/402/real_time",24937,34123,64326.1,,,
"WidthR<1000>/2/406/real_time",25081,27897.3,63797.3,,,
"WidthR<1000>/2/410/real_time",25238,34202.9,63400.4,,,
"WidthR<1000>/2/414/real_time",25376,33387.7,62898,,,
"WidthR<1000>/2/418/real_time",25644,33074.7,62552.6,,,
"WidthR<1000>/2/422/real_time",25721,27341.3,62365.4,,,
"WidthR<1000>/2/426/real_time",26023,26939.5,61487.9,,,
"WidthR<1000>/2/430/real_time",25904,33311.7,61461.5,,,
"WidthR<1000>/2/434/real_time",26267,26672.2,61069,,,
"WidthR<1000>/2/438/real_time",26355,32784.4,60865.1,,,
"WidthR<1000>/2/442/real_time",26419,32004.7,60566.3,,,
"WidthR<1000>/2/446/real_time",26680,31564,59673.9,,,
"WidthR<1000>/2/450/real_time",27062,25896.4,59127.2,,,
"WidthR<1000>/2/454/real_time",27015,31830.2,59082,,,
"WidthR<1000>/2/458/real_time",27301,30856.3,58463.1,,,
"WidthR<1000>/2/462/real_time",27412,30740.7,58226.3,,,
"WidthR<1000>/2/466/real_time",27606,25568.5,58396.8,,,
"WidthR<1000>/2/470/real_time",27682,30856.8,57224.9,,,
"WidthR<1000>/2/474/real_time",27908,30229.2,57334.8,,,
"WidthR<1000>/2/478/real_time",27627,24854.5,56759.6,,,
"WidthR<1000>/2/482/real_time",28398,30406.5,56486.4,,,
"WidthR<1000>/2/486/real_time",28438,29841.4,56547.6,,,
"WidthR<1000>/2/490/real_time",28602,24446.8,55943.6,,,
"WidthR<1000>/2/494/real_time",28898,24356.1,55647.4,,,
"WidthR<1000>/2/498/real_time",28819,33645.3,56216.4,,,
"WidthR<1000>/2/502/real_time",29719,28309.7,53841,,,
"WidthR<1000>/2/506/real_time",29464,28488.6,54171.2,,,
"WidthR<1000>/2/510/real_time",29306,28709.5,54599.7,,,
"WidthR<1000>/3/2/real_time",3655,229124,651204,,,
"WidthR<1000>/3/6/real_time",12992,53784.5,183817,,,
"WidthR<1000>/3/10/real_time",10000,54786.2,128408,,,
"WidthR<1000>/3/14/real_time",22506,37829.5,106112,,,
"WidthR<1000>/3/18/real_time",24969,34031.1,96125.2,,,
"WidthR<1000>/3/22/real_time",26893,26026.7,88950.6,,,
"WidthR<1000>/3/26/real_time",28302,30506,84805,,,
"WidthR<1000>/3/30/real_time",28815,29384.1,83572.8,,,
"WidthR<1000>/3/34/real_time",29953,23555.6,80664.7,,,
"WidthR<1000>/3/38/real_time",30237,28550.6,79510.2,,,
"WidthR<1000>/3/42/real_time",31269,26847.4,76630.2,,,
"WidthR<1000>/3/46/real_time",31288,22410.6,76711.5,,,
"WidthR<1000>/3/50/real_time",31399,27494.7,76567.7,,,
"WidthR<1000>/3/54/real_time",31991,26206.6,74900.8,,,
"WidthR<1000>/3/58/real_time",31887,21749.6,74517.8,,,
"WidthR<1000>/3/62/real_time",31534,27337.9,76113.1,,,
"WidthR<1000>/3/66/real_time",33843,20802.3,71274.7,,,
"WidthR<1000>/3/70/real_time",32828,26185.8,72991,,,
"WidthR<1000>/3/74/real_time",32605,25676,73490.3,,,
"WidthR<1000>/3/78/real_time",32324,21757.4,74500.4,,,
"WidthR<1000>/3/82/real_time",34267,25050.3,70042.6,,,
"WidthR<1000>/3/86/real_time",34389,20591.7,70492,,,
"WidthR<1000>/3/90/real_time",33138,25930.3,72308.2,,,
"WidthR<1000>/3/94/real_time",32795,21306.2,72942.5,,,
"WidthR<1000>/3/98/real_time",31988,26873.6,75032.8,,,
"WidthR<1000>/3/102/real_time",32516,25753.6,73691.4,,,
"WidthR<1000>/3/106/real_time",33697,20701.8,70871.3,,,
"WidthR<1000>/3/110/real_time",35291,24233.8,67783.5,,,
"WidthR<1000>/3/114/real_time",35470,19787.2,67779.8,,,
"WidthR<1000>/3/118/real_time",34608,24890.3,69468,,,
"WidthR<1000>/3/122/real_time",33961,20792.9,71262.7,,,
"WidthR<1000>/3/126/real_time",33753,25618.5,71583.3,,,
"WidthR<1000>/3/130/real_time",32805,25414.6,72676.4,,,
"WidthR<1000>/3/134/real_time",31976,21621.5,74060.2,,,
"WidthR<1000>/3/138/real_time",31589,27313.3,76233.8,,,
"WidthR<1000>/3/142/real_time",30642,22743.8,77937.1,,,
"WidthR<1000>/3/146/real_time",31827,26941.2,75286.7,,,
"WidthR<1000>/3/150/real_time",32555,25603.4,73234.5,,,
"WidthR<1000>/3/154/real_time",33677,20701,70913.4,,,
"WidthR<1000>/3/158/real_time",34834,24636.7,68902.5,,,
"WidthR<1000>/3/162/real_time",36223,19393.7,66481.2,,,
"WidthR<1000>/3/166/real_time",36424,23124,64467,,,
"WidthR<1000>/3/170/real_time",37051,18898.5,64779.7,,,
"WidthR<1000>/3/174/real_time",36379,23778.7,66526,,,
"WidthR<1000>/3/178/real_time",35813,19416.2,66460.5,,,
"WidthR<1000>/3/182/real_time",35219,24329.7,67922.1,,,
"WidthR<1000>/3/186/real_time",33976,20518.5,70289.3,,,
"WidthR<1000>/3/190/real_time",33783,25562.3,71401.3,,,
"WidthR<1000>/3/194/real_time",33580,20837.9,71356.4,,,
"WidthR<1000>/3/198/real_time",32861,21206.1,72674.3,,,
"WidthR<1000>/3/202/real_time",31271,29280.1,73043.5,,,
"WidthR<1000>/3/206/real_time",32484,25803.3,73887.1,,,
"WidthR<1000>/3/210/real_time",31668,26182.1,74780.5,,,
"WidthR<1000>/3/214/real_time",30728,26685.7,76026.7,,,
"WidthR<1000>/3/218/real_time",30803,22570.9,77399.9,,,
"WidthR<1000>/3/222/real_time",30573,22905.1,78505.5,,,
"WidthR<1000>/3/226/real_time",30114,31973.8,80233.4,,,
"WidthR<1000>/3/230/real_time",29682,28411.5,80996.9,,,
"WidthR<1000>/3/234/real_time",29156,28809.5,82046.6,,,
"WidthR<1000>/3/238/real_time",28938,29115.9,82941.1,,,
"WidthR<1000>/3/242/real_time",28576,29798.6,84831.7,,,
"WidthR<1000>/3/246/real_time",28037,30083.3,85463.9,,,
"WidthR<1000>/3/250/real_time",28033,24999.6,85618.8,,,
"WidthR<1000>/3/254/real_time",28360,30409.9,84772.6,,,
"WidthR<1000>/3/258/real_time",28864,29275.5,83292.3,,,
"WidthR<1000>/3/262/real_time",29243,24241.1,83033.6,,,
"WidthR<1000>/3/266/real_time",29566,29073.7,81044.1,,,
"WidthR<1000>/3/270/real_time",30056,28023.8,79855.9,,,
"WidthR<1000>/3/274/real_time",29366,22878.7,78463,,,
"WidthR<1000>/3/278/real_time",30944,27973.9,77952.1,,,
"WidthR<1000>/3/282/real_time",31364,26670.9,76143,,,
"WidthR<1000>/3/286/real_time",31844,22115,75749,,,
"WidthR<1000>/3/290/real_time",32203,26593.7,74159.2,,,
"WidthR<1000>/3/294/real_time",31863,21430.8,73444,,,
"WidthR<1000>/3/298/real_time",33415,25764.2,71948.3,,,
"WidthR<1000>/3/302/real_time",33889,24666.9,70705.9,,,
"WidthR<1000>/3/306/real_time",33984,20201.5,69213.4,,,
"WidthR<1000>/3/310/real_time",35215,24572.8,68725,,,
"WidthR<1000>/3/314/real_time",33611,19619.3,67244.1,,,
"WidthR<1000>/3/318/real_time",34242,25414.7,71028.3,,,
"WidthR<1000>/3/322/real_time",37105,19558.5,67057.2,,,
"WidthR<1000>/3/326/real_time",37608,22671.8,63501.1,,,
"WidthR<1000>/3/330/real_time",38482,18396.9,63098.4,,,
"WidthR<1000>/3/334/real_time",38321,22294.9,62424,,,
"WidthR<1000>/3/338/real_time",39282,17702.8,60693.2,,,
"WidthR<1000>/3/342/real_time",39173,21897.8,61372.6,,,
"WidthR<1000>/3/346/real_time",37549,18627.8,63813.9,,,
"WidthR<1000>/3/350/real_time",36997,23015.9,64441.7,,,
"WidthR<1000>/3/354/real_time",37018,18839.2,64621.2,,,
"WidthR<1000>/3/358/real_time",37642,22743.5,63656.3,,,
"WidthR<1000>/3/362/real_time",37187,18796.4,64435.1,,,
"WidthR<1000>/3/366/real_time",35053,24475.8,68472.1,,,
"WidthR<1000>/3/370/real_time",35575,20329.5,69603.8,,,
"WidthR<1000>/3/374/real_time",35168,24342.5,68134.4,,,
"WidthR<1000>/3/378/real_time",34375,19938.4,68309.7,,,
"WidthR<1000>/3/382/real_time",35496,24162,67504.8,,,
"WidthR<1000>/3/386/real_time",33751,30385.1,87825.1,,,
"WidthR<1000>/3/390/real_time",24556,23375.2,80148.4,,,
"WidthR<1000>/3/394/real_time",33497,25182.3,70219.6,,,
"WidthR<1000>/3/398/real_time",33976,20641.7,70760.3,,,
"WidthR<1000>/3/402/real_time",33500,25785.6,72123.9,,,
"WidthR<1000>/3/406/real_time",32495,21154.3,72631.1,,,
"WidthR<1000>/3/410/real_time",32907,21146.5,72572.7,,,
"WidthR<1000>/3/414/real_time",33061,29070,73323.6,,,
"WidthR<1000>/3/418/real_time",33109,25307.5,72492.4,,,
"WidthR<1000>/3/422/real_time",32433,25838.2,74003.3,,,
"WidthR<1000>/3/426/real_time",32449,25695.9,73597,,,
"WidthR<1000>/3/430/real_time",32187,26042.9,74568.9,,,
"WidthR<1000>/3/434/real_time",32064,21796.5,74855,,,
"WidthR<1000>/3/438/real_time",31793,27064.9,75493,,,
"WidthR<1000>/3/442/real_time",31440,22208.8,76086.2,,,
"WidthR<1000>/3/446/real_time",31176,27512.5,76730.5,,,
"WidthR<1000>/3/450/real_time",30962,27014,77260.8,,,
"WidthR<1000>/3/454/real_time",30796,23113.7,79236,,,
"WidthR<1000>/3/458/real_time",30376,28324.8,79014.7,,,
"WidthR<1000>/3/462/real_time",30085,27929.4,79779,,,
"WidthR<1000>/3/466/real_time",29883,23304.9,79916.6,,,
"WidthR<1000>/3/470/real_time",29877,28824.7,80468.3,,,
"WidthR<1000>/3/474/real_time",29282,28530.8,81283.7,,,
"WidthR<1000>/3/478/real_time",29053,24169.2,82750.5,,,
"WidthR<1000>/3/482/real_time",28986,29819.8,83079.8,,,
"WidthR<1000>/3/486/real_time",28467,29436.1,83751.3,,,
"WidthR<1000>/3/490/real_time",28555,24759,84894.1,,,
"WidthR<1000>/3/494/real_time",28498,30159.4,83941,,,
"WidthR<1000>/3/498/real_time",28434,29642.5,84411.3,,,
"WidthR<1000>/3/502/real_time",28696,24649.3,84477,,,
"WidthR<1000>/3/506/real_time",28196,30535.7,85265.6,,,
"WidthR<1000>/3/510/real_time",28103,30023.4,85405.5,,,
"WidthR<1000>/4/2/real_time",3621,193161,852856,,,
"WidthR<1000>/4/6/real_time",13480,70076.2,233249,,,
"WidthR<1000>/4/10/real_time",20401,41879.6,154316,,,
"WidthR<1000>/4/14/real_time",24939,33920,126878,,,
"WidthR<1000>/4/18/real_time",28460,29573.2,111321,,,
"WidthR<1000>/4/22/real_time",29269,28780.1,108518,,,
"WidthR<1000>/4/26/real_time",31270,26828.1,101573,,,
"WidthR<1000>/4/30/real_time",31736,26309.3,99703.7,,,
"WidthR<1000>/4/34/real_time",33337,21042.8,95635.5,,,
"WidthR<1000>/4/38/real_time",34007,25246.7,93516,,,
"WidthR<1000>/4/42/real_time",35024,19969.2,90800.6,,,
"WidthR<1000>/4/46/real_time",35393,24262.3,89966.9,,,
"WidthR<1000>/4/50/real_time",36008,19509.6,88652.5,,,
"WidthR<1000>/4/54/real_time",36048,23712.9,87999.3,,,
"WidthR<1000>/4/58/real_time",35397,19656.6,89278.7,,,
"WidthR<1000>/4/62/real_time",37016,23257.4,86346.4,,,
"WidthR<1000>/4/66/real_time",37509,18651.9,84891.6,,,
"WidthR<1000>/4/70/real_time",36886,23244.7,86325.4,,,
"WidthR<1000>/4/74/real_time",36570,19083.1,86743.2,,,
"WidthR<1000>/4/78/real_time",36823,23262.2,86364.4,,,
"WidthR<1000>/4/82/real_time",38930,17965.4,81690.2,,,
"WidthR<1000>/4/86/real_time",39690,21589.1,80327.5,,,
"WidthR<1000>/4/90/real_time",38010,18218.8,82930.7,,,
"WidthR<1000>/4/94/real_time",38098,22486.1,83579.2,,,
"WidthR<1000>/4/98/real_time",37122,18890.9,85992.1,,,
"WidthR<1000>/4/102/real_time",37128,23137.1,85978.2,,,
"WidthR<1000>/4/106/real_time",36249,19177.9,87290.6,,,
"WidthR<1000>/4/110/real_time",35283,24354.1,90360.8,,,
"WidthR<1000>/4/114/real_time",37044,18982.9,86389.2,,,
"WidthR<1000>/4/118/real_time",38925,22001.3,81803.4,,,
"WidthR<1000>/4/122/real_time",40466,17248.8,78391.7,,,
"WidthR<1000>/4/126/real_time",42143,20436,76221.5,,,
"WidthR<1000>/4/130/real_time",41670,16794.1,76510.7,,,
"WidthR<1000>/4/134/real_time",40864,17030.3,77628.2,,,
"WidthR<1000>/4/138/real_time",40225,21398.5,80054.7,,,
"WidthR<1000>/4/142/real_time",39441,17797.9,81037.5,,,
"WidthR<1000>/4/146/real_time",39349,21764.4,81023.6,,,
"WidthR<1000>/4/150/real_time",38612,18233.1,83088.2,,,
"WidthR<1000>/4/154/real_time",37335,22583,83894.3,,,
"WidthR<1000>/4/158/real_time",37098,18787.1,85616.4,,,
"WidthR<1000>/4/162/real_time",35960,23597.8,87547.2,,,
"WidthR<1000>/4/166/real_time",35447,19444.3,88588.5,,,
"WidthR<1000>/4/170/real_time",36223,23740.8,88347.2,,,
"WidthR<1000>/4/174/real_time",35284,19803.8,90244.8,,,
"WidthR<1000>/4/178/real_time",34988,24504.8,91122.6,,,
"WidthR<1000>/4/182/real_time",34199,20415.2,92991,,,
"WidthR<1000>/4/186/real_time",33651,25555,94980.8,,,
"WidthR<1000>/4/190/real_time",33028,21221.1,96651.3,,,
"WidthR<1000>/4/194/real_time",32302,21498.6,98080.5,,,
"WidthR<1000>/4/198/real_time",31992,29933.4,99781.2,,,
"WidthR<1000>/4/202/real_time",32474,25792.8,98177,,,
"WidthR<1000>/4/206/real_time",33298,26201.8,100072,,,
"WidthR<1000>/4/210/real_time",34167,24441.6,93195.2,,,
"WidthR<1000>/4/214/real_time",35058,23829.6,90940.7,,,
"WidthR<1000>/4/218/real_time",35995,19447.2,88573.4,,,
"WidthR<1000>/4/222/real_time",36827,23647.3,88201.7,,,
"WidthR<1000>/4/226/real_time",37017,18422,83966.7,,,
"WidthR<1000>/4/230/real_time",39054,22117.1,82455.1,,,
"WidthR<1000>/4/234/real_time",40404,17638.2,80393.1,,,
"WidthR<1000>/4/238/real_time",40584,16914.3,77079.5,,,
"WidthR<1000>/4/242/real_time",42604,20005.3,75021.1,,,
"WidthR<1000>/4/246/real_time",43551,16891.5,77063.9,,,
"WidthR<1000>/4/250/real_time",45397,18877.3,70669.9,,,
"WidthR<1000>/4/254/real_time",45113,15702.7,71735.4,,,
"WidthR<1000>/4/258/real_time",44741,21213.4,70722.6,,,
"WidthR<1000>/4/262/real_time",44969,18499.3,71431.4,,,
"WidthR<1000>/4/266/real_time",44316,18732.1,72303.5,,,
"WidthR<1000>/4/270/real_time",43936,18827.1,72655.7,,,
"WidthR<1000>/4/274/real_time",41961,16228.7,74168.7,,,
"WidthR<1000>/4/278/real_time",41111,23094.1,76967.2,,,
"WidthR<1000>/4/282/real_time",41403,20869.2,80482.3,,,
"WidthR<1000>/4/286/real_time",41599,20385.1,78660.6,,,
"WidthR<1000>/4/290/real_time",40492,20361.9,78341.4,,,
"WidthR<1000>/4/294/real_time",40975,17427.9,79565.7,,,
"WidthR<1000>/4/298/real_time",40566,21167.6,79184.6,,,
"WidthR<1000>/4/302/real_time",39411,17745.4,81099.2,,,
"WidthR<1000>/4/306/real_time",40047,21953.4,82108.7,,,
"WidthR<1000>/4/310/real_time",39323,18619.1,85044.6,,,
"WidthR<1000>/4/314/real_time",39205,21751.4,81831.4,,,
"WidthR<1000>/4/318/real_time",38903,18679.2,85345.8,,,
"WidthR<1000>/4/322/real_time",38537,22146.2,83042.2,,,
"WidthR<1000>/4/326/real_time",38140,18399.2,84116.4,,,
"WidthR<1000>/4/330/real_time",37476,22731.8,84752.9,,,
"WidthR<1000>/4/334/real_time",37380,18747.9,85612.6,,,
"WidthR<1000>/4/338/real_time",37980,22539.6,84260.1,,,
"WidthR<1000>/4/342/real_time",37664,18608.1,85073.3,,,
"WidthR<1000>/4/346/real_time",37351,22949.6,85679.1,,,
"WidthR<1000>/4/350/real_time",36967,18908.9,86460.9,,,
"WidthR<1000>/4/354/real_time",36596,23452.4,87556,,,
"WidthR<1000>/4/358/real_time",36213,19335.5,88371.6,,,
"WidthR<1000>/4/362/real_time",35949,23873,89020.5,,,
"WidthR<1000>/4/366/real_time",35604,20033.1,91568.5,,,
"WidthR<1000>/4/370/real_time",35266,24381.5,90971.5,,,
"WidthR<1000>/4/374/real_time",34931,22281.5,101807,,,
"WidthR<1000>/4/378/real_time",34637,20293.5,92854.5,,,
"WidthR<1000>/4/382/real_time",34453,27858,93582.6,,,
"WidthR<1000>/4/386/real_time",34123,24540.9,93901.5,,,
"WidthR<1000>/4/390/real_time",33875,24778.5,94825.1,,,
"WidthR<1000>/4/394/real_time",33450,25072.1,95910.3,,,
"WidthR<1000>/4/398/real_time",33056,21118.1,96569.4,,,
"WidthR<1000>/4/402/real_time",32998,21284.9,97345.3,,,
"WidthR<1000>/4/406/real_time",32635,29301.2,98305.5,,,
"WidthR<1000>/4/410/real_time",32300,25915,98953.5,,,
"WidthR<1000>/4/414/real_time",32185,26036.7,99431.4,,,
"WidthR<1000>/4/418/real_time",31959,26230.5,100135,,,
"WidthR<1000>/4/422/real_time",31580,26510.1,101083,,,
"WidthR<1000>/4/426/real_time",31381,22281.7,101851,,,
"WidthR<1000>/4/430/real_time",31067,27686.8,103010,,,
"WidthR<1000>/4/434/real_time",30873,22648.2,103527,,,
"WidthR<1000>/4/438/real_time",30648,22947.2,104940,,,
"WidthR<1000>/4/442/real_time",30391,31488.4,105169,,,
"WidthR<1000>/4/446/real_time",30208,29131.3,111103,,,
"WidthR<1000>/4/450/real_time",30092,28008,106613,,,
"WidthR<1000>/4/454/real_time",29737,28251.4,107482,,,
"WidthR<1000>/4/458/real_time",29545,28464.4,108316,,,
"WidthR<1000>/4/462/real_time",29275,28728.6,109178,,,
"WidthR<1000>/4/466/real_time",29147,24084.2,110070,,,
"WidthR<1000>/4/470/real_time",28900,29804.7,110872,,,
"WidthR<1000>/4/474/real_time",28620,29439.7,111817,,,
"WidthR<1000>/4/478/real_time",28471,24630.6,112543,,,
"WidthR<1000>/4/482/real_time",28270,30506.6,113343,,,
"WidthR<1000>/4/486/real_time",28083,30077.2,114097,,,
"WidthR<1000>/4/490/real_time",27839,25133.2,114954,,,
"WidthR<1000>/4/494/real_time",27632,31155.5,115670,,,
"WidthR<1000>/4/498/real_time",27508,30659.7,116192,,,
"WidthR<1000>/4/502/real_time",27579,30614,116038,,,
"WidthR<1000>/4/506/real_time",27528,25431.4,116253,,,
"WidthR<1000>/4/510/real_time",27274,31584.9,117189,,,
"WidthR<2000>/1/2/real_time",1193,585084,667267,,,
"WidthR<2000>/1/6/real_time",4118,208752,194281,,,
"WidthR<2000>/1/10/real_time",5644,124091,141752,,,
"WidthR<2000>/1/14/real_time",6367,154415,131310,,,
"WidthR<2000>/1/18/real_time",6801,120660,117637,,,
"WidthR<2000>/1/22/real_time",7064,116205,113257,,,
"WidthR<2000>/1/26/real_time",7335,95297.7,108527,,,
"WidthR<2000>/1/30/real_time",7442,126447,108042,,,
"WidthR<2000>/1/34/real_time",7608,107606,105159,,,
"WidthR<2000>/1/38/real_time",7651,106876,104045,,,
"WidthR<2000>/1/42/real_time",7705,90865.2,103835,,,
"WidthR<2000>/1/46/real_time",7829,119709,102190,,,
"WidthR<2000>/1/50/real_time",7878,103767,101555,,,
"WidthR<2000>/1/54/real_time",7930,88376.8,100889,,,
"WidthR<2000>/1/58/real_time",7930,88214.6,100889,,,
"WidthR<2000>/1/62/real_time",7933,117851,100851,,,
"WidthR<2000>/1/66/real_time",7982,102455,100232,,,
"WidthR<2000>/1/70/real_time",7990,87642.3,100131,,,
"WidthR<2000>/1/74/real_time",8022,87446.9,99732,,,
"WidthR<2000>/1/78/real_time",8002,87186.8,99481.4,,,
"WidthR<2000>/1/82/real_time",7990,129315,109644,,,
"WidthR<2000>/1/86/real_time",8030,102159,100131,,,
"WidthR<2000>/1/90/real_time",8036,101775,99558.2,,,
"WidthR<2000>/1/94/real_time",8051,86772.4,99372.7,,,
"WidthR<2000>/1/98/real_time",8066,115959,99188.1,,,
"WidthR<2000>/1/102/real_time",8061,101304,98753.3,,,
"WidthR<2000>/1/106/real_time",8083,101156,98979.3,,,
"WidthR<2000>/1/110/real_time",8072,86518.8,98618.7,,,
"WidthR<2000>/1/114/real_time",8074,115776,99089.7,,,
"WidthR<2000>/1/118/real_time",8074,101420,99089.5,,,
"WidthR<2000>/1/122/real_time",8067,86472.6,98679.8,,,
"WidthR<2000>/1/126/real_time",8113,108489,98613.3,,,
"WidthR<2000>/1/130/real_time",8109,86193.4,98662,,,
"WidthR<2000>/1/134/real_time",8100,115372,98771.6,,,
"WidthR<2000>/1/138/real_time",8126,100859,98947.8,,,
"WidthR<2000>/1/142/real_time",8113,100660,98613.3,,,
"WidthR<2000>/1/146/real_time",8129,86145.6,98419.2,,,
"WidthR<2000>/1/150/real_time",8120,114950,98035.7,,,
"WidthR<2000>/1/154/real_time",8141,100546,98274.3,,,
"WidthR<2000>/1/158/real_time",8134,86023,98358.7,,,
"WidthR<2000>/1/162/real_time",8129,86059.3,98419.2,,,
"WidthR<2000>/1/166/real_time",8115,86223,98589,,,
"WidthR<2000>/1/170/real_time",8143,85848.1,97758.7,,,
"WidthR<2000>/1/174/real_time",8146,117807,98704.9,,,
"WidthR<2000>/1/178/real_time",8141,113220,111050,,,
"WidthR<2000>/1/182/real_time",8129,100444,98419.2,,,
"WidthR<2000>/1/186/real_time",8155,85792.1,98105.6,,,
"WidthR<2000>/1/190/real_time",8144,114783,98238,,,
"WidthR<2000>/1/194/real_time",8136,100372,98334.6,,,
"WidthR<2000>/1/198/real_time",8156,100280,98093.4,,,
"WidthR<2000>/1/202/real_time",8160,85796.6,98045.3,,,
"WidthR<2000>/1/206/real_time",8159,114497,97567,,,
"WidthR<2000>/1/210/real_time",8155,100082,98105.5,,,
"WidthR<2000>/1/214/real_time",8148,85779.8,97698.7,,,
"WidthR<2000>/1/218/real_time",8158,107637,98069.4,,,
"WidthR<2000>/1/222/real_time",8145,85754.5,98225.9,,,
"WidthR<2000>/1/226/real_time",8178,114419,97829.5,,,
"WidthR<2000>/1/230/real_time",8169,100103,97937.3,,,
"WidthR<2000>/1/234/real_time",8161,100052,97543.2,,,
"WidthR<2000>/1/238/real_time",8169,88622.3,101365,,,
"WidthR<2000>/1/242/real_time",5952,122253,98124.3,,,
"WidthR<2000>/1/246/real_time",8145,100078,97734.7,,,
"WidthR<2000>/1/250/real_time",8168,85649.5,97459.6,,,
"WidthR<2000>/1/254/real_time",8180,114294,97805.6,,,
"WidthR<2000>/1/258/real_time",8190,100073,98174.7,,,
"WidthR<2000>/1/262/real_time",8181,100006,97793.7,,,
"WidthR<2000>/1/266/real_time",8180,85500.4,97805.6,,,
"WidthR<2000>/1/270/real_time",8178,114303,97829.5,,,
"WidthR<2000>/1/274/real_time",8183,99832.6,97280.9,,,
"WidthR<2000>/1/278/real_time",8184,85528.7,97757.8,,,
"WidthR<2000>/1/282/real_time",8180,85581.9,97805.7,,,
"WidthR<2000>/1/286/real_time",8196,85477.8,97614.7,,,
"WidthR<2000>/1/290/real_time",8183,85476.7,97769.8,,,
"WidthR<2000>/1/294/real_time",8202,116925,97543.3,,,
"WidthR<2000>/1/298/real_time",8188,99790.3,97710.1,,,
"WidthR<2000>/1/302/real_time",8199,99855.9,97579,,,
"WidthR<2000>/1/306/real_time",8196,85392.5,97614.7,,,
"WidthR<2000>/1/310/real_time",8195,114124,97626.6,,,
"WidthR<2000>/1/314/real_time",5856,121882,118177,,,
"WidthR<2000>/1/318/real_time",8195,85420.4,97626.6,,,
"WidthR<2000>/1/322/real_time",8197,85487.6,97602.8,,,
"WidthR<2000>/1/326/real_time",8195,85409.9,97626.6,,,
"WidthR<2000>/1/330/real_time",8188,116748,97710.1,,,
"WidthR<2000>/1/334/real_time",8197,99722.1,97602.8,,,
"WidthR<2000>/1/338/real_time",8195,99714.6,97626.5,,,
"WidthR<2000>/1/342/real_time",8201,85351.5,97555.2,,,
"WidthR<2000>/1/346/real_time",8197,125531,108827,,,
"WidthR<2000>/1/350/real_time",8202,99700.1,97543.3,,,
"WidthR<2000>/1/354/real_time",8202,99702.7,97543.3,,,
"WidthR<2000>/1/358/real_time",8199,85593.6,97579,,,
"WidthR<2000>/1/362/real_time",8197,114067,97602.8,,,
"WidthR<2000>/1/366/real_time",8149,99829,97686.8,,,
"WidthR<2000>/1/370/real_time",8205,85413.2,97507.6,,,
"WidthR<2000>/1/374/real_time",8179,85466,97817.6,,,
"WidthR<2000>/1/378/real_time",8192,85479.3,97662.4,,,
"WidthR<2000>/1/382/real_time",8197,85523.4,98090.8,,,
"WidthR<2000>/1/386/real_time",8193,116703,97162.2,,,
"WidthR<2000>/1/390/real_time",8203,99645.5,97531.4,,,
"WidthR<2000>/1/394/real_time",8203,99649.9,97531.4,,,
"WidthR<2000>/1/398/real_time",8202,85331.8,97543.3,,,
"WidthR<2000>/1/402/real_time",8191,124622,107930,,,
"WidthR<2000>/1/406/real_time",8203,99782.1,97531.4,,,
"WidthR<2000>/1/410/real_time",8192,99745.3,97662.5,,,
"WidthR<2000>/1/414/real_time",8190,85365.1,97197.8,,,
"WidthR<2000>/1/418/real_time",8198,114006,97590.9,,,
"WidthR<2000>/1/422/real_time",7632,106092,103256,,,
"WidthR<2000>/1/426/real_time",8173,85628.1,97889.4,,,
"WidthR<2000>/1/430/real_time",8175,85573.2,97865.3,,,
"WidthR<2000>/1/434/real_time",8185,85320.9,97257.1,,,
"WidthR<2000>/1/438/real_time",8195,85409.3,97626.6,,,
"WidthR<2000>/1/442/real_time",8207,117038,97971.4,,,
"WidthR<2000>/1/446/real_time",8193,99752.1,97650.6,,,
"WidthR<2000>/1/450/real_time",8216,99751.3,97377.1,,,
"WidthR<2000>/1/454/real_time",8198,85393.1,97590.9,,,
"WidthR<2000>/1/458/real_time",8195,114112,97626.6,,,
"WidthR<2000>/1/462/real_time",8201,99760.9,97555.2,,,
"WidthR<2000>/1/466/real_time",8197,85513,97602.8,,,
"WidthR<2000>/1/470/real_time",8182,85538.4,97781.7,,,
"WidthR<2000>/1/474/real_time",8203,114155,97531.3,,,
"WidthR<2000>/1/478/real_time",8187,99805,97722.1,,,
"WidthR<2000>/1/482/real_time",8200,85351.4,97567.1,,,
"WidthR<2000>/1/486/real_time",8195,85418.6,97626.6,,,
"WidthR<2000>/1/490/real_time",8201,85514.8,97555.2,,,
"WidthR<2000>/1/494/real_time",8181,112312,97793.7,,,
"WidthR<2000>/1/498/real_time",8203,99791.9,97531.4,,,
"WidthR<2000>/1/502/real_time",8207,85208.7,97483.9,,,
"WidthR<2000>/1/506/real_time",8209,113916,97460.1,,,
"WidthR<2000>/1/510/real_time",8215,99515.5,97388.9,,,
"WidthR<2000>/2/2/real_time",1631,535489,981055,,,
"WidthR<2000>/2/6/real_time",5504,149422,289989,,,
"WidthR<2000>/2/10/real_time",7944,88001.6,200919,,,
"WidthR<2000>/2/14/real_time",9370,99706,170342,,,
"WidthR<2000>/2/18/real_time",10394,78156.8,153560,,,
"WidthR<2000>/2/22/real_time",11155,72826.3,143442,,,
"WidthR<2000>/2/26/real_time",11717,59743.2,136562,,,
"WidthR<2000>/2/30/real_time",12166,76129.5,131193,,,
"WidthR<2000>/2/34/real_time",12611,64136,126247,,,
"WidthR<2000>/2/38/real_time",12807,54798.6,125252,,,
"WidthR<2000>/2/42/real_time",12987,71149.9,122900,,,
"WidthR<2000>/2/46/real_time",13385,61287.1,120740,,,
"WidthR<2000>/2/50/real_time",13489,52032.9,118919,,,
"WidthR<2000>/2/54/real_time",13413,68831.6,118996,,,
"WidthR<2000>/2/58/real_time",13562,59477.6,117099,,,
"WidthR<2000>/2/62/real_time",13791,58715.3,115735,,,
"WidthR<2000>/2/66/real_time",13886,50400.6,115231,,,
"WidthR<2000>/2/70/real_time",13898,66338.9,114844,,,
"WidthR<2000>/2/74/real_time",13741,59163.2,116447,,,
"WidthR<2000>/2/78/real_time",14205,62410.4,112925,,,
"WidthR<2000>/2/82/real_time",13946,49858.6,114162,,,
"WidthR<2000>/2/86/real_time",13916,50170.7,114695,,,
"WidthR<2000>/2/90/real_time",10000,70229,111607,,,
"WidthR<2000>/2/94/real_time",14135,62612.7,113201,,,
"WidthR<2000>/2/98/real_time",14338,61802.5,111878,,,
"WidthR<2000>/2/102/real_time",10000,56795.1,111207,,,
"WidthR<2000>/2/106/real_time",14066,62889.2,113757,,,
"WidthR<2000>/2/110/real_time",14488,61052.5,110719,,,
"WidthR<2000>/2/114/real_time",14325,61385.9,111141,,,
"WidthR<2000>/2/118/real_time",10000,58074,113607,,,
"WidthR<2000>/2/122/real_time",14428,61235,110902,,,
"WidthR<2000>/2/126/real_time",14781,59677.7,108525,,,
"WidthR<2000>/2/130/real_time",14355,61581.1,111466,,,
"WidthR<2000>/2/134/real_time",14178,62313.9,112576,,,
"WidthR<2000>/2/138/real_time",10000,56416.8,110807,,,
"WidthR<2000>/2/142/real_time",14808,59657.1,108327,,,
"WidthR<2000>/2/146/real_time",14659,60160.5,109155,,,
"WidthR<2000>/2/150/real_time",14273,61969.7,112107,,,
"WidthR<2000>/2/154/real_time",10000,58178.1,114007,,,
"WidthR<2000>/2/158/real_time",14337,61595.5,111327,,,
"WidthR<2000>/2/162/real_time",14674,60107.4,109043,,,
"WidthR<2000>/2/166/real_time",15015,58783,106833,,,
"WidthR<2000>/2/170/real_time",14797,59915.2,108678,,,
"WidthR<2000>/2/174/real_time",10000,56790.9,111207,,,
"WidthR<2000>/2/178/real_time",14112,62554.4,113102,,,
"WidthR<2000>/2/182/real_time",13920,50225.1,114950,,,
"WidthR<2000>/2/186/real_time",10000,68523,112407,,,
"WidthR<2000>/2/190/real_time",14376,61519.4,111304,,,
"WidthR<2000>/2/194/real_time",10000,55373.7,108407,,,
"WidthR<2000>/2/198/real_time",14961,59101.6,107486,,,
"WidthR<2000>/2/202/real_time",14866,58813,106828,,,
"WidthR<2000>/2/206/real_time",14732,59999.8,108885,,,
"WidthR<2000>/2/210/real_time",14450,61225.4,111010,,,
"WidthR<2000>/2/214/real_time",10000,57573.8,112807,,,
"WidthR<2000>/2/218/real_time",13909,49964.7,114178,,,
"WidthR<2000>/2/222/real_time",13740,66998.4,115873,,,
"WidthR<2000>/2/226/real_time",10000,50049.2,114407,,,
"WidthR<2000>/2/230/real_time",10000,65450.1,112007,,,
"WidthR<2000>/2/234/real_time",14350,61510.3,111505,,,
"WidthR<2000>/2/238/real_time",10000,56081.9,110007,,,
"WidthR<2000>/2/242/real_time",14803,59487.7,108093,,,
"WidthR<2000>/2/246/real_time",15001,58625.2,106666,,,
"WidthR<2000>/2/250/real_time",15154,58074.4,105589,,,
"WidthR<2000>/2/254/real_time",15061,58775.9,107038,,,
"WidthR<2000>/2/258/real_time",10000,54731.1,107607,,,
"WidthR<2000>/2/262/real_time",14703,60097.5,109100,,,
"WidthR<2000>/2/266/real_time",14432,61094.8,110595,,,
"WidthR<2000>/2/270/real_time",14317,61805.8,111762,,,
"WidthR<2000>/2/274/real_time",14098,62824.8,113782,,,
"WidthR<2000>/2/278/real_time",13878,58507.4,115298,,,
"WidthR<2000>/2/282/real_time",13641,51255.5,117008,,,
"WidthR<2000>/2/286/real_time",13551,51492.7,117489,,,
"WidthR<2000>/2/290/real_time",13695,69015.1,116838,,,
"WidthR<2000>/2/294/real_time",13848,58698.3,115836,,,
"WidthR<2000>/2/298/real_time",13954,49943.8,114096,,,
"WidthR<2000>/2/302/real_time",14096,49532.2,113231,,,
"WidthR<2000>/2/306/real_time",10000,70383.2,112007,,,
"WidthR<2000>/2/310/real_time",14351,61445.1,111219,,,
"WidthR<2000>/2/314/real_time",14557,60674.8,109920,,,
"WidthR<2000>/2/318/real_time",10000,55400.2,108807,,,
"WidthR<2000>/2/322/real_time",14865,58992.5,107104,,,
"WidthR<2000>/2/326/real_time",15027,58379.5,106215,,,
"WidthR<2000>/2/330/real_time",15236,57968.6,105546,,,
"WidthR<2000>/2/334/real_time",15149,57785.6,105096,,,
"WidthR<2000>/2/338/real_time",10000,53763.1,105206,,,
"WidthR<2000>/2/342/real_time",14945,58565,106531,,,
"WidthR<2000>/2/346/real_time",14881,59282.6,107795,,,
"WidthR<2000>/2/350/real_time",14675,60004.7,108763,,,
"WidthR<2000>/2/354/real_time",14600,60608.7,110144,,,
"WidthR<2000>/2/358/real_time",10000,56686.4,111207,,,
"WidthR<2000>/2/362/real_time",14199,61862.7,111846,,,
"WidthR<2000>/2/366/real_time",14102,62651.7,113182,,,
"WidthR<2000>/2/370/real_time",13986,58019.5,114407,,,
"WidthR<2000>/2/374/real_time",13790,50618,115743,,,
"WidthR<2000>/2/378/real_time",13719,67462.2,116634,,,
"WidthR<2000>/2/382/real_time",13575,59862.8,117871,,,
"WidthR<2000>/2/386/real_time",13409,51892,118734,,,
"WidthR<2000>/2/390/real_time",13291,69399.4,120089,,,
"WidthR<2000>/2/394/real_time",13113,61498,121109,,,
"WidthR<2000>/2/398/real_time",13067,53712.1,122760,,,
"WidthR<2000>/2/402/real_time",13100,70737,122145,,,
"WidthR<2000>/2/406/real_time",13212,61752,121412,,,
"WidthR<2000>/2/410/real_time",13217,61548.8,121064,,,
"WidthR<2000>/2/414/real_time",13282,52558.1,119869,,,
"WidthR<2000>/2/418/real_time",13412,69187.5,119900,,,
"WidthR<2000>/2/422/real_time",13316,60139.9,118361,,,
"WidthR<2000>/2/426/real_time",13573,51564.1,117888,,,
"WidthR<2000>/2/430/real_time",13633,67743.8,117370,,,
"WidthR<2000>/2/434/real_time",13770,59077.6,116492,,,
"WidthR<2000>/2/438/real_time",13759,50568.4,115713,,,
"WidthR<2000>/2/442/real_time",13980,66172.8,114456,,,
"WidthR<2000>/2/446/real_time",13991,57869.3,113795,,,
"WidthR<2000>/2/450/real_time",14151,62503,113073,,,
"WidthR<2000>/2/454/real_time",14230,61955.5,112164,,,
"WidthR<2000>/2/458/real_time",10000,56939.3,111607,,,
"WidthR<2000>/2/462/real_time",14425,61180.1,110648,,,
"WidthR<2000>/2/466/real_time",14518,60788,110215,,,
"WidthR<2000>/2/470/real_time",14659,60271.2,109428,,,
"WidthR<2000>/2/474/real_time",14703,60121.2,109100,,,
"WidthR<2000>/2/478/real_time",10000,55027,108007,,,
"WidthR<2000>/2/482/real_time",14966,58806.7,106648,,,
"WidthR<2000>/2/486/real_time",15048,58760.4,107131,,,
"WidthR<2000>/2/490/real_time",15144,58035.3,105659,,,
"WidthR<2000>/2/494/real_time",15146,57705.1,105117,,,
"WidthR<2000>/2/498/real_time",10000,53343.2,104406,,,
"WidthR<2000>/2/502/real_time",15461,57251.9,104269,,,
"WidthR<2000>/2/506/real_time",15288,57383,104402,,,
"WidthR<2000>/2/510/real_time",15074,57983.4,105354,,,
"WidthR<2000>/3/2/real_time",1833,472274,1.29413e+06,,,
"WidthR<2000>/3/6/real_time",7125,114806,335179,,,
"WidthR<2000>/3/10/real_time",10266,68205.9,233406,,,
"WidthR<2000>/3/14/real_time",12111,76682.9,197849,,,
"WidthR<2000>/3/18/real_time",13556,59724,176169,,,
"WidthR<2000>/3/22/real_time",14559,60686.8,164857,,,
"WidthR<2000>/3/26/real_time",15641,56050,153197,,,
"WidthR<2000>/3/30/real_time",16231,54030.3,148121,,,
"WidthR<2000>/3/34/real_time",14084,42614.2,145990,,,
"WidthR<2000>/3/38/real_time",16591,57879.1,144425,,,
"WidthR<2000>/3/42/real_time",14569,41283.7,141405,,,
"WidthR<2000>/3/46/real_time",10000,56761.2,140809,,,
"WidthR<2000>/3/50/real_time",17301,50216,138267,,,
"WidthR<2000>/3/54/real_time",17449,49928.1,137552,,,
"WidthR<2000>/3/58/real_time",17858,48672.4,134402,,,
"WidthR<2000>/3/62/real_time",18031,47991.2,132669,,,
"WidthR<2000>/3/66/real_time",18537,46644.3,129263,,,
"WidthR<2000>/3/70/real_time",18394,47253.8,130920,,,
"WidthR<2000>/3/74/real_time",18853,45834,127309,,,
"WidthR<2000>/3/78/real_time",18513,46707,129431,,,
"WidthR<2000>/3/82/real_time",18958,45475.6,125971,,,
"WidthR<2000>/3/86/real_time",18926,45730.6,127029,,,
"WidthR<2000>/3/90/real_time",18459,47137.8,130676,,,
"WidthR<2000>/3/94/real_time",19185,45126,125314,,,
"WidthR<2000>/3/98/real_time",19102,45144.5,125440,,,
"WidthR<2000>/3/102/real_time",18776,46055.5,127831,,,
"WidthR<2000>/3/106/real_time",18588,46463.3,128908,,,
"WidthR<2000>/3/110/real_time",19526,44211.9,122921,,,
"WidthR<2000>/3/114/real_time",19256,44626.8,124021,,,
"WidthR<2000>/3/118/real_time",19042,45404.8,126045,,,
"WidthR<2000>/3/122/real_time",18621,46301.6,128250,,,
"WidthR<2000>/3/126/real_time",18689,46267.3,128426,,,
"WidthR<2000>/3/130/real_time",19600,44081.6,122457,,,
"WidthR<2000>/3/134/real_time",20098,42810.7,119223,,,
"WidthR<2000>/3/138/real_time",19612,43842.3,121974,,,
"WidthR<2000>/3/142/real_time",19166,45026.2,125021,,,
"WidthR<2000>/3/146/real_time",18999,36905.8,126330,,,
"WidthR<2000>/3/150/real_time",10000,54047.2,128408,,,
"WidthR<2000>/3/154/real_time",18292,47551,131650,,,
"WidthR<2000>/3/158/real_time",18908,45965.8,127573,,,
"WidthR<2000>/3/162/real_time",19656,43899.6,122311,,,
"WidthR<2000>/3/166/real_time",20333,42540,118632,,,
"WidthR<2000>/3/170/real_time",20128,42604.4,118847,,,
"WidthR<2000>/3/174/real_time",19680,43763.9,121756,,,
"WidthR<2000>/3/178/real_time",19337,44440.4,123502,,,
"WidthR<2000>/3/182/real_time",19073,45418.3,126050,,,
"WidthR<2000>/3/186/real_time",18858,45770.3,126851,,,
"WidthR<2000>/3/190/real_time",18549,46800.9,129611,,,
"WidthR<2000>/3/194/real_time",18214,47533.9,131555,,,
"WidthR<2000>/3/198/real_time",17900,48434.3,133863,,,
"WidthR<2000>/3/202/real_time",18031,47987.7,132669,,,
"WidthR<2000>/3/206/real_time",18612,46827.7,129817,,,
"WidthR<2000>/3/210/real_time",19153,45825.2,127403,,,
"WidthR<2000>/3/214/real_time",19639,43905.3,122213,,,
"WidthR<2000>/3/218/real_time",20150,42688.1,118916,,,
"WidthR<2000>/3/222/real_time",20365,41911.9,116874,,,
"WidthR<2000>/3/226/real_time",20197,41901.7,116460,,,
"WidthR<2000>/3/230/real_time",20321,42680,119096,,,
"WidthR<2000>/3/234/real_time",19839,43203.6,120175,,,
"WidthR<2000>/3/238/real_time",19684,43751.6,121731,,,
"WidthR<2000>/3/242/real_time",19441,44474.6,123870,,,
"WidthR<2000>/3/246/real_time",19062,45279.1,125703,,,
"WidthR<2000>/3/250/real_time",18769,45909.3,127239,,,
"WidthR<2000>/3/254/real_time",18615,45795.5,126787,,,
"WidthR<2000>/3/258/real_time",18629,46495.1,128839,,,
"WidthR<2000>/3/262/real_time",18350,47131.4,130580,,,
"WidthR<2000>/3/266/real_time",18197,47658.6,131898,,,
"WidthR<2000>/3/270/real_time",17848,48439.1,134029,,,
"WidthR<2000>/3/274/real_time",17560,49082.3,135316,,,
"WidthR<2000>/3/278/real_time",14974,40094.5,137313,,,
"WidthR<2000>/3/282/real_time",17250,55591.4,139139,,,
"WidthR<2000>/3/286/real_time",14715,40780.8,140002,,,
"WidthR<2000>/3/290/real_time",10000,55678.1,138009,,,
"WidthR<2000>/3/294/real_time",17621,48921.6,134848,,,
"WidthR<2000>/3/298/real_time",18087,48115.4,133143,,,
"WidthR<2000>/3/302/real_time",18323,47388.7,131209,,,
"WidthR<2000>/3/306/real_time",18577,46493.2,128985,,,
"WidthR<2000>/3/310/real_time",19077,45337.1,126024,,,
"WidthR<2000>/3/314/real_time",19387,44542.8,124008,,,
"WidthR<2000>/3/318/real_time",19731,44852.2,125090,,,
"WidthR<2000>/3/322/real_time",20106,42829.8,119375,,,
"WidthR<2000>/3/326/real_time",20484,42106.6,117563,,,
"WidthR<2000>/3/330/real_time",20868,41304.1,115591,,,
"WidthR<2000>/3/334/real_time",21147,40556.8,113309,,,
"WidthR<2000>/3/338/real_time",20938,41192.3,115204,,,
"WidthR<2000>/3/342/real_time",20812,41419.1,115710,,,
"WidthR<2000>/3/346/real_time",20304,41878.9,116635,,,
"WidthR<2000>/3/350/real_time",20304,42401.3,118211,,,
"WidthR<2000>/3/354/real_time",20115,42607.3,118725,,,
"WidthR<2000>/3/358/real_time",19977,43508.9,121347,,,
"WidthR<2000>/3/362/real_time",19803,43558.9,121201,,,
"WidthR<2000>/3/366/real_time",19157,44012.9,121947,,,
"WidthR<2000>/3/370/real_time",19417,44741.8,124435,,,
"WidthR<2000>/3/374/real_time",18915,45191.4,125411,,,
"WidthR<2000>/3/378/real_time",18968,45432.3,126115,,,
"WidthR<2000>/3/382/real_time",18803,46104.7,127860,,,
"WidthR<2000>/3/386/real_time",18694,46465.2,128819,,,
"WidthR<2000>/3/390/real_time",18192,46966.6,129955,,,
"WidthR<2000>/3/394/real_time",18451,47251,130950,,,
"WidthR<2000>/3/398/real_time",18219,47763.5,132178,,,
"WidthR<2000>/3/402/real_time",18296,47423.4,131403,,,
"WidthR<2000>/3/406/real_time",18141,47800.2,132305,,,
"WidthR<2000>/3/410/real_time",16919,49037.4,134532,,,
"WidthR<2000>/3/414/real_time",17159,49138.3,134981,,,
"WidthR<2000>/3/418/real_time",16595,49841.8,136435,,,
"WidthR<2000>/3/422/real_time",17518,49558.8,136782,,,
"WidthR<2000>/3/426/real_time",17392,49996.2,138003,,,
"WidthR<2000>/3/430/real_time",14731,42545.5,145824,,,
"WidthR<2000>/3/434/real_time",10000,57091.2,140409,,,
"WidthR<2000>/3/438/real_time",16405,52151.8,142892,,,
"WidthR<2000>/3/442/real_time",16494,52177.4,143334,,,
"WidthR<2000>/3/446/real_time",16606,53074.6,145980,,,
"WidthR<2000>/3/450/real_time",15555,55023.4,150186,,,
"WidthR<2000>/3/454/real_time",16381,53165.1,146032,,,
"WidthR<2000>/3/458/real_time",15488,55129.4,150578,,,
"WidthR<2000>/3/462/real_time",16177,54323.8,148863,,,
"WidthR<2000>/3/466/real_time",10000,51044.7,150409,,,
"WidthR<2000>/3/470/real_time",15822,55307.4,151444,,,
"WidthR<2000>/3/474/real_time",15704,55827.9,152837,,,
"WidthR<2000>/3/478/real_time",15618,56454.8,154447,,,
"WidthR<2000>/3/482/real_time",15489,56608.8,154700,,,
"WidthR<2000>/3/486/real_time",15192,56961.8,155355,,,
"WidthR<2000>/3/490/real_time",10000,53233.6,156410,,,
"WidthR<2000>/3/494/real_time",15000,57922.8,157610,,,
"WidthR<2000>/3/498/real_time",15037,58469.5,159350,,,
"WidthR<2000>/3/502/real_time",15073,58226.5,158704,,,
"WidthR<2000>/3/506/real_time",15274,57478.6,156878,,,
"WidthR<2000>/3/510/real_time",15403,57136.3,156083,,,
"WidthR<2000>/4/2/real_time",1836,471931,1.6842e+06,,,
"WidthR<2000>/4/6/real_time",7404,110579,426283,,,
"WidthR<2000>/4/10/real_time",11272,71978.8,280358,,,
"WidthR<2000>/4/14/real_time",13730,51835.2,235703,,,
"WidthR<2000>/4/18/real_time",10000,63521.3,202813,,,
"WidthR<2000>/4/22/real_time",16815,51522.1,187701,,,
"WidthR<2000>/4/26/real_time",17883,48482.8,178057,,,
"WidthR<2000>/4/30/real_time",18585,46562.2,171332,,,
"WidthR<2000>/4/34/real_time",19040,45392.8,167658,,,
"WidthR<2000>/4/38/real_time",19297,44598.7,164595,,,
"WidthR<2000>/4/42/real_time",19739,43704.6,161720,,,
"WidthR<2000>/4/46/real_time",19931,43235.5,160163,,,
"WidthR<2000>/4/50/real_time",20443,42013.1,155760,,,
"WidthR<2000>/4/54/real_time",20378,42166.6,156453,,,
"WidthR<2000>/4/58/real_time",20842,41170.1,152778,,,
"WidthR<2000>/4/62/real_time",21285,40503.4,150726,,,
"WidthR<2000>/4/66/real_time",21302,40229.1,149479,,,
"WidthR<2000>/4/70/real_time",21609,39401.6,146430,,,
"WidthR<2000>/4/74/real_time",21640,39354.4,146405,,,
"WidthR<2000>/4/78/real_time",21828,39194.1,146060,,,
"WidthR<2000>/4/82/real_time",22149,38682.9,144124,,,
"WidthR<2000>/4/86/real_time",22239,38487.3,143541,,,
"WidthR<2000>/4/90/real_time",21883,39240.1,146241,,,
"WidthR<2000>/4/94/real_time",21649,39528,147083,,,
"WidthR<2000>/4/98/real_time",22665,38021.3,141902,,,
"WidthR<2000>/4/102/real_time",22823,37396.4,139692,,,
"WidthR<2000>/4/106/real_time",22563,37745.9,140770,,,
"WidthR<2000>/4/110/real_time",21988,31736.1,144633,,,
"WidthR<2000>/4/114/real_time",21800,32064.4,146064,,,
"WidthR<2000>/4/118/real_time",21464,40249.6,147419,,,
"WidthR<2000>/4/122/real_time",22909,37317.4,139517,,,
"WidthR<2000>/4/126/real_time",23574,36173.9,135242,,,
"WidthR<2000>/4/130/real_time",23284,36850.7,137786,,,
"WidthR<2000>/4/134/real_time",22943,30395.4,138613,,,
"WidthR<2000>/4/138/real_time",22570,30991,141258,,,
"WidthR<2000>/4/142/real_time",22174,39307.2,144503,,,
"WidthR<2000>/4/146/real_time",22072,38662.4,144083,,,
"WidthR<2000>/4/150/real_time",21592,39603.7,147471,,,
"WidthR<2000>/4/154/real_time",21290,40131.3,149375,,,
"WidthR<2000>/4/158/real_time",22297,38371,143167,,,
"WidthR<2000>/4/162/real_time",23478,29816.6,135966,,,
"WidthR<2000>/4/166/real_time",24121,29276,133336,,,
"WidthR<2000>/4/170/real_time",24104,35849.3,131771,,,
"WidthR<2000>/4/174/real_time",23776,36070.1,135103,,,
"WidthR<2000>/4/178/real_time",23374,36727,137426,,,
"WidthR<2000>/4/182/real_time",23078,30302.5,138322,,,
"WidthR<2000>/4/186/real_time",10000,51537.2,141209,,,
"WidthR<2000>/4/190/real_time",22521,38346.2,143342,,,
"WidthR<2000>/4/194/real_time",22179,38461.2,143568,,,
"WidthR<2000>/4/198/real_time",21836,39414.2,146923,,,
"WidthR<2000>/4/202/real_time",21817,39210.3,146134,,,
"WidthR<2000>/4/206/real_time",21530,39881.5,148639,,,
"WidthR<2000>/4/210/real_time",21222,40359.7,150231,,,
"WidthR<2000>/4/214/real_time",20537,41343.6,153294,,,
"WidthR<2000>/4/218/real_time",20545,41996.1,155960,,,
"WidthR<2000>/4/222/real_time",20147,43235,160629,,,
"WidthR<2000>/4/226/real_time",20860,41028.5,152454,,,
"WidthR<2000>/4/230/real_time",21472,39865.5,148482,,,
"WidthR<2000>/4/234/real_time",22257,38427.4,143604,,,
"WidthR<2000>/4/238/real_time",22949,30408.7,138751,,,
"WidthR<2000>/4/242/real_time",23582,29379.9,134009,,,
"WidthR<2000>/4/246/real_time",24342,35691.8,131304,,,
"WidthR<2000>/4/250/real_time",25037,33845.8,127180,,,
"WidthR<2000>/4/254/real_time",25086,27877.1,127250,,,
"WidthR<2000>/4/258/real_time",24911,34721.6,128465,,,
"WidthR<2000>/4/262/real_time",23936,34785.2,130189,,,
"WidthR<2000>/4/266/real_time",24311,35076.8,131636,,,
"WidthR<2000>/4/270/real_time",23856,35516.8,132973,,,
"WidthR<2000>/4/274/real_time",23611,35948.9,134691,,,
"WidthR<2000>/4/278/real_time",23447,30090.7,137340,,,
"WidthR<2000>/4/282/real_time",23024,30467.7,138994,,,
"WidthR<2000>/4/286/real_time",22822,37885.7,139173,,,
"WidthR<2000>/4/290/real_time",21909,38588.8,144059,,,
"WidthR<2000>/4/294/real_time",22587,37720.8,140975,,,
"WidthR<2000>/4/298/real_time",22394,38118.8,142368,,,
"WidthR<2000>/4/302/real_time",22054,31532.1,144019,,,
"WidthR<2000>/4/306/real_time",21893,31985.8,146175,,,
"WidthR<2000>/4/310/real_time",21574,40092.4,147223,,,
"WidthR<2000>/4/314/real_time",21513,39848.3,148571,,,
"WidthR<2000>/4/318/real_time",21206,40359,150156,,,
"WidthR<2000>/4/322/real_time",21030,40815.2,151983,,,
"WidthR<2000>/4/326/real_time",20776,41234.9,153456,,,
"WidthR<2000>/4/330/real_time",20588,42129.5,156800,,,
"WidthR<2000>/4/334/real_time",20515,41975.5,155993,,,
"WidthR<2000>/4/338/real_time",20533,41873,155662,,,
"WidthR<2000>/4/342/real_time",20311,42649.4,158348,,,
"WidthR<2000>/4/346/real_time",20130,42885.8,159374,,,
"WidthR<2000>/4/350/real_time",19764,43401,161111,,,
"WidthR<2000>/4/354/real_time",19691,44497.3,165162,,,
"WidthR<2000>/4/358/real_time",19518,44266.4,163961,,,
"WidthR<2000>/4/362/real_time",19282,44822.6,165968,,,
"WidthR<2000>/4/366/real_time",19124,47038.3,174661,,,
"WidthR<2000>/4/370/real_time",18776,45793,169163,,,
"WidthR<2000>/4/374/real_time",18776,46033,170228,,,
"WidthR<2000>/4/378/real_time",18615,46628.4,172130,,,
"WidthR<2000>/4/382/real_time",18431,47011.3,173414,,,
"WidthR<2000>/4/386/real_time",18323,47452.6,175310,,,
"WidthR<2000>/4/390/real_time",18139,48993.9,181058,,,
"WidthR<2000>/4/394/real_time",16878,50917.4,186764,,,
"WidthR<2000>/4/398/real_time",17749,48816.4,179852,,,
"WidthR<2000>/4/402/real_time",17900,48579,179006,,,
"WidthR<2000>/4/406/real_time",18186,47663.5,175751,,,
"WidthR<2000>/4/410/real_time",18431,47002.9,173414,,,
"WidthR<2000>/4/414/real_time",18677,46353.5,171344,,,
"WidthR<2000>/4/418/real_time",18936,45787.6,169423,,,
"WidthR<2000>/4/422/real_time",19149,45072.2,166912,,,
"WidthR<2000>/4/426/real_time",16579,36202.8,165521,,,
"WidthR<2000>/4/430/real_time",19750,48047.4,161630,,,
"WidthR<2000>/4/434/real_time",20116,42896.7,159286,,,
"WidthR<2000>/4/438/real_time",19770,42361.4,156813,,,
"WidthR<2000>/4/442/real_time",20716,41571.4,154866,,,
"WidthR<2000>/4/446/real_time",21013,41101.6,153248,,,
"WidthR<2000>/4/450/real_time",21425,40346.3,150488,,,
"WidthR<2000>/4/454/real_time",21753,39550.2,147667,,,
"WidthR<2000>/4/458/real_time",22038,38799.4,144850,,,
"WidthR<2000>/4/462/real_time",20757,38544,142611,,,
"WidthR<2000>/4/466/real_time",22898,37404.3,140108,,,
"WidthR<2000>/4/470/real_time",23194,36848.2,138148,,,
"WidthR<2000>/4/474/real_time",23656,36655.1,137479,,,
"WidthR<2000>/4/478/real_time",24094,35484.2,133320,,,
"WidthR<2000>/4/482/real_time",24534,35611.1,134026,,,
"WidthR<2000>/4/486/real_time",24989,34008.6,127904,,,
"WidthR<2000>/4/490/real_time",25412,33402.8,125775,,,
"WidthR<2000>/4/494/real_time",25865,27120.8,123882,,,
"WidthR<2000>/4/498/real_time",26141,32987.2,122268,,,
"WidthR<2000>/4/502/real_time",26519,32594.5,123089,,,
"WidthR<2000>/4/506/real_time",26501,32654.5,123475,,,
"WidthR<2000>/4/510/real_time",25706,32326.4,121847,,,
"WidthR<4000>/1/2/real_time",575,1.2173e+06,1.39139e+06,,,
"WidthR<4000>/1/6/real_time",1000,534098,392025,,,
"WidthR<4000>/1/10/real_time",2794,304221,286346,,,
"WidthR<4000>/1/14/real_time",3186,265035,251114,,,
"WidthR<4000>/1/18/real_time",3417,204858,234138,,,
"WidthR<4000>/1/22/real_time",3559,241238,224796,,,
"WidthR<4000>/1/26/real_time",3672,190576,217879,,,
"WidthR<4000>/1/30/real_time",3746,187181,213574,,,
"WidthR<4000>/1/34/real_time",3811,225711,210981,,,
"WidthR<4000>/1/38/real_time",3857,181461,206391,,,
"WidthR<4000>/1/42/real_time",3874,221770,206518,,,
"WidthR<4000>/1/46/real_time",3910,178558,204616,,,
"WidthR<4000>/1/50/real_time",3933,177839,203420,,,
"WidthR<4000>/1/54/real_time",3928,242119,202660,,,
"WidthR<4000>/1/58/real_time",3955,211834,202288,,,
"WidthR<4000>/1/62/real_time",3965,211316,201778,,,
"WidthR<4000>/1/66/real_time",3998,209441,200113,,,
"WidthR<4000>/1/70/real_time",4014,208843,199315,,,
"WidthR<4000>/1/74/real_time",4022,174095,198918,,,
"WidthR<4000>/1/78/real_time",4022,212828,198918,,,
"WidthR<4000>/1/82/real_time",4033,173588,198376,,,
"WidthR<4000>/1/86/real_time",4034,212411,198327,,,
"WidthR<4000>/1/90/real_time",4039,173232,198081,,,
"WidthR<4000>/1/94/real_time",4045,211703,197787,,,
"WidthR<4000>/1/98/real_time",4058,172421,197154,,,
"WidthR<4000>/1/102/real_time",4053,172860,197397,,,
"WidthR<4000>/1/106/real_time",4062,234622,196960,,,
"WidthR<4000>/1/110/real_time",4070,205621,196572,,,
"WidthR<4000>/1/114/real_time",4070,205720,196572,,,
"WidthR<4000>/1/118/real_time",4078,205234,196187,,,
"WidthR<4000>/1/122/real_time",4074,171896,196379,,,
"WidthR<4000>/1/126/real_time",4085,171321,195851,,,
"WidthR<4000>/1/130/real_time",4089,209537,195659,,,
"WidthR<4000>/1/134/real_time",4088,171195,194728,,,
"WidthR<4000>/1/138/real_time",4094,209171,195420,,,
"WidthR<4000>/1/142/real_time",4093,170978,194491,,,
"WidthR<4000>/1/146/real_time",4096,209056,195325,,,
"WidthR<4000>/1/150/real_time",4098,170789,195229,,,
"WidthR<4000>/1/154/real_time",4099,209056,195182,,,
"WidthR<4000>/1/158/real_time",4098,170792,194253,,,
"WidthR<4000>/1/162/real_time",4100,170701,195134,,,
"WidthR<4000>/1/166/real_time",4100,170734,195134,,,
"WidthR<4000>/1/170/real_time",4102,170757,195039,,,
"WidthR<4000>/1/174/real_time",4102,208830,195039,,,
"WidthR<4000>/1/178/real_time",4102,170997,195039,,,
"WidthR<4000>/1/182/real_time",4100,208863,195134,,,
"WidthR<4000>/1/186/real_time",4097,170764,195277,,,
"WidthR<4000>/1/190/real_time",4098,208914,195230,,,
"WidthR<4000>/1/194/real_time",4107,170433,194802,,,
"WidthR<4000>/1/198/real_time",4105,208652,194896,,,
"WidthR<4000>/1/202/real_time",4111,170313,194612,,,
"WidthR<4000>/1/206/real_time",4112,170236,194565,,,
"WidthR<4000>/1/210/real_time",4111,170258,194612,,,
"WidthR<4000>/1/214/real_time",4111,170218,194612,,,
"WidthR<4000>/1/218/real_time",4110,208536,194659,,,
"WidthR<4000>/1/222/real_time",4110,170283,194659,,,
"WidthR<4000>/1/226/real_time",4115,208085,194423,,,
"WidthR<4000>/1/230/real_time",4114,170115,194470,,,
"WidthR<4000>/1/234/real_time",4114,208098,194470,,,
"WidthR<4000>/1/238/real_time",4116,170084,194376,,,
"WidthR<4000>/1/242/real_time",4116,208046,194376,,,
"WidthR<4000>/1/246/real_time",4115,170058,194423,,,
"WidthR<4000>/1/250/real_time",4115,207787,194423,,,
"WidthR<4000>/1/254/real_time",4120,169887,194187,,,
"WidthR<4000>/1/258/real_time",4122,169765,194093,,,
"WidthR<4000>/1/262/real_time",4121,231176,194140,,,
"WidthR<4000>/1/266/real_time",4122,203149,194093,,,
"WidthR<4000>/1/270/real_time",4122,203031,194093,,,
"WidthR<4000>/1/274/real_time",4121,203055,194140,,,
"WidthR<4000>/1/278/real_time",4121,169834,193169,,,
"WidthR<4000>/1/282/real_time",4119,169822,194234,,,
"WidthR<4000>/1/286/real_time",4124,207752,193999,,,
"WidthR<4000>/1/290/real_time",4124,169728,193999,,,
"WidthR<4000>/1/294/real_time",4124,207594,193999,,,
"WidthR<4000>/1/298/real_time",4124,169730,193999,,,
"WidthR<4000>/1/302/real_time",4116,207709,194376,,,
"WidthR<4000>/1/306/real_time",4123,169741,194046,,,
"WidthR<4000>/1/310/real_time",4128,207415,193811,,,
"WidthR<4000>/1/314/real_time",4127,169573,193858,,,
"WidthR<4000>/1/318/real_time",4122,207445,193122,,,
"WidthR<4000>/1/322/real_time",4129,169531,193764,,,
"WidthR<4000>/1/326/real_time",4128,169561,193811,,,
"WidthR<4000>/1/330/real_time",4128,169553,193810,,,
"WidthR<4000>/1/334/real_time",4128,169553,193811,,,
"WidthR<4000>/1/338/real_time",4129,207491,193764,,,
"WidthR<4000>/1/342/real_time",4128,169551,192842,,,
"WidthR<4000>/1/346/real_time",4128,207437,193811,,,
"WidthR<4000>/1/350/real_time",4116,169588,193404,,,
"WidthR<4000>/1/354/real_time",4128,207409,193811,,,
"WidthR<4000>/1/358/real_time",4126,169600,193905,,,
"WidthR<4000>/1/362/real_time",4127,207457,193858,,,
"WidthR<4000>/1/366/real_time",4126,169623,193905,,,
"WidthR<4000>/1/370/real_time",4118,207942,194281,,,
"WidthR<4000>/1/374/real_time",4126,169775,193905,,,
"WidthR<4000>/1/378/real_time",4115,169987,194423,,,
"WidthR<4000>/1/382/real_time",4116,230943,194376,,,
"WidthR<4000>/1/386/real_time",4129,202654,193764,,,
"WidthR<4000>/1/390/real_time",4128,202674,193811,,,
"WidthR<4000>/1/394/real_time",4127,202687,193858,,,
"WidthR<4000>/1/398/real_time",4127,169589,193857,,,
"WidthR<4000>/1/402/real_time",4126,169343,193905,,,
"WidthR<4000>/1/406/real_time",4133,230358,193576,,,
"WidthR<4000>/1/410/real_time",4135,202393,193483,,,
"WidthR<4000>/1/414/real_time",4133,202353,193576,,,
"WidthR<4000>/1/418/real_time",4136,202492,193436,,,
"WidthR<4000>/1/422/real_time",4133,169310,193576,,,
"WidthR<4000>/1/426/real_time",4133,169339,193576,,,
"WidthR<4000>/1/430/real_time",4134,207294,193529,,,
"WidthR<4000>/1/434/real_time",4133,169341,193576,,,
"WidthR<4000>/1/438/real_time",4125,207634,193952,,,
"WidthR<4000>/1/442/real_time",4120,169844,193216,,,
"WidthR<4000>/1/446/real_time",4135,207028,193482,,,
"WidthR<4000>/1/450/real_time",4138,169169,193342,,,
"WidthR<4000>/1/454/real_time",4137,207008,193389,,,
"WidthR<4000>/1/458/real_time",4136,169199,193436,,,
"WidthR<4000>/1/462/real_time",4136,207004,193436,,,
"WidthR<4000>/1/466/real_time",4137,169336,194356,,,
"WidthR<4000>/1/470/real_time",4136,169220,193436,,,
"WidthR<4000>/1/474/real_time",4136,169307,193436,,,
"WidthR<4000>/1/478/real_time",4136,169260,193436,,,
"WidthR<4000>/1/482/real_time",4137,207098,193389,,,
"WidthR<4000>/1/486/real_time",4127,169258,193858,,,
"WidthR<4000>/1/490/real_time",4137,206987,193389,,,
"WidthR<4000>/1/494/real_time",4126,169190,192935,,,
"WidthR<4000>/1/498/real_time",4136,207104,193436,,,
"WidthR<4000>/1/502/real_time",4139,169157,193295,,,
"WidthR<4000>/1/506/real_time",4139,206888,193295,,,
"WidthR<4000>/1/510/real_time",4137,169140,193389,,,
"WidthR<4000>/2/2/real_time",789,890668,2.03815e+06,,,
"WidthR<4000>/2/6/real_time",2812,306117,567603,,,
"WidthR<4000>/2/10/real_time",4074,205233,391777,,,
"WidthR<4000>/2/14/real_time",4837,144761,330804,,,
"WidthR<4000>/2/18/real_time",5367,158264,297391,,,
"WidthR<4000>/2/22/real_time",5762,121297,277005,,,
"WidthR<4000>/2/26/real_time",6054,158036,264305,,,
"WidthR<4000>/2/30/real_time",6213,132559,256253,,,
"WidthR<4000>/2/34/real_time",6451,127751,246799,,,
"WidthR<4000>/2/38/real_time",6520,107899,246641,,,
"WidthR<4000>/2/42/real_time",6538,105923,242291,,,
"WidthR<4000>/2/46/real_time",6847,137060,231941,,,
"WidthR<4000>/2/50/real_time",6919,118673,229527,,,
"WidthR<4000>/2/54/real_time",6999,117766,228047,,,
"WidthR<4000>/2/58/real_time",6989,100345,229518,,,
"WidthR<4000>/2/62/real_time",7067,134499,225852,,,
"WidthR<4000>/2/66/real_time",6985,117825,227931,,,
"WidthR<4000>/2/70/real_time",6992,117283,227703,,,
"WidthR<4000>/2/74/real_time",7100,98596,225366,,,
"WidthR<4000>/2/78/real_time",7140,98232.1,224104,,,
"WidthR<4000>/2/82/real_time",7073,133396,226226,,,
"WidthR<4000>/2/86/real_time",7169,115216,223197,,,
"WidthR<4000>/2/90/real_time",7213,115194,223499,,,
"WidthR<4000>/2/94/real_time",7255,96360.9,220551,,,
"WidthR<4000>/2/98/real_time",7328,129336,218354,,,
"WidthR<4000>/2/102/real_time",7296,112751,218215,,,
"WidthR<4000>/2/106/real_time",7477,110420,214003,,,
"WidthR<4000>/2/110/real_time",7393,94406.8,215893,,,
"WidthR<4000>/2/114/real_time",7315,95952.1,219289,,,
"WidthR<4000>/2/118/real_time",7474,116479,213554,,,
"WidthR<4000>/2/122/real_time",7383,95025.5,216727,,,
"WidthR<4000>/2/126/real_time",7542,125105,210567,,,
"WidthR<4000>/2/130/real_time",7485,109502,212171,,,
"WidthR<4000>/2/134/real_time",7612,108146,209682,,,
"WidthR<4000>/2/138/real_time",7297,95404.3,218185,,,
"WidthR<4000>/2/142/real_time",7597,92546.9,211676,,,
"WidthR<4000>/2/146/real_time",7467,93848.9,214290,,,
"WidthR<4000>/2/150/real_time",7510,116141,212530,,,
"WidthR<4000>/2/154/real_time",7681,91862.6,209882,,,
"WidthR<4000>/2/158/real_time",7429,126874,213770,,,
"WidthR<4000>/2/162/real_time",7568,109438,212487,,,
"WidthR<4000>/2/166/real_time",7676,107688,208976,,,
"WidthR<4000>/2/170/real_time",7543,92861.5,212130,,,
"WidthR<4000>/2/174/real_time",7393,95066.4,217517,,,
"WidthR<4000>/2/178/real_time",7473,116621,213582,,,
"WidthR<4000>/2/182/real_time",7631,91044.7,208112,,,
"WidthR<4000>/2/186/real_time",7546,124986,210986,,,
"WidthR<4000>/2/190/real_time",7400,111205,215689,,,
"WidthR<4000>/2/194/real_time",7539,109087,211712,,,
"WidthR<4000>/2/198/real_time",7612,92123,210733,,,
"WidthR<4000>/2/202/real_time",7568,91941,209844,,,
"WidthR<4000>/2/206/real_time",7477,93344.1,213468,,,
"WidthR<4000>/2/210/real_time",7382,95165.9,217841,,,
"WidthR<4000>/2/214/real_time",7437,93562,213540,,,
"WidthR<4000>/2/218/real_time",7628,123949,211340,,,
"WidthR<4000>/2/222/real_time",7703,107321,208763,,,
"WidthR<4000>/2/226/real_time",7642,108066,209906,,,
"WidthR<4000>/2/230/real_time",7501,92867.6,212252,,,
"WidthR<4000>/2/234/real_time",7380,128424,217358,,,
"WidthR<4000>/2/238/real_time",7454,110682,215200,,,
"WidthR<4000>/2/242/real_time",7544,109185,212102,,,
"WidthR<4000>/2/246/real_time",7619,91587.5,209489,,,
"WidthR<4000>/2/250/real_time",7762,90064,205630,,,
"WidthR<4000>/2/254/real_time",7682,90878.6,207771,,,
"WidthR<4000>/2/258/real_time",7584,92162.1,210456,,,
"WidthR<4000>/2/262/real_time",7527,93620.6,213644,,,
"WidthR<4000>/2/266/real_time",7374,94819.3,216450,,,
"WidthR<4000>/2/270/real_time",7446,93885.9,214894,,,
"WidthR<4000>/2/274/real_time",7553,116250,212909,,,
"WidthR<4000>/2/278/real_time",7567,91784.3,209872,,,
"WidthR<4000>/2/282/real_time",7677,122631,206865,,,
"WidthR<4000>/2/286/real_time",7764,106081,206092,,,
"WidthR<4000>/2/290/real_time",7697,107243,207886,,,
"WidthR<4000>/2/294/real_time",7595,91289.1,208571,,,
"WidthR<4000>/2/298/real_time",7585,92858.1,212011,,,
"WidthR<4000>/2/302/real_time",7414,94472.8,215821,,,
"WidthR<4000>/2/306/real_time",7357,95591.9,218581,,,
"WidthR<4000>/2/310/real_time",7333,95779,219296,,,
"WidthR<4000>/2/314/real_time",7419,127188,215676,,,
"WidthR<4000>/2/318/real_time",7517,109795,213396,,,
"WidthR<4000>/2/322/real_time",7600,108457,210539,,,
"WidthR<4000>/2/326/real_time",7691,90982.6,208048,,,
"WidthR<4000>/2/330/real_time",7809,121815,205929,,,
"WidthR<4000>/2/334/real_time",7814,105034,204261,,,
"WidthR<4000>/2/338/real_time",7783,105945,206103,,,
"WidthR<4000>/2/342/real_time",7694,91105.3,208487,,,
"WidthR<4000>/2/346/real_time",7557,92109.8,210679,,,
"WidthR<4000>/2/350/real_time",7536,93095.8,212858,,,
"WidthR<4000>/2/354/real_time",7445,94218.6,215460,,,
"WidthR<4000>/2/358/real_time",7390,94823.5,217064,,,
"WidthR<4000>/2/362/real_time",7267,128864,218536,,,
"WidthR<4000>/2/366/real_time",7348,112557,218849,,,
"WidthR<4000>/2/370/real_time",7420,111353,216186,,,
"WidthR<4000>/2/374/real_time",7494,93846.9,214585,,,
"WidthR<4000>/2/378/real_time",7550,126114,212464,,,
"WidthR<4000>/2/382/real_time",7560,108635,211124,,,
"WidthR<4000>/2/386/real_time",7626,107629,208773,,,
"WidthR<4000>/2/390/real_time",7763,90374.4,206634,,,
"WidthR<4000>/2/394/real_time",7818,89735.6,205180,,,
"WidthR<4000>/2/398/real_time",7806,89238.2,203958,,,
"WidthR<4000>/2/402/real_time",7779,89137.8,203638,,,
"WidthR<4000>/2/406/real_time",7796,90480.6,207299,,,
"WidthR<4000>/2/410/real_time",7705,90591.6,207151,,,
"WidthR<4000>/2/414/real_time",7458,91724,209184,,,
"WidthR<4000>/2/418/real_time",7593,92245.2,210734,,,
"WidthR<4000>/2/422/real_time",7513,92994.3,212978,,,
"WidthR<4000>/2/426/real_time",7482,93687.3,213860,,,
"WidthR<4000>/2/430/real_time",7349,94946.9,217186,,,
"WidthR<4000>/2/434/real_time",7291,128512,218365,,,
"WidthR<4000>/2/438/real_time",7298,113172,219800,,,
"WidthR<4000>/2/442/real_time",7182,114332,221679,,,
"WidthR<4000>/2/446/real_time",7204,97173.3,222113,,,
"WidthR<4000>/2/450/real_time",7223,131004,220421,,,
"WidthR<4000>/2/454/real_time",7301,112325,218066,,,
"WidthR<4000>/2/458/real_time",7377,111833,216904,,,
"WidthR<4000>/2/462/real_time",7433,94153.1,215270,,,
"WidthR<4000>/2/466/real_time",7498,93412.2,213404,,,
"WidthR<4000>/2/470/real_time",7545,92790.5,212074,,,
"WidthR<4000>/2/474/real_time",7593,92083.7,210734,,,
"WidthR<4000>/2/478/real_time",7641,91725.3,209933,,,
"WidthR<4000>/2/482/real_time",7689,90803.2,207582,,,
"WidthR<4000>/2/486/real_time",7681,121498,206757,,,
"WidthR<4000>/2/490/real_time",7781,105965,205642,,,
"WidthR<4000>/2/494/real_time",7861,104764,203549,,,
"WidthR<4000>/2/498/real_time",7899,88531.6,202064,,,
"WidthR<4000>/2/502/real_time",7938,119254,201575,,,
"WidthR<4000>/2/506/real_time",7885,104515,202930,,,
"WidthR<4000>/2/510/real_time",7837,104753,203662,,,
"WidthR<4000>/3/2/real_time",905,773262,2.61674e+06,,,
"WidthR<4000>/3/6/real_time",3739,230910,642993,,,
"WidthR<4000>/3/10/real_time",5350,130650,447131,,,
"WidthR<4000>/3/14/real_time",6423,109361,374926,,,
"WidthR<4000>/3/18/real_time",7174,97980.9,335120,,,
"WidthR<4000>/3/22/real_time",7678,90979.8,311559,,,
"WidthR<4000>/3/26/real_time",8102,115971,295748,,,
"WidthR<4000>/3/30/real_time",8392,99258.6,289341,,,
"WidthR<4000>/3/34/real_time",8649,94761.3,276119,,,
"WidthR<4000>/3/38/real_time",8964,77484.9,265523,,,
"WidthR<4000>/3/42/real_time",9173,102575,260782,,,
"WidthR<4000>/3/46/real_time",9232,89231.7,260415,,,
"WidthR<4000>/3/50/real_time",9271,88706.7,258888,,,
"WidthR<4000>/3/54/real_time",9301,75042.1,256763,,,
"WidthR<4000>/3/58/real_time",9440,99787.5,253829,,,
"WidthR<4000>/3/62/real_time",9398,86936.1,253687,,,
"WidthR<4000>/3/66/real_time",9540,86081.1,251588,,,
"WidthR<4000>/3/70/real_time",9612,72949.5,250120,,,
"WidthR<4000>/3/74/real_time",9678,97463.5,248414,,,
"WidthR<4000>/3/78/real_time",9759,84408,246762,,,
"WidthR<4000>/3/82/real_time",9725,84078.4,245980,,,
"WidthR<4000>/3/86/real_time",9766,71705.1,245766,,,
"WidthR<4000>/3/90/real_time",9798,95761.1,243738,,,
"WidthR<4000>/3/94/real_time",9822,83087,242736,,,
"WidthR<4000>/3/98/real_time",10002,81640.7,238367,,,
"WidthR<4000>/3/102/real_time",10183,68823.9,236095,,,
"WidthR<4000>/3/106/real_time",10051,93619.4,238797,,,
"WidthR<4000>/3/110/real_time",10139,80855.4,236725,,,
"WidthR<4000>/3/114/real_time",10045,81770.6,238940,,,
"WidthR<4000>/3/118/real_time",9905,69999.7,239894,,,
"WidthR<4000>/3/122/real_time",10375,90848.9,232111,,,
"WidthR<4000>/3/126/real_time",10151,80125.9,234474,,,
"WidthR<4000>/3/130/real_time",10190,80678.8,236325,,,
"WidthR<4000>/3/134/real_time",10528,66419.4,227598,,,
"WidthR<4000>/3/138/real_time",10255,91327.7,232877,,,
"WidthR<4000>/3/142/real_time",10094,81108,237384,,,
"WidthR<4000>/3/146/real_time",10440,67044.4,229899,,,
"WidthR<4000>/3/150/real_time",10522,66498,228108,,,
"WidthR<4000>/3/154/real_time",10262,91028.8,232328,,,
"WidthR<4000>/3/158/real_time",10109,80974.6,237031,,,
"WidthR<4000>/3/162/real_time",10274,68020.7,233225,,,
"WidthR<4000>/3/166/real_time",10674,65576.5,224859,,,
"WidthR<4000>/3/170/real_time",10562,88554.1,227244,,,
"WidthR<4000>/3/174/real_time",10328,79213.3,231618,,,
"WidthR<4000>/3/178/real_time",10251,68208.8,233748,,,
"WidthR<4000>/3/182/real_time",10054,69627.8,238726,,,
"WidthR<4000>/3/186/real_time",10374,67442.4,230976,,,
"WidthR<4000>/3/190/real_time",10624,89859.6,225541,,,
"WidthR<4000>/3/194/real_time",10535,77578.8,227067,,,
"WidthR<4000>/3/198/real_time",10368,79298.1,232268,,,
"WidthR<4000>/3/202/real_time",10249,67753.2,231842,,,
"WidthR<4000>/3/206/real_time",10147,92413.8,235749,,,
"WidthR<4000>/3/210/real_time",9970,81958.3,239534,,,
"WidthR<4000>/3/214/real_time",10241,80020.6,233976,,,
"WidthR<4000>/3/218/real_time",10552,66358.3,227080,,,
"WidthR<4000>/3/222/real_time",10784,87321.4,222937,,,
"WidthR<4000>/3/226/real_time",10630,76872,225414,,,
"WidthR<4000>/3/230/real_time",10497,78255.4,229032,,,
"WidthR<4000>/3/234/real_time",10401,67674.3,231915,,,
"WidthR<4000>/3/238/real_time",10330,91286.6,233122,,,
"WidthR<4000>/3/242/real_time",10210,80319.2,234687,,,
"WidthR<4000>/3/246/real_time",10082,81472.2,238460,,,
"WidthR<4000>/3/250/real_time",8861,70247.4,241071,,,
"WidthR<4000>/3/254/real_time",10193,91173.7,235078,,,
"WidthR<4000>/3/258/real_time",10463,78227.5,228629,,,
"WidthR<4000>/3/262/real_time",10659,65309.2,223675,,,
"WidthR<4000>/3/266/real_time",10924,63936.9,218981,,,
"WidthR<4000>/3/270/real_time",10860,85919.4,221377,,,
"WidthR<4000>/3/274/real_time",10645,76715.8,224720,,,
"WidthR<4000>/3/278/real_time",10568,66382.2,227872,,,
"WidthR<4000>/3/282/real_time",10388,67033.9,229895,,,
"WidthR<4000>/3/286/real_time",10341,67594.1,231327,,,
"WidthR<4000>/3/290/real_time",10251,89661,233358,,,
"WidthR<4000>/3/294/real_time",10209,80477.3,235101,,,
"WidthR<4000>/3/298/real_time",10078,69515.6,238157,,,
"WidthR<4000>/3/302/real_time",9954,94816.6,241928,,,
"WidthR<4000>/3/306/real_time",9805,83377.8,243565,,,
"WidthR<4000>/3/310/real_time",9891,82961.3,242660,,,
"WidthR<4000>/3/314/real_time",10063,69351.2,237717,,,
"WidthR<4000>/3/318/real_time",10281,91443.8,233455,,,
"WidthR<4000>/3/322/real_time",10444,78348.1,229811,,,
"WidthR<4000>/3/326/real_time",10701,76651.8,224292,,,
"WidthR<4000>/3/330/real_time",10883,64176.6,219806,,,
"WidthR<4000>/3/334/real_time",10881,86110.8,220214,,,
"WidthR<4000>/3/338/real_time",10909,74611,218182,,,
"WidthR<4000>/3/342/real_time",10863,75530.6,221315,,,
"WidthR<4000>/3/346/real_time",10538,65391.4,223965,,,
"WidthR<4000>/3/350/real_time",10624,88308.2,225541,,,
"WidthR<4000>/3/354/real_time",10509,77907,227629,,,
"WidthR<4000>/3/358/real_time",10382,78652.1,230028,,,
"WidthR<4000>/3/362/real_time",10285,67829.6,232586,,,
"WidthR<4000>/3/366/real_time",10228,92012.2,235056,,,
"WidthR<4000>/3/370/real_time",10161,80586,235818,,,
"WidthR<4000>/3/374/real_time",9982,81405.1,238043,,,
"WidthR<4000>/3/378/real_time",9996,70102,240111,,,
"WidthR<4000>/3/382/real_time",9912,95869.4,244971,,,
"WidthR<4000>/3/386/real_time",9751,83776.1,244913,,,
"WidthR<4000>/3/390/real_time",9689,84562.8,247306,,,
"WidthR<4000>/3/394/real_time",9604,72794.2,249495,,,
"WidthR<4000>/3/398/real_time",9543,99378.8,253605,,,
"WidthR<4000>/3/402/real_time",9597,85612.2,250094,,,
"WidthR<4000>/3/406/real_time",9726,84318.8,246365,,,
"WidthR<4000>/3/410/real_time",9839,70934.3,243129,,,
"WidthR<4000>/3/414/real_time",9944,94274.1,240160,,,
"WidthR<4000>/3/418/real_time",10125,81346.9,237842,,,
"WidthR<4000>/3/422/real_time",10264,79515,232672,,,
"WidthR<4000>/3/426/real_time",10346,67144.5,230055,,,
"WidthR<4000>/3/430/real_time",10548,88798.9,226787,,,
"WidthR<4000>/3/434/real_time",10683,76705.2,224670,,,
"WidthR<4000>/3/438/real_time",10880,75909.4,222073,,,
"WidthR<4000>/3/442/real_time",10963,63556.7,217837,,,
"WidthR<4000>/3/446/real_time",11097,85126.8,218091,,,
"WidthR<4000>/3/450/real_time",11099,75756.5,222016,,,
"WidthR<4000>/3/454/real_time",10790,64042.4,219476,,,
"WidthR<4000>/3/458/real_time",10707,64919.6,222672,,,
"WidthR<4000>/3/462/real_time",10778,87351.5,224917,,,
"WidthR<4000>/3/466/real_time",10678,76248.9,223277,,,
"WidthR<4000>/3/470/real_time",10516,65996.1,225956,,,
"WidthR<4000>/3/474/real_time",10577,66719.1,228813,,,
"WidthR<4000>/3/478/real_time",10257,68573.7,235171,,,
"WidthR<4000>/3/482/real_time",10412,91898.2,230518,,,
"WidthR<4000>/3/486/real_time",10314,79542.2,232708,,,
"WidthR<4000>/3/490/real_time",10218,80119.7,234503,,,
"WidthR<4000>/3/494/real_time",10146,68678,235378,,,
"WidthR<4000>/3/498/real_time",10010,93265.4,237777,,,
"WidthR<4000>/3/502/real_time",9272,81500.8,237720,,,
"WidthR<4000>/3/506/real_time",10024,81485,238243,,,
"WidthR<4000>/3/510/real_time",9969,70043,239959,,,
"WidthR<4000>/4/2/real_time",912,1.02946e+06,3.38618e+06,,,
"WidthR<4000>/4/6/real_time",3941,212483,801877,,,
"WidthR<4000>/4/10/real_time",6048,136929,525826,,,
"WidthR<4000>/4/14/real_time",7412,94703.6,430680,,,
"WidthR<4000>/4/18/real_time",8375,83251.6,378770,,,
"WidthR<4000>/4/22/real_time",9043,103400,351233,,,
"WidthR<4000>/4/26/real_time",9576,85195.4,330848,,,
"WidthR<4000>/4/30/real_time",9753,69748.9,317461,,,
"WidthR<4000>/4/34/real_time",10640,65679.1,299267,,,
"WidthR<4000>/4/38/real_time",10692,65349.4,297811,,,
"WidthR<4000>/4/42/real_time",10955,86993.9,290662,,,
"WidthR<4000>/4/46/real_time",10890,74790.7,291295,,,
"WidthR<4000>/4/50/real_time",11206,73239.4,285579,,,
"WidthR<4000>/4/54/real_time",11267,61923.8,282613,,,
"WidthR<4000>/4/58/real_time",11275,83374.9,283831,,,
"WidthR<4000>/4/62/real_time",11312,72226.3,281489,,,
"WidthR<4000>/4/66/real_time",11461,71800,279923,,,
"WidthR<4000>/4/70/real_time",11445,61084.2,278567,,,
"WidthR<4000>/4/74/real_time",11593,81253,276736,,,
"WidthR<4000>/4/78/real_time",11726,69820.9,272574,,,
"WidthR<4000>/4/82/real_time",11760,69627,271445,,,
"WidthR<4000>/4/86/real_time",11833,58898.4,268757,,,
"WidthR<4000>/4/90/real_time",11937,78191.5,266080,,,
"WidthR<4000>/4/94/real_time",12008,68059.3,265506,,,
"WidthR<4000>/4/98/real_time",12105,57951.6,264701,,,
"WidthR<4000>/4/102/real_time",12203,57547.6,262575,,,
"WidthR<4000>/4/106/real_time",12169,78823.4,263966,,,
"WidthR<4000>/4/110/real_time",12300,66332.4,258878,,,
"WidthR<4000>/4/114/real_time",12261,66503.7,259375,,,
"WidthR<4000>/4/118/real_time",12150,57405.8,261745,,,
"WidthR<4000>/4/122/real_time",12223,76832.3,262145,,,
"WidthR<4000>/4/126/real_time",12691,64698.9,252478,,,
"WidthR<4000>/4/130/real_time",12508,65879.5,257132,,,
"WidthR<4000>/4/134/real_time",12407,56247.3,256968,,,
"WidthR<4000>/4/138/real_time",12210,77077.7,263080,,,
"WidthR<4000>/4/142/real_time",12807,63869.1,249567,,,
"WidthR<4000>/4/146/real_time",12744,55098,251428,,,
"WidthR<4000>/4/150/real_time",12630,55439.4,253064,,,
"WidthR<4000>/4/154/real_time",12413,74775.8,255877,,,
"WidthR<4000>/4/158/real_time",12302,66497.5,259486,,,
"WidthR<4000>/4/162/real_time",12519,55996.2,255308,,,
"WidthR<4000>/4/166/real_time",13016,53596.5,244637,,,
"WidthR<4000>/4/170/real_time",12929,73434.4,246283,,,
"WidthR<4000>/4/174/real_time",12665,64333.2,251101,,,
"WidthR<4000>/4/178/real_time",12630,64554.8,252114,,,
"WidthR<4000>/4/182/real_time",12430,56000.5,255849,,,
"WidthR<4000>/4/186/real_time",12243,75754.8,258123,,,
"WidthR<4000>/4/190/real_time",12106,68040.9,265670,,,
"WidthR<4000>/4/194/real_time",12588,56001.5,255497,,,
"WidthR<4000>/4/198/real_time",13014,53817,245597,,,
"WidthR<4000>/4/202/real_time",13110,71059.5,243188,,,
"WidthR<4000>/4/206/real_time",12946,63670.5,248741,,,
"WidthR<4000>/4/210/real_time",12734,55104.1,251626,,,
"WidthR<4000>/4/214/real_time",12496,55238.3,251936,,,
"WidthR<4000>/4/218/real_time",12548,75825.2,254399,,,
"WidthR<4000>/4/222/real_time",12339,66396.9,259032,,,
"WidthR<4000>/4/226/real_time",12325,66382.4,259326,,,
"WidthR<4000>/4/230/real_time",12131,57550.8,262814,,,
"WidthR<4000>/4/234/real_time",11983,78106.1,266394,,,
"WidthR<4000>/4/238/real_time",12244,67104.8,262022,,,
"WidthR<4000>/4/242/real_time",12638,55732.4,254487,,,
"WidthR<4000>/4/246/real_time",13009,53747.3,245384,,,
"WidthR<4000>/4/250/real_time",13199,70971,242761,,,
"WidthR<4000>/4/254/real_time",13140,61930.6,242024,,,
"WidthR<4000>/4/258/real_time",13165,53443.1,243996,,,
"WidthR<4000>/4/262/real_time",12775,53972.8,246434,,,
"WidthR<4000>/4/266/real_time",12681,74473.2,249838,,,
"WidthR<4000>/4/270/real_time",12695,64434.9,251768,,,
"WidthR<4000>/4/274/real_time",12526,65435.8,255804,,,
"WidthR<4000>/4/278/real_time",12505,55651.1,253994,,,
"WidthR<4000>/4/282/real_time",12397,75378.6,257498,,,
"WidthR<4000>/4/286/real_time",12282,66590.7,259909,,,
"WidthR<4000>/4/290/real_time",12215,57251,261662,,,
"WidthR<4000>/4/294/real_time",12077,58135.2,265314,,,
"WidthR<4000>/4/298/real_time",11788,78379.4,268086,,,
"WidthR<4000>/4/302/real_time",11172,69349.1,270336,,,
"WidthR<4000>/4/306/real_time",11642,60138.9,274540,,,
"WidthR<4000>/4/310/real_time",11821,79858.5,272414,,,
"WidthR<4000>/4/314/real_time",12117,67848.5,265099,,,
"WidthR<4000>/4/318/real_time",12433,65603.4,256109,,,
"WidthR<4000>/4/322/real_time",12777,55197.6,252344,,,
"WidthR<4000>/4/326/real_time",13068,71567.9,244276,,,
"WidthR<4000>/4/330/real_time",13448,60804.1,237671,,,
"WidthR<4000>/4/334/real_time",13510,60101.5,234804,,,
"WidthR<4000>/4/338/real_time",13466,51377.2,234680,,,
"WidthR<4000>/4/342/real_time",13227,70732.4,241945,,,
"WidthR<4000>/4/346/real_time",13283,61219.8,239419,,,
"WidthR<4000>/4/350/real_time",13094,53084,242569,,,
"WidthR<4000>/4/354/real_time",13019,53577.9,244888,,,
"WidthR<4000>/4/358/real_time",12787,74004.3,248393,,,
"WidthR<4000>/4/362/real_time",12776,63988.3,249859,,,
"WidthR<4000>/4/366/real_time",12168,63892.7,249523,,,
"WidthR<4000>/4/370/real_time",12622,55444.7,253224,,,
"WidthR<4000>/4/374/real_time",12557,74314.5,253261,,,
"WidthR<4000>/4/378/real_time",12495,65330.3,255158,,,
"WidthR<4000>/4/382/real_time",12343,56548,258300,,,
"WidthR<4000>/4/386/real_time",12313,57269.7,261529,,,
"WidthR<4000>/4/390/real_time",12149,76626.3,263083,,,
"WidthR<4000>/4/394/real_time",12024,68126.3,266151,,,
"WidthR<4000>/4/398/real_time",11974,58737.6,268599,,,
"WidthR<4000>/4/402/real_time",11968,58519.5,267062,,,
"WidthR<4000>/4/406/real_time",11885,80512.3,269937,,,
"WidthR<4000>/4/410/real_time",11754,69782.1,272605,,,
"WidthR<4000>/4/414/real_time",11604,70958.5,277163,,,
"WidthR<4000>/4/418/real_time",11520,61307.4,280226,,,
"WidthR<4000>/4/422/real_time",11455,81780.4,278673,,,
"WidthR<4000>/4/426/real_time",11217,72780.3,284229,,,
"WidthR<4000>/4/430/real_time",11244,73744.3,287816,,,
"WidthR<4000>/4/434/real_time",11153,62584.8,285860,,,
"WidthR<4000>/4/438/real_time",11008,84805.2,288899,,,
"WidthR<4000>/4/442/real_time",10693,76348.9,297783,,,
"WidthR<4000>/4/446/real_time",11014,74497.5,290557,,,
"WidthR<4000>/4/450/real_time",11213,62519.8,285758,,,
"WidthR<4000>/4/454/real_time",11415,82859.7,282453,,,
"WidthR<4000>/4/458/real_time",11611,70763.5,276307,,,
"WidthR<4000>/4/462/real_time",11797,59180.4,270255,,,
"WidthR<4000>/4/466/real_time",11973,58240.7,265948,,,
"WidthR<4000>/4/470/real_time",11969,77573.3,265703,,,
"WidthR<4000>/4/474/real_time",12171,66092.6,258006,,,
"WidthR<4000>/4/478/real_time",12533,55961.2,255661,,,
"WidthR<4000>/4/482/real_time",12854,54213,247720,,,
"WidthR<4000>/4/486/real_time",12960,73407.8,246620,,,
"WidthR<4000>/4/490/real_time",13343,61522.1,240741,,,
"WidthR<4000>/4/494/real_time",13566,60157,235309,,,
"WidthR<4000>/4/498/real_time",13814,50677.9,231664,,,
"WidthR<4000>/4/502/real_time",13955,66876.8,228750,,,
"WidthR<4000>/4/506/real_time",13914,58607.6,229424,,,
"WidthR<4000>/4/510/real_time",13802,50776.9,231865,,,
