name,iterations,real_time,cpu_time,bytes_per_second,items_per_second,label
"BM_EvaluateR<1000>/1/154",9210,77406.1,73837.4,,,"1.960102e-308"
"BM_EvaluateR<1000>/4/154",5645,27113.6,123303,,,"1.960102e-308"
"BM_EvaluateR<2000>/1/177",4861,127617,145658,,,"1.403834e-308"
"BM_EvaluateR<2000>/4/177",3365,97077.5,203282,,,"1.403834e-308"
"BM_EvaluateR<3000>/1/223",3182,189809,217487,,,"1.960102e-308"
"BM_EvaluateR<3000>/4/223",2273,67337.7,306222,,,"1.960102e-308"
"BM_EvaluateR<4000>/1/182",2430,252891,289730,,,"1.960102e-308"
"BM_EvaluateR<4000>/4/182",1768,85370.8,391427,,,"1.960102e-308"

